batch_guid,record_num,record_type,is_multi_rec,is_reported_diagnostic,year,asmt_date,state_code,resp_dist_id,resp_dist_name,resp_school_id,resp_school_name,student_parcc_id,student_state_id,student_local_id,student_first_name,student_middle_name,student_last_name,student_sex,student_dob,opt_state_data1,student_grade,ethn_hisp_latino,ethn_indian_alaska,ethn_asian,ethn_black,ethn_hawai,ethn_white,ethn_two_or_more_races,ethn_filler,ethnicity,ell,lep_status,gift_talent,migrant_status,econo_disadvantage,disabil_student,primary_disabil_type,staff_id,accomod_ell,accomod_504,accomod_ind_ed,accomod_freq_breaks,accomod_alt_location,accomod_small_group,accomod_special_equip,accomod_spec_area,accomod_time_day,accomod_answer_mask,accomod_color_contrast,accomod_text_2_speech_math,accomod_read_math,accomod_asl_video,accomod_screen_reader,accomod_close_capt_ela,accomod_read_ela,accomod_braille_ela,accomod_tactile_graph,accomod_text_2_speech_ela,accomod_answer_rec,accomod_braille_resp,accomod_calculator,accomod_construct_resp_ela,accomod_select_resp_ela,accomod_math_resp,accomod_monitor_test_resp,accomod_word_predict,accomod_native_lang,accomod_loud_native_lang,accomod_math_rsp,accomod_math_text_2_speech,accomod_math_trans_online,accomod_w_2_w_dict,accomod_extend_time,accomod_alt_paper_test,accomod_paper_trans_math,accomod_human_read_sign,accomod_large_print,accomod_braille_tactile,opt_state_data2,opt_state_data3,opt_state_data4,opt_state_data5,opt_state_data6,opt_state_data7,opt_state_data8,poy,test_code,asmt_grade,asmt_subject,asmt_scale_score,create_date,rec_status
b9103494-0e86-4662-ab24-b0c0fbf448f6,10,04,,,2014-2015,2015-03-05,RI,R0001,Newport,RN001,Rogers High School,Xwk5McYQSIRVCwDpzpWzMfHYetWqy5BUNy6Z2ogV,MlmSUBgk2YxCyyfo6OptZmHBC02LlOScVKkBPyQO,xCgjFCvTnUHSEh54cJnkjTZVMEtIczPiAxvh5CrU,Chase,Chase,Lawlor,F,2015-03-05,,03,N,Y,N,N,N,N,Y,,04,N,Y,Y,N,N,N,DD,a0b1c2d3e4f5g6h7i8j9k0l1m2n3opqrstuvwx,N,N,N,,,,,,,,,,,Y,Y,,,,,,,,,,,,,,Y,,,,,,,,,,,,3jjXcxXj9,3jjXcxXj9,3jjXcxXj9,3jjXcxXj9,3jjXcxXj9,3jjXcxXj9,3jjXcxXj9,Spring,ELA03,03,English Language Arts/Literacy,505,2015-05-19 13:48:37.700931-04,C
b9103494-0e86-4662-ab24-b0c0fbf448f6,11,04,,,2014-2015,2015-03-05,RI,R0001,Newport,RN001,Rogers High School,MXGplB4M232z2j4FNTStjIAKRER2ujJ8Z2OlV7Yn,xK2Faci3f8jeHK0T5ctKCG9m8qtFs0CUS92459TJ,rBQcB1GLoy5fdMUfjBX7cmKz3xKluOBGdsJL5DDn,Joella,Betty,Parr,F,2015-03-05,,03,N,N,N,N,N,Y,Y,,02,Y,Y,N,Y,N,Y,OI,a0b1c2d3e4f5g6h7i8j9k0l1m2n3opqrstuvwx,N,Y,Y,,,,,,,,,,,Y,,,,Y,,,,,,,,,,,Y,,,,,,,,,,,,KM08fO,KM08fO,KM08fO,KM08fO,KM08fO,KM08fO,KM08fO,Spring,ELA03,03,English Language Arts/Literacy,585,2015-05-19 13:48:37.700794-04,C
b9103494-0e86-4662-ab24-b0c0fbf448f6,12,04,,,2014-2015,2015-03-05,RI,R0001,Newport,RN001,Rogers High School,UMaYGd8hto4TYc7EiWKtivzti8YAWg5xozomFI8q,GZHpQpxaeap0uLPtsMSNT525rjOaTQiKeyj3YBnK,DGsfQaDDfXEMog1xErfGsJeWSIn7QDNTYHwbxcx1,Lois,Vincent,Jewell,F,2015-03-05,,03,N,N,N,N,N,Y,Y,,04,N,N,N,Y,N,N,DD,a0b1c2d3e4f5g6h7i8j9k0l1m2n3opqrstuvwx,N,Y,Y,,,,,,,,,,,Y,,,,,,,,,,,,,,,Y,,,,,,,,,,,,GL7fec1XzKzib,GL7fec1XzKzib,GL7fec1XzKzib,GL7fec1XzKzib,GL7fec1XzKzib,GL7fec1XzKzib,GL7fec1XzKzib,Spring,ELA03,03,English Language Arts/Literacy,547,2015-05-19 13:48:37.700744-04,C
b9103494-0e86-4662-ab24-b0c0fbf448f6,13,04,,,2014-2015,2015-03-05,RI,R0001,Newport,RN001,Rogers High School,qEy737ea1Emx97d0RTxk7QpDWecnUu2eEBWvQXkK,PHSqW51HGoDx5DDlrf1AZ8MQhRTnYqmp5hasPeAL,YFTPFKP33wUilNIhHyFcJLPpbnx8U0xSrtxBffCq,Roman,Devon,Neveu,M,2015-03-05,,03,N,N,N,Y,N,N,Y,,04,N,N,N,Y,Y,N,OI,a0b1c2d3e4f5g6h7i8j9k0l1m2n3opqrstuvwx,Y,Y,Y,,,,,,,,,,,Y,,,,,,,,,Y,,SelectedResponse1,MathResponse,,,Y,,,,,,,,,,,,AofVP2mMC41Yt1,AofVP2mMC41Yt1,AofVP2mMC41Yt1,AofVP2mMC41Yt1,AofVP2mMC41Yt1,AofVP2mMC41Yt1,AofVP2mMC41Yt1,Spring,ELA03,03,English Language Arts/Literacy,570,2015-05-19 13:48:37.700921-04,C
