StateAbbreviation,TestingDistrictCode,TestingSchoolCode,ResponsibleDistrictCode,ResponsibleSchoolCode,StateStudentIdentifier,LocalStudentIdentifier,PARCCStudentIdentifier,LastOrSurname,FirstName,MiddleName,Birthdate,Sex,StateField1,GradeLevelWhenAssessed,HispanicOrLatinoEthnicity,AmericanIndianOrAlaskaNative,Asian,BlackOrAfricanAmerican,NativeHawaiianOrOtherPacificIslander,White,FillerField,TwoOrMoreRaces,EnglishLearnerEL,TitleIIILimitedEnglishProficientParticipationStatus,GiftedandTalented,MigrantStatus,EconomicDisadvantageStatus,StudentWithDisabilities,PrimaryDisabilityType,StateField2,StateField3,StateField4,StateField5,StateField6,StateField7,StateField8,StateField9,StateField10,StateField11,StateField12,Filler,ClassName,TestAdministrator,StaffMemberIdentifier,TestCode,TestFormat,Retest,ELAccommodation,FrequentBreaks,SeparateAlternateLocation,SmallTestingGroup,SpecializedEquipmentOrFurniture,SpecifiedAreaOrSetting,TimeOfDay,AnswerMasking,FillerField,ColorContrast,ASLVideo,AssistiveTechnologyScreenReader,AssistiveTechnologyNonScreenReader,ClosedCaptioningForELAL,RefreshableBrailleDisplayForELAL,AlternateRepresentationPaperTest,LargePrint,BrailleWithTactileGraphics,StudentReadsAssessmentAloudToThemselves,HumanSignerForTestDirections,AnswersRecordedInTestBook,BrailleResponse,CalculationDeviceAndMathematicsTools,ELALConstructedResponse,ELALSelectedResponseOrTechnologyEnhancedItems,MathematicsResponse,MonitorTestResponse,WordPrediction,AdministrationDirectionsClarifiedinStudentsNativeLanguage,AdministrationDirectionsReadAloudinStudentsNativeLanguage,MathematicsResponseEL,TranslationOfTheMathematicsAssessment,WordtoWordDictionaryEnglishNativeLanguage,TextToSpeech,HumanReaderOrHumanSigner,UniqueAccommodation,EmergencyAccommodation,ExtendedTime,StudentTestUUID,PaperFormID,OnlineFormID,TestStatus,TotalTestItems,TestAttemptednessFlag,TotalTestItemsAttempted,PaperUnit1TotalTestItems,PaperSection1NumberofAttemptedItems,PaperSection2TotalTestItems,PaperSection2NumberofAttemptedItems,PaperSection3TotalTestItems,PaperSection3NumberofAttemptedItems,PaperSection4TotalTestItems,PaperSection4NumberofAttemptedItems,StudentUnit1TestUUID,Unit1FormID,Unit1TotalTestItems,Unit1NumberofAttemptedItems,StudentUnit2TestUUID,Unit2FormID,Unit2TotalTestItems,Unit2NumberOfAttemptedItems,StudentUnit3TestUUID,Unit3FormID,Unit3TotalTestItems,Unit3NumberOfAttemptedItems,StudentUnit4TestUUID,Unit4FormID,Unit4TotalTestItems,Unit4NumberofAttemptedItems,NotTestedCode,NotTestedReason,VoidScoreCode,VoidScoreReason,ShipReportDistrictCode,ShipReportSchoolCode,SummativeFlag,MultipleTestRegistration,RosterFlag,ReportSuppressionCode,ReportSuppressionAction,AttemptCreateDate,Unit1OnlineTestStartDateTime,Unit1OnlineTestEndDateTime,Unit2OnlineTestStartDateTime,Unit2OnlineTestEndDateTime,Unit3OnlineTestStartDateTime,Unit3OnlineTestEndDateTime,Unit4OnlineTestStartDateTime,Unit4OnlineTestEndDateTime,AssessmentYear,AssessmentGrade,Subject,FederalRaceEthnicity,Period,TestingOrganizationalType,TestingDistrictName,TestingSchoolName,ResponsibleOrganizationCodeType,ResponsibleDistrictName,ResponsibleSchoolName,TestRawScore,Unit1RawScore,Unit2RawScore,Unit3RawScore,Unit4RawScore,IRTTheta,TestScaleScore,TestCSEMProbableRange,TestPerformanceLevel,TestReadingScaleScore,TestReadingCSEM,TestWritingScaleScore,TestWritingCSEM,Subclaim1Category,Subclaim2Category,Subclaim3Category,Subclaim4Category,Subclaim5Category,Subclaim6Category,StudentGrowthPercentileComparedtoState,StudentGrowthPercentileComparedtoStatefromState,StudentGrowthPercentileComparedtoCrossState,SGPPreviousTestCodeState,TestScoreComplete
RI,24,71,24,71,1230000011,,c56b5dd7-91c7-47b6-863a-667eeef68bd8,INTREPORT1,INTREPORT1,,2014-03-05,M,,2,,,,,,,,,,,,,,,,,,,,,,,,,,,,,,,ELA03,O,N,,,,,,,,,,,,,,,,,,,,,,,,,,,,,,,,,,,,,,,0c1406e5-d148-4763-9253-af6eeb1cb9ad,,16EL03SPOE0301,Testing,,,,,,,,,,,,9eec333b-dfec-49d6-9803-377538619015,16EL03SPOE03010100,11,0,02f6c9a2-c2c3-48e6-a66a-abe8b63598ad,16EL03SPOE03010200,7,1,,,,,,,,,,,,,,,,,,2,2,2016-03-25 23:38:07,2016-03-23 06:52:59,2016-03-23 06:52:59,2016-03-23 06:56:53,2016-03-23 06:57:55,,,,,2015-2016,Grade 3,English Language Arts/Literacy,8,Spring,3,PAINT DIST1,INTREPORT TESTING2,3,PAINT DIST1,INTREPORT TESTING2,0,0,0,,,,,,,,,,,,,,,,,,,,,0
RI,24,71,24,71,1230000011,,c56b5dd7-91c7-47b6-863a-667eeef68bd8,INTREPORT1,INTREPORT1,,2014-03-05,M,,2,,,,,,,,,,,,,,,,,,,,,,,,,,,,,,,MAT1I,P,Y,,,,,,,,,,,,,,,,,,,,,,,,,,,,,,,,,,,,,,,02d9ba52-0775-4dd4-a1a1-2ac43a109355,,,Assign,,,,,,,,,,,,,,,,,,,,,,,,,,,,,,,,,,,,,,,,,,,,,,,,2015-2016,,Integrated Mathematics I,8,Spring,3,PAINT DIST1,INTREPORT TESTING2,3,PAINT DIST1,INTREPORT TESTING2,,,,,,,,,,,,,,,,,,,,,,,,
RI,24,70,24,70,1230000012,,b820ddba-e616-4816-93f8-2e97f3f83966,INTREPORT2,INTREPORT1,,2016-03-04,F,,3,,,,,,,,,,,,,,,,,,,,,,,,,,,,,,,ELA04,O,Y,,,,,,,,,,,,,,,,,,,,,,,,,,,,,,,,,,,,,,,da6eb920-a244-4a04-82f9-24ef3aed4fc1,,,Assign,,,,,,,,,,,,,,,,,,,,,,,,,,,,,,,,,,,,,,,,,,,,,,,,2015-2016,Grade 4,English Language Arts/Literacy,8,Spring,3,PAINT DIST1,INTREPORTTESTING,3,PAINT DIST1,INTREPORTTESTING,,,,,,,,,,,,,,,,,,,,,,,,
RI,11,1,11,1,7710770001,7717171701,8f488cdb-03ee-488e-b032-0c3d89e74fe7,PV LSTNAME0055,PVFSTNAME0051,PVMIDNAME0005,1991-09-27,F,TEST1,7,,,,,,,,,,,,,,,,,,,,,,,,,,,,,,,MAT07,O,N,,,,,,,,,,,,,,,,,,,,,,,,,,,,,,,,,,,,,,,b9841ab4-c033-48c5-a0f9-d515025017df,,,Assign,,,,,,,,,,,,,,,,,,,,,,,,,,,,,,,,,,,,,,,,,,,,,,,,2015-2016,Grade 7,Mathematics,8,Spring,3,PV DISTRICT DEMO,PV SCHOOL DEMO,3,PV DISTRICT DEMO,PV SCHOOL DEMO,,,,,,,,,,,,,,,,,,,,,,,,
RI,24,2,24,2,8120426026,,32440aef-0cb1-46a7-be12-f6b7ea1e18e6,PAINT,PUREAZ,B,1998-01-26,M,,4,N,N,Y,N,N,N,,N,N,N,N,N,N,IEP,HI,2,3,4,5,6,7,8,9,10,11,12,,D042616 ELA05,,,ELA05,O,Y,Y,Y,Y,Y,Y,Y,Y,,,,,,Y,,,,,,Y,,,,,,,,Y,,,,,,Y,,,Y,,,65787a66-70b6-4dbf-8a0f-80d919d01901,,,Assign,,,,,,,,,,,,,,,,,,,,,,,,,,,,,,,,,,,,,,,,,,,,,,,,2015-2016,Grade 5,English Language Arts/Literacy,2,Spring,4,,PAINT NP SCHL1,4,,PAINT NP SCHL1,,,,,,,,,,,,,,,,,,,,,,,,
RI,24,2,24,2,8120426025,,a904dc5c-7efe-4f55-aaf2-310b436240f1,PAINT,PUREAY,,1998-01-25,F,,5,Y,,N,,,,,,N,N,N,Y,Y,IEP,HI,,,,,,,,,,,,,CLASS NAME ALG01 P,PAPER FORM 1 ALG01,,ALG01,P,N,Y,,,,,,,,,,,,,,,,,,,,,,,,,,,,,,,,,,,,,,7f2b44af-c67e-4dcc-a8d1-bdfad5536c2a,,,Assign,,,,,,,,,,,,,,,,,,,,,,,,,,,,,,,,,,,,,,,,,,,,,,,,2015-2016,,Algebra I,4,Spring,4,,PAINT NP SCHL1,4,,PAINT NP SCHL1,,,,,,,,,,,,,,,,,,,,,,,,
