{
  "file_name": "sample_summative_metadata_file",
  "file_type": "asmt_data",
  "summative_period": "Spring",
  "test_code": "GEO01",
  "test_levels": [
    {
      "test_perf_lvl_id": "1",
      "test_perf_lvl_cutpoint_label": "minimal",
      "test_perf_lvl_cutpoint_low": 1,
      "test_perf_lvl_cutpoint_upper": 100
    },
    {
      "test_perf_lvl_id": "2",
      "test_perf_lvl_cutpoint_label": "partial",
      "test_perf_lvl_cutpoint_low": 101,
      "test_perf_lvl_cutpoint_upper": 200
    },
    {
      "test_perf_lvl_id": "3",
      "test_perf_lvl_cutpoint_label": "adequate",
      "test_perf_lvl_cutpoint_low": 201,
      "test_perf_lvl_cutpoint_upper": 300
    },
    {
      "test_perf_lvl_id": "4",
      "test_perf_lvl_cutpoint_label": "strong",
      "test_perf_lvl_cutpoint_low": 301,
      "test_perf_lvl_cutpoint_upper": 400
    },
    {
      "test_perf_lvl_id": "5",
      "test_perf_lvl_cutpoint_label": "distinguished",
      "test_perf_lvl_cutpoint_low": 401,
      "test_perf_lvl_cutpoint_upper": 500
    }
  ]
}
