{
  "file_name": "sample_summative_metadata_file",
  "file_type": "asmt_data",
  "summative_period": "Spring",
  "test_code": "QA-Test-12345678912-",
  "test_levels": [
    {
      "test_perf_lvl_id": "1",
      "test_perf_lvl_cutpoint_label": "minimal",
      "test_perf_lvl_cutpoint_low": 1,
      "test_perf_lvl_cutpoint_upper": 9
    },
    {
      "test_perf_lvl_id": "2",
      "test_perf_lvl_cutpoint_label": "partial",
      "test_perf_lvl_cutpoint_low": 11,
      "test_perf_lvl_cutpoint_upper": 99
    },
    {
      "test_perf_lvl_id": "3",
      "test_perf_lvl_cutpoint_label": "moderate",
      "test_perf_lvl_cutpoint_low": 111,
      "test_perf_lvl_cutpoint_upper": 999
    },
    {
      "test_perf_lvl_id": "4",
      "test_perf_lvl_cutpoint_label": "strong",
      "test_perf_lvl_cutpoint_low": 1111,
      "test_perf_lvl_cutpoint_upper": 8888
    },
    {
      "test_perf_lvl_id": "5",
      "test_perf_lvl_cutpoint_label": "distinguished",
      "test_perf_lvl_cutpoint_low": 8889,
      "test_perf_lvl_cutpoint_upper": 9999
    }
  ]
}
