opt_state_data1,opt_state_data2,opt_state_data3,opt_state_data4,opt_state_data5,opt_state_data6,opt_state_data7,opt_state_data8
QATestingQATesting02,QA-Test-12345678912-,QA-Test-12345678912-,QA-Test-12345678912-,QA-Test-12345678912-,QA-Test-12345678912-,QA-Test-12345678912-,QA-Test-12345678912-
QATestingQATesting03,QA-Test-12345678912-,QA-Test-12345678912-,QA-Test-12345678912-,QA-Test-12345678912-,QA-Test-12345678912-,QA-Test-12345678912-,QA-Test-12345678912-
QATestingQATesting04,QA-Test-12345678912-,QA-Test-12345678912-,QA-Test-12345678912-,QA-Test-12345678912-,QA-Test-12345678912-,QA-Test-12345678912-,QA-Test-12345678912-
QATestingQATesting01,QA-Test-12345678912-,QA-Test-12345678912-,QA-Test-12345678912-,QA-Test-12345678912-,QA-Test-12345678912-,QA-Test-12345678912-,QA-Test-12345678912-
QATestingQATesting02,QA-Test-12345678912-,QA-Test-12345678912-,QA-Test-12345678912-,QA-Test-12345678912-,QA-Test-12345678912-,QA-Test-12345678912-,QA-Test-12345678912-
QATestingQATesting04,QA-Test-12345678912-,QA-Test-12345678912-,QA-Test-12345678912-,QA-Test-12345678912-,QA-Test-12345678912-,QA-Test-12345678912-,QA-Test-12345678912-
QATestingQATesting01,QA-Test-12345678912-,QA-Test-12345678912-,QA-Test-12345678912-,QA-Test-12345678912-,QA-Test-12345678912-,QA-Test-12345678912-,QA-Test-12345678912-
QATestingQATesting03,QA-Test-12345678912-,QA-Test-12345678912-,QA-Test-12345678912-,QA-Test-12345678912-,QA-Test-12345678912-,QA-Test-12345678912-,QA-Test-12345678912-
