04,overall,SUMMATIVE,XX,subject2,performance,2015
10,overall,SUMMATIVE,XX,subject2,performance,2015
03,overall,SUMMATIVE,XX,subject2,performance,2015
11,overall,SUMMATIVE,XX,subject2,performance,2015
09,overall,SUMMATIVE,XX,subject2,performance,2015
05,overall,SUMMATIVE,XX,subject2,performance,2015
08,overall,SUMMATIVE,XX,subject2,performance,2014
07,overall,SUMMATIVE,XX,subject2,performance,2015
06,overall,SUMMATIVE,XX,subject2,performance,2015
06,overall,SUMMATIVE,XX,subject2,performance,2014
08,overall,SUMMATIVE,XX,subject2,performance,2015
07,overall,SUMMATIVE,XX,subject2,performance,2014
09,overall,SUMMATIVE,XX,subject2,performance,2014
05,overall,SUMMATIVE,XX,subject2,performance,2014
11,overall,SUMMATIVE,XX,subject2,performance,2014
03,overall,SUMMATIVE,XX,subject2,performance,2014
10,overall,SUMMATIVE,XX,subject2,performance,2014
04,overall,SUMMATIVE,XX,subject2,performance,2014
08,overall,SUMMATIVE,XX,subject1,performance,2015
Algebra II,overall,SUMMATIVE,XX,subject1,performance,2015
Integrated Mathematics I,overall,SUMMATIVE,XX,subject1,performance,2015
Integrated Mathematics I,overall,SUMMATIVE,XX,subject1,performance,2014
Algebra II,overall,SUMMATIVE,XX,subject1,performance,2014
08,overall,SUMMATIVE,XX,subject1,performance,2014
05,overall,SUMMATIVE,XX,subject1,performance,2014
07,overall,SUMMATIVE,XX,subject1,performance,2014
06,overall,SUMMATIVE,XX,subject1,performance,2014
Integrated Mathematics II,overall,SUMMATIVE,XX,subject1,performance,2015
Integrated Mathematics II,overall,SUMMATIVE,XX,subject1,performance,2014
06,overall,SUMMATIVE,XX,subject1,performance,2015
07,overall,SUMMATIVE,XX,subject1,performance,2015
05,overall,SUMMATIVE,XX,subject1,performance,2015
03,overall,SUMMATIVE,XX,subject1,performance,2014
Integrated Mathematics III,overall,SUMMATIVE,XX,subject1,performance,2015
04,overall,SUMMATIVE,XX,subject1,performance,2014
04,overall,SUMMATIVE,XX,subject1,performance,2015
Integrated Mathematics III,overall,SUMMATIVE,XX,subject1,performance,2014
03,overall,SUMMATIVE,XX,subject1,performance,2015
Geometry,overall,SUMMATIVE,XX,subject1,performance,2014
Algebra I,overall,SUMMATIVE,XX,subject1,performance,2014
Algebra I,overall,SUMMATIVE,XX,subject1,performance,2015
Geometry,overall,SUMMATIVE,XX,subject1,performance,2015
10,overall,SUMMATIVE,XX,subject2,growth,2014
04,overall,SUMMATIVE,XX,subject2,growth,2014
09,overall,SUMMATIVE,XX,subject2,growth,2014
05,overall,SUMMATIVE,XX,subject2,growth,2014
11,overall,SUMMATIVE,XX,subject2,growth,2014
03,overall,SUMMATIVE,XX,subject2,growth,2014
06,overall,SUMMATIVE,XX,subject2,growth,2014
08,overall,SUMMATIVE,XX,subject2,growth,2015
07,overall,SUMMATIVE,XX,subject2,growth,2014
08,overall,SUMMATIVE,XX,subject2,growth,2014
07,overall,SUMMATIVE,XX,subject2,growth,2015
06,overall,SUMMATIVE,XX,subject2,growth,2015
03,overall,SUMMATIVE,XX,subject2,growth,2015
11,overall,SUMMATIVE,XX,subject2,growth,2015
09,overall,SUMMATIVE,XX,subject2,growth,2015
05,overall,SUMMATIVE,XX,subject2,growth,2015
04,overall,SUMMATIVE,XX,subject2,growth,2015
10,overall,SUMMATIVE,XX,subject2,growth,2015
Integrated Mathematics III,overall,SUMMATIVE,XX,subject1,growth,2014
03,overall,SUMMATIVE,XX,subject1,growth,2015
04,overall,SUMMATIVE,XX,subject1,growth,2015
04,overall,SUMMATIVE,XX,subject1,growth,2014
03,overall,SUMMATIVE,XX,subject1,growth,2014
Integrated Mathematics III,overall,SUMMATIVE,XX,subject1,growth,2015
Algebra I,overall,SUMMATIVE,XX,subject1,growth,2015
Geometry,overall,SUMMATIVE,XX,subject1,growth,2015
Geometry,overall,SUMMATIVE,XX,subject1,growth,2014
Algebra I,overall,SUMMATIVE,XX,subject1,growth,2014
Integrated Mathematics I,overall,SUMMATIVE,XX,subject1,growth,2014
Algebra II,overall,SUMMATIVE,XX,subject1,growth,2014
08,overall,SUMMATIVE,XX,subject1,growth,2014
08,overall,SUMMATIVE,XX,subject1,growth,2015
Algebra II,overall,SUMMATIVE,XX,subject1,growth,2015
Integrated Mathematics I,overall,SUMMATIVE,XX,subject1,growth,2015
05,overall,SUMMATIVE,XX,subject1,growth,2015
06,overall,SUMMATIVE,XX,subject1,growth,2015
07,overall,SUMMATIVE,XX,subject1,growth,2015
Integrated Mathematics II,overall,SUMMATIVE,XX,subject1,growth,2014
Integrated Mathematics II,overall,SUMMATIVE,XX,subject1,growth,2015
07,overall,SUMMATIVE,XX,subject1,growth,2014
06,overall,SUMMATIVE,XX,subject1,growth,2014
05,overall,SUMMATIVE,XX,subject1,growth,2014
