RecordType,MultipleRecordFlag,ReportedDiagnosticScoreFlag,Year,AssessmentDate,StateAbbreviation,ResponsibleDistrictIdentifier,ResponsibleDistrictName,ResponsibleSchoolInstitutionIdentifier,ResponsibleSchoolInstitutionName,PARCCStudentIdentifier,StateStudentIdentifier,LocalStudentIdentifier,FirstName,MiddleName,LastName,Sex,Birthdate,OptionalStateData1,GradeLevelWhenAssessed,HispanicLatinoEthnicity,AmericanIndianAlaskaNative,Asian,BlackorAfricanAmerican,NativeHawaiianorOtherPacificIslander,White,TwoOrMoreRaces,FillerRaceField,FederalRace,EnglishLearner,TitleIIILimitedEnglishProficientParticipationStatus,GiftedandTalented,MigrantStatus,EconomicDisadvantageStatus,StudentWithDisability,PrimaryDisabilityType,StaffMemberIdentifier,AssessmentAccommodationEnglishlearner,AssessmentAccommodation504,AssessmentAccommodationIndividualizedEducationalPlan,FrequentBreaks,SeparateAlternateLocation,SmallTestingGroup,SpecializedEquipmentorFurniture,SpecifiedAreaorSetting,TimeOfDay,AnswerMasking,ColorContrast,TexttoSpeechforMathematics,HumanReaderorHumanSignerforMathematics,ASLVideo,ScreenReaderORotherAssistiveTechnologyAT,ClosedCaptioningforELAL,HumanReaderorHumanSignerforELAL,RefreshableBrailleDisplayforELAL,TactileGraphics,TexttoSpeechforELAL,AnswersRecordedInTestBook,BrailleResponse,CalculationDeviceandMathematicsTools,ELALConstructedResponse,ELALSelectedResponseorTechnologyEnhancedItems,MathematicsResponse,MonitorTestResponse,WordPrediction,AdministrationDirectionsClarifiedinStudentsNativeLanguage,AdministrationDirectionsReadAloudinStudentsNativeLanguage,MathematicsResponseEL,TranslationoftheMathematicsAssessmentinTexttoSpeech,TranslationoftheMathematicsAssessmentOnline,WordtoWordDictionaryEnglishNativeLanguage,ExtendedTime,AlternateRepresentationPaperTest,TranslationoftheMathematicsAssessmentinPaper,HumanReaderorHumanSigner,LargePrint,BraillewithTactileGraphics,OptionalStateData2,OptionalStateData3,OptionalStateData4,OptionalStateData5,OptionalStateData6,OptionalStateData7,OptionalStateData8,Period,TestCode,AssessmentGrade,Subject,ScaleScore,SuggestedGradeLevel
04,,,2014-2015,03-05-2015,RI,R0001,Newport,RN001,Rogers High School,Xwk5McYQSIRVCwDpzpWzMfHYetWqy5BUNy6Z2ogV,MlmSUBgk2YxCyyfo6OptZmHBC02LlOScVKkBPyQO,xCgjFCvTnUHSEh54cJnkjTZVMEtIczPiAxvh5CrU,Chase,Chase,Lawlor,F,03-05-2015,,03,N,Y,N,N,N,N,Y,,04,N,Y,Y,N,N,N,DD,a0b1c2d3e4f5g6h7i8j9k0l1m2n3opqrstuvwxyz,N,N,N,,,,,,,,,,,Y,Y,,,,,,,,,,,,,,Y,,,,,,,,,,,,3jjXcxXj9,3jjXcxXj9,3jjXcxXj9,3jjXcxXj9,3jjXcxXj9,3jjXcxXj9,3jjXcxXj9,Spring,ELA03,03,Mathematics,505,4
04,,,2014-2015,03-05-2015,RI,R0001,Newport,RN001,Rogers High School,UMaYGd8hto4TYc7EiWKtivzti8YAWg5xozomFI8q,GZHpQpxaeap0uLPtsMSNT525rjOaTQiKeyj3YBnK,DGsfQaDDfXEMog1xErfGsJeWSIn7QDNTYHwbxcx1,Lois,Vincent,Jewell,F,03-05-2015,,03,N,N,N,N,N,Y,Y,,04,N,N,N,Y,N,N,DD,a0b1c2d3e4f5g6h7i8j9k0l1m2n3opqrstuvwxyz,N,Y,Y,,,,,,,,,,,Y,,,,,,,,,,,,,,,Y,,,,,,,,,,,,GL7fec1XzKzib,GL7fec1XzKzib,GL7fec1XzKzib,GL7fec1XzKzib,GL7fec1XzKzib,GL7fec1XzKzib,GL7fec1XzKzib,Spring,ELA03,03,Mathematics,547,5
04,,,2014-2015,03-05-2015,RI,R0001,Newport,RN001,Rogers High School,qEy737ea1Emx97d0RTxk7QpDWecnUu2eEBWvQXkK,PHSqW51HGoDx5DDlrf1AZ8MQhRTnYqmp5hasPeAL,YFTPFKP33wUilNIhHyFcJLPpbnx8U0xSrtxBffCq,Roman,Devon,Neveu,M,03-05-2015,,03,N,N,N,Y,N,N,Y,,04,N,N,N,Y,Y,N,OI,a0b1c2d3e4f5g6h7i8j9k0l1m2n3opqrstuvwxyz,Y,Y,Y,,,,,,,,,,,Y,,,,,,,,,Y,,SelectedResponse1,MathResponse,,,Y,,,,,,,,,,,,AofVP2mMC41Yt1,AofVP2mMC41Yt1,AofVP2mMC41Yt1,AofVP2mMC41Yt1,AofVP2mMC41Yt1,AofVP2mMC41Yt1,AofVP2mMC41Yt1,Spring,ELA03,03,Mathematics,570,3
04,,,2014-2015,03-05-2015,RI,R0001,Newport,RN001,Rogers High School,MXGplB4M232z2j4FNTStjIAKRER2ujJ8Z2OlV7Yn,xK2Faci3f8jeHK0T5ctKCG9m8qtFs0CUS92459TJ,rBQcB1GLoy5fdMUfjBX7cmKz3xKluOBGdsJL5DDn,Joella,Betty,Parr,F,03-05-2015,,03,N,N,N,N,N,Y,Y,,02,Y,Y,N,Y,N,Y,OI,a0b1c2d3e4f5g6h7i8j9k0l1m2n3opqrstuvwxyz,N,Y,Y,,,,,,,,,,,Y,,,,Y,,,,,,,,,,,Y,,,,,,,,,,,,KM08fO,KM08fO,KM08fO,KM08fO,KM08fO,KM08fO,KM08fO,Spring,ELA03,03,Mathematics,585,3
