batch_guid,record_num,state_code,district_name,student_first_name,student_last_name
5c6e30fb-3cb7-4390-a366-e3a7ed080641,1,NY,Malone Central School District,James,Cameron
5c6e30fb-3cb7-4390-a366-e3a7ed080641,2,NY,Malone Central School District,James,Cameron
5c6e30fb-3cb7-4390-a366-e3a7ed080641,3,NY,Malone Central School District,Amanda,Williams
5c6e30fb-3cb7-4390-a366-e3a7ed080641,4,NY,Malone Central School District,Amanda,Williams
