batch_guid,record_num,asmt_attempt_guid,item_guid,student_parcc_id,student_item_score,select_key,item_seq,rec_status,create_date
3563f08d-cfaa-4b9f-bd8b-5600d663b758,2,bd444a6e-fa11-4ada-a57d-2981825b8a94,5b5e368b-d369-4f11-96c6-7e1910b1b680,d49df7e8-2d49-4d24-ba99-b8a71329a88d,1,F,1,C,2015-01-20 10:47:20.356382
3563f08d-cfaa-4b9f-bd8b-5600d663b758,3,5ead7d72-43c0-4f2c-82d9-be34dc7101bf,5b5e368b-d369-4f11-96c6-7e1910b1b680,74a02f90-4c0c-40ac-b71a-cba73b4d0f6d,1,B,1,C,2015-01-20 10:47:20.356309
3563f08d-cfaa-4b9f-bd8b-5600d663b758,4,bd444a6e-fa11-4ada-a57d-2981825b8a94,51ef431b-3323-4f8f-96da-c7ade6612f33,d49df7e8-2d49-4d24-ba99-b8a71329a88d,2,A,2,C,2015-01-20 10:47:20.356443
3563f08d-cfaa-4b9f-bd8b-5600d663b758,5,bd444a6e-fa11-4ada-a57d-2981825b8a94,b61987c5-5abe-40f2-bfa4-ed11e84b5634,d49df7e8-2d49-4d24-ba99-b8a71329a88d,1,F,1,C,2015-01-20 10:47:20.356382
3563f08d-cfaa-4b9f-bd8b-5600d663b758,6,5ead7d72-43c0-4f2c-82d9-be34dc7101bf,b61987c5-5abe-40f2-bfa4-ed11e84b5634,74a02f90-4c0c-40ac-b71a-cba73b4d0f6d,2,E,3,C,2015-01-20 10:47:20.356309
