04,overall,SUMMATIVE,XX,subject2,performance,2015
10,overall,SUMMATIVE,XX,subject2,performance,2015
03,overall,SUMMATIVE,XX,subject2,performance,2015
11,overall,SUMMATIVE,XX,subject2,performance,2015
09,overall,SUMMATIVE,XX,subject2,performance,2015
05,overall,SUMMATIVE,XX,subject2,performance,2015
08,overall,SUMMATIVE,XX,subject2,performance,2014
07,overall,SUMMATIVE,XX,subject2,performance,2015
06,overall,SUMMATIVE,XX,subject2,performance,2015
06,overall,SUMMATIVE,XX,subject2,performance,2014
