09,overall,SUMMATIVE,RI,subject2,scores,2015,R0002,RE001
09,overall,SUMMATIVE,RI,subject2,scores,2015,R0003,RP003
10,overall,SUMMATIVE,RI,subject2,scores,2015,R0003,RP003
10,overall,SUMMATIVE,RI,subject2,scores,2015,R0002,RE001
11,overall,SUMMATIVE,RI,subject2,scores,2015,R0002,RE001
03,overall,SUMMATIVE,RI,subject2,scores,2015,R0001,RN001
09,overall,SUMMATIVE,RI,subject2,scores,2015,R0003,RP002
11,overall,SUMMATIVE,RI,subject2,scores,2015,R0003,RP003
03,overall,SUMMATIVE,RI,subject2,scores,2015,R0002,RE001
11,overall,SUMMATIVE,RI,subject2,scores,2014,R0003,RP003
03,overall,SUMMATIVE,RI,subject2,scores,2015,R0003,RP003
11,overall,SUMMATIVE,RI,subject2,scores,2015,R0001,RN001
10,overall,SUMMATIVE,RI,subject2,scores,2015,R0001,RN001
03,overall,SUMMATIVE,RI,subject2,scores,2015,R0003,RP002
09,overall,SUMMATIVE,RI,subject2,scores,2015,R0001,RN001
03,overall,SUMMATIVE,RI,subject2,scores,2015,R0003,RP001
10,overall,SUMMATIVE,RI,subject2,scores,2015,R0003,RP002
11,overall,SUMMATIVE,RI,subject2,scores,2015,R0003,RP001
10,overall,SUMMATIVE,RI,subject2,scores,2015,R0003,RP001
11,overall,SUMMATIVE,RI,subject2,scores,2015,R0003,RP002
09,overall,SUMMATIVE,RI,subject2,scores,2015,R0003,RP001
05,overall,SUMMATIVE,RI,subject1,scores,2015,R0001,RN001
Integrated Mathematics III,overall,SUMMATIVE,RI,subject1,scores,2015,R0003,RP003
Integrated Mathematics II,overall,SUMMATIVE,RI,subject1,scores,2015,R0003,RP002
08,overall,SUMMATIVE,RI,subject1,scores,2015,R0001,RN001
Geometry,overall,SUMMATIVE,RI,subject1,scores,2015,R0002,RE001
Integrated Mathematics I,overall,SUMMATIVE,RI,subject1,scores,2015,R0003,RP001
Geometry,overall,SUMMATIVE,RI,subject1,scores,2015,R0003,RP001
03,overall,SUMMATIVE,RI,subject1,scores,2015,R0003,RP003
Integrated Mathematics III,overall,SUMMATIVE,RI,subject1,scores,2015,R0003,RP002
Algebra II,overall,SUMMATIVE,RI,subject1,scores,2015,R0002,RE001
Algebra I,overall,SUMMATIVE,RI,subject1,scores,2015,R0001,RN001
Algebra I,overall,SUMMATIVE,RI,subject1,scores,2015,R0002,RE001
Geometry,overall,SUMMATIVE,RI,subject1,scores,2015,R0001,RN001
05,overall,SUMMATIVE,RI,subject1,scores,2015,R0003,RP003
08,overall,SUMMATIVE,RI,subject1,scores,2015,R0003,RP003
Integrated Mathematics III,overall,SUMMATIVE,RI,subject1,scores,2014,R0003,RP003
Integrated Mathematics II,overall,SUMMATIVE,RI,subject1,scores,2015,R0003,RP001
03,overall,SUMMATIVE,RI,subject2,itemAnalysis,2015,R0002,RE001
03,overall,SUMMATIVE,RI,subject2,itemAnalysis,2015,R0003,RP003
03,overall,SUMMATIVE,RI,subject2,itemAnalysis,2015,R0003,RP002
09,overall,SUMMATIVE,RI,subject2,itemAnalysis,2015,R0001,RN001
09,overall,SUMMATIVE,RI,subject2,itemAnalysis,2015,R0002,RE001
09,overall,SUMMATIVE,RI,subject2,itemAnalysis,2015,R0003,RP003
10,overall,SUMMATIVE,RI,subject2,itemAnalysis,2015,R0003,RP001
11,overall,SUMMATIVE,RI,subject2,itemAnalysis,2015,R0003,RP002
10,overall,SUMMATIVE,RI,subject2,itemAnalysis,2015,R0003,RP002
11,overall,SUMMATIVE,RI,subject2,itemAnalysis,2015,R0003,RP001
11,overall,SUMMATIVE,RI,subject2,itemAnalysis,2015,R0002,RE001
03,overall,SUMMATIVE,RI,subject2,itemAnalysis,2015,R0001,RN001
09,overall,SUMMATIVE,RI,subject2,itemAnalysis,2015,R0003,RP002
11,overall,SUMMATIVE,RI,subject2,itemAnalysis,2015,R0003,RP003
09,overall,SUMMATIVE,RI,subject2,itemAnalysis,2015,R0003,RP001
10,overall,SUMMATIVE,RI,subject2,itemAnalysis,2015,R0003,RP003
10,overall,SUMMATIVE,RI,subject2,itemAnalysis,2015,R0002,RE001
10,overall,SUMMATIVE,RI,subject2,itemAnalysis,2015,R0001,RN001
11,overall,SUMMATIVE,RI,subject2,itemAnalysis,2014,R0003,RP003
11,overall,SUMMATIVE,RI,subject2,itemAnalysis,2015,R0001,RN001
03,overall,SUMMATIVE,RI,subject2,itemAnalysis,2015,R0003,RP001
Algebra I,overall,SUMMATIVE,RI,subject1,itemAnalysis,2015,R0002,RE001
Geometry,overall,SUMMATIVE,RI,subject1,itemAnalysis,2015,R0001,RN001
05,overall,SUMMATIVE,RI,subject1,itemAnalysis,2015,R0003,RP003
08,overall,SUMMATIVE,RI,subject1,itemAnalysis,2015,R0003,RP003
Integrated Mathematics III,overall,SUMMATIVE,RI,subject1,itemAnalysis,2014,R0003,RP003
05,overall,SUMMATIVE,RI,subject1,itemAnalysis,2015,R0001,RN001
Integrated Mathematics III,overall,SUMMATIVE,RI,subject1,itemAnalysis,2015,R0003,RP003
Integrated Mathematics II,overall,SUMMATIVE,RI,subject1,itemAnalysis,2015,R0003,RP002
08,overall,SUMMATIVE,RI,subject1,itemAnalysis,2015,R0001,RN001
Geometry,overall,SUMMATIVE,RI,subject1,itemAnalysis,2015,R0002,RE001
Integrated Mathematics II,overall,SUMMATIVE,RI,subject1,itemAnalysis,2015,R0003,RP001
Integrated Mathematics III,overall,SUMMATIVE,RI,subject1,itemAnalysis,2015,R0003,RP002
Algebra II,overall,SUMMATIVE,RI,subject1,itemAnalysis,2015,R0002,RE001
Algebra I,overall,SUMMATIVE,RI,subject1,itemAnalysis,2015,R0001,RN001
Integrated Mathematics I,overall,SUMMATIVE,RI,subject1,itemAnalysis,2015,R0003,RP001
Geometry,overall,SUMMATIVE,RI,subject1,itemAnalysis,2015,R0003,RP001
03,overall,SUMMATIVE,RI,subject1,itemAnalysis,2015,R0003,RP003
