{
    "ela": {
        "RI": {
            "R0003": {
                "avg_claim1": 28,
                "avg_claim2": 28,
                "avg_overall": 236,
                "resp_dist_id": "R0003",
                "state_code": "RI"
            },
            "avg_claim1": 28,
            "avg_claim2": 28,
            "avg_overall": 236,
            "state_code": "RI"
        }
    },
    "math": {
        "RI": {
            "R0003": {
                "avg_overall": 226,
                "resp_dist_id": "R0003",
                "state_code": "RI"
            },
            "avg_overall": 226,
            "state_code": "RI"
        }
    }
}
