student_parcc_id,student_key,student_sex,student_sex_key,ethnicity,ethnicity_key,student_state_id,student_local_id,student_name,student_dob,create_date
PARCStudentIdentifier-QATesting12345,,M,1,1,-1,PARCStudentIdentifier-QATestin,PARCStudentIdentifier-QATesting12345,AmandaLastNNameOfStudentLastNNameOfStuden,0001-01-01,2015-04-13 17:31:00.477214
PARCStudentIdentifier-QATesting12345,,M,1,1,-1,PARCStudentIdentifier-QATestin,PARCStudentIdentifier-QATesting12345,JamesLastNNameOfStudentLastNNameOfStuden,0001-01-01,2015-04-13 17:31:00.477214
PARCStudentIdentifier-QATesting12346,,F,2,7,-1,PARCStudentIdentifier-QATestin,PARCStudentIdentifier-QATesting12346,AmandaLastNNameOfStudentLastNNameOfStuden,0001-02-01,2015-04-13 17:31:00.477214
PARCStudentIdentifier-QATesting12346,,F,2,7,-1,PARCStudentIdentifier-QATestin,PARCStudentIdentifier-QATesting12346,JamesLastNNameOfStudentLastNNameOfStuden,0001-02-01,2015-04-13 17:31:00.477214
PARCStudentIdentifier-QATesting12347,,Y,-1,NA,-1,PARCStudentIdentifier-QATestin,PARCStudentIdentifier-QATesting12347,FirstNameOfStudentFirstNameOfStudenLastNNameOfStudentLastNNameOfStuden,0001-03-01,2015-04-13 17:31:00.477214
PARCStudentIdentifier-QATesting12347,,Y,-1,NA,-1,PARCStudentIdentifier-QATestin,PARCStudentIdentifier-QATesting12347,JamesLastNNameOfStudentLastNNameOfStuden,0001-03-01,2015-04-13 17:31:00.477214
PARCStudentIdentifier-QATesting12348,,M,1,2,-1,PARCStudentIdentifier-QATestin,PARCStudentIdentifier-QATesting12348,FirstNameOfStudentFirstNameOfStudenLastNNameOfStudentLastNNameOfStuden,0001-04-01,2015-04-13 17:31:00.477214
PARCStudentIdentifier-QATesting12348,,M,1,2,-1,PARCStudentIdentifier-QATestin,PARCStudentIdentifier-QATesting12348,JamesLastNNameOfStudentLastNNameOfStuden,0001-04-01,2015-04-13 17:31:00.477214
