grade_key,student_grade,create_date
-1        ,NA,2015-04-13 12:43:14.703542
2         ,02,2015-04-13 12:43:14.703542
3         ,03,2015-04-13 12:43:14.703542
4         ,04,2015-04-13 12:43:14.703542
5         ,05,2015-04-13 12:43:14.703542
6         ,06,2015-04-13 12:43:14.703542
7         ,07,2015-04-13 12:43:14.703542
8         ,08,2015-04-13 12:43:14.703542
9         ,09,2015-04-13 12:43:14.703542
10        ,10,2015-04-13 12:43:14.703542
11        ,11,2015-04-13 12:43:14.703542
