RecordType,MultipleRecordFlag,ReportedDiagnosticScoreFlag,Year,AssessmentDate,StateAbbreviation,ResponsibleDistrictIdentifier,ResponsibleDistrictName,ResponsibleSchoolInstitutionIdentifier,ResponsibleSchoolInstitutionName,PARCCStudentIdentifier,StateStudentIdentifier,LocalStudentIdentifier,FirstName,MiddleName,LastName,Sex,Birthdate,OptionalStateData1,GradeLevelWhenAssessed,HispanicLatinoEthnicity,AmericanIndianAlaskaNative,Asian,BlackorAfricanAmerican,NativeHawaiianorOtherPacificIslander,White,TwoOrMoreRaces,FillerRaceField,FederalRace,EnglishLearner,TitleIIILimitedEnglishProficientParticipationStatus,GiftedAndTalented,MigrantStatus,EconomicDisadvantageStatus,StudentWithDisability,PrimaryDisabilityType,StaffMemberIdentifier,AssessmentAccommodationEnglishlearner,AssessmentAccommodation504,AssessmentAccommodationIndividualizedEducationalPlan,FrequentBreaks,SeparateAlternateLocation,SmallTestingGroup,SpecializedEquipmentorFurniture,SpecifiedAreaorSetting,TimeOfDay,AnswerMasking,ColorContrast,TexttoSpeechforMathematics,HumanReaderorHumanSignerforMathematics,ASLVideo,ScreenReaderORotherAssistiveTechnologyAT,ClosedCaptioningforELAL,HumanReaderorHumanSignerforELAL,RefreshableBrailleDisplayforELAL,TactileGraphics,TexttoSpeechforELAL,AnswersRecordedInTestBook,BrailleResponse,CalculationDeviceandMathematicsTools,ELALConstructedResponse,ELALSelectedResponseorTechnologyEnhancedItems,MathematicsResponse,MonitorTestResponse,WordPrediction,AdministrationDirectionsClarifiedinStudentsNativeLanguage,AdministrationDirectionsReadAloudinStudentsNativeLanguage,MathematicsResponseEL,TranslationoftheMathematicsAssessmentinTexttoSpeech,TranslationoftheMathematicsAssessmentOnline,WordtoWordDictionaryEnglishNativeLanguage,ExtendedTime,AlternateRepresentationPaperTest,TranslationoftheMathematicsAssessmentinPaper,HumanReaderorHumanSigner,LargePrint,BraillewithTactileGraphics,OptionalStateData2,OptionalStateData3,OptionalStateData4,OptionalStateData5,OptionalStateData6,OptionalStateData7,OptionalStateData8,Period,TestCode,AssessmentGrade,Subject,ResearchScore,LiteraryAnalysisScore,NarrativeScore
04,,Y,2014-2015,2015-03-08,RI,R0001,Newport,RN001,Rogers High School,Xwk5McYQSIRVCwDpzpWzMfHYetWqy5BUNy6Z2ogV,MlmSUBgk2YxCyyfo6OptZmHBC02LlOScVKkBPyQO,xCgjFCvTnUHSEh54cJnkjTZVMEtIczPiAxvh5CrU,Chase,Chase,Lawlor,F,37135,,03,N,Y,N,N,N,N,,,04,N,Y,R0001,N,N,N,DD,5f3bcce2cac34dd38578b9d423801dc3b5caf66b,N,N,N,,,,,,,,,,,Y,Y,,,,,,,,,,,,,,Y,,,,,,,,,,,,3jjXcxXj9,3jjXcxXj9,3jjXcxXj9,3jjXcxXj9,3jjXcxXj9,3jjXcxXj9,3jjXcxXj9,Spring,ELA03,08,English Language Arts/Literacy,1,1,3
04,,Y,2014-2015,2015-04-01,RI,R0001,Newport,RN001,Rogers High School,UMaYGd8hto4TYc7EiWKtivzti8YAWg5xozomFI8q,GZHpQpxaeap0uLPtsMSNT525rjOaTQiKeyj3YBnK,DGsfQaDDfXEMog1xErfGsJeWSIn7QDNTYHwbxcx1,Lois,Vincent,Jewell,F,37135,,03,N,N,N,N,N,Y,,,04,N,N,R0001,Y,N,N,DD,dcdaa08b9b9046beb3e77419481c860bc6598e1f,N,Y,Y,,,,,,,,,,,Y,,,,,,,,,,,,,,,Y,,,,,,,,,,,,GL7fec1XzKzib,GL7fec1XzKzib,GL7fec1XzKzib,GL7fec1XzKzib,GL7fec1XzKzib,GL7fec1XzKzib,GL7fec1XzKzib,Spring,ELA03,05,English Language Arts/Literacy,1,3,5
04,,Y,2014-2015,2014-11-18,RI,R0001,Newport,RN001,Rogers High School,qEy737ea1Emx97d0RTxk7QpDWecnUu2eEBWvQXkK,PHSqW51HGoDx5DDlrf1AZ8MQhRTnYqmp5hasPeAL,YFTPFKP33wUilNIhHyFcJLPpbnx8U0xSrtxBffCq,Roman,Devon,Neveu,M,37135,,03,N,N,N,Y,N,N,,,04,N,N,R0001,Y,Y,N,OI,0a4061fcdd3f4e6ea8db682199fee2757e82755d,Y,Y,Y,,,,,,,,,,,Y,,,,,,,,,Y,,SelectedResponse1,MathResponse,,,Y,,,,,,,,,,,,AofVP2mMC41Yt1,AofVP2mMC41Yt1,AofVP2mMC41Yt1,AofVP2mMC41Yt1,AofVP2mMC41Yt1,AofVP2mMC41Yt1,AofVP2mMC41Yt1,Spring,ELA03,05,English Language Arts/Literacy,4,2,3
04,Y,Y,2014-2015,2015-06-15,RI,R0001,Newport,RN001,Rogers High School,MXGplB4M232z2j4FNTStjIAKRER2ujJ8Z2OlV7Yn,xK2Faci3f8jeHK0T5ctKCG9m8qtFs0CUS92459TJ,rBQcB1GLoy5fdMUfjBX7cmKz3xKluOBGdsJL5DDn,Joella,Betty,Parr,F,37135,,03,N,N,N,N,N,Y,,,02,Y,Y,R0001,Y,N,Y,OI,0a4061fcdd3f4e6ea8db682199fee2757e82755d,N,Y,Y,,,,,,,,,,,Y,,,,Y,,,,,,,,,,,Y,,,,,,,,,,,,KM08fO,KM08fO,KM08fO,KM08fO,KM08fO,KM08fO,KM08fO,Spring,ELA03,08,English Language Arts/Literacy,5,4,3
04,Y,Y,2014-2015,2015-02-02,RI,R0001,Newport,RN001,Rogers High School,MXGplB4M232z2j4FNTStjIAKRER2ujJ8Z2OlV7Yn,xK2Faci3f8jeHK0T5ctKCG9m8qtFs0CUS92459TJ,rBQcB1GLoy5fdMUfjBX7cmKz3xKluOBGdsJL5DDn,Joella,Betty,Parr,F,37135,,03,N,N,N,N,N,Y,,,02,Y,Y,R0001,Y,N,Y,OI,5f3bcce2cac34dd38578b9d423801dc3b5caf66b,N,Y,Y,,,,,,,,,,,Y,,,,Y,,,,,,,,,,,Y,,,,,,,,,,,,KM08fO,KM08fO,KM08fO,KM08fO,KM08fO,KM08fO,KM08fO,Spring,ELA03,08,English Language Arts/Literacy,5,3,2
04,Y,Y,2014-2015,2015-06-15,RI,R0001,Newport,RN001,Rogers High School,vwkr0R9sEgA872YY02LOWZFwoTLq0ATfnEvZ0i17,wErx2MhJgnsv4KQMeSoJh2dVSn198lOyLnxjtomP,D73On2W5jdPNO4dLrU1dMpZPxnVxtwcfGzdHgy8S,Shane,Becki,Cartlidge,F,37135,,03,N,N,N,N,N,Y,,,01,Y,N,R0001,Y,Y,Y,DB,dcdaa08b9b9046beb3e77419481c860bc6598e1f,N,N,N,,,,,,,,,,,,,Y,HumanSigner,,,,,,,,SelectedResponse1,,Y,,,,,,,,,,Spanish,,,,zfCkJ5pIBilv,zfCkJ5pIBilv,zfCkJ5pIBilv,zfCkJ5pIBilv,zfCkJ5pIBilv,zfCkJ5pIBilv,zfCkJ5pIBilv,Spring,ELA03,04,English Language Arts/Literacy,5,1,5
04,Y,Y,2014-2015,2015-02-02,RI,R0001,Newport,RN001,Rogers High School,vwkr0R9sEgA872YY02LOWZFwoTLq0ATfnEvZ0i17,wErx2MhJgnsv4KQMeSoJh2dVSn198lOyLnxjtomP,D73On2W5jdPNO4dLrU1dMpZPxnVxtwcfGzdHgy8S,Shane,Becki,Cartlidge,F,37135,,03,N,N,N,N,N,Y,,,01,Y,N,R0001,Y,Y,Y,DB,0a4d255f40644147aaffbcb10fef0d908e8bd970,N,N,N,,,,,,,,,,,,,Y,HumanSigner,,,,,,,,SelectedResponse1,,Y,,,,,,,,,,Spanish,,,,zfCkJ5pIBilv,zfCkJ5pIBilv,zfCkJ5pIBilv,zfCkJ5pIBilv,zfCkJ5pIBilv,zfCkJ5pIBilv,zfCkJ5pIBilv,Spring,ELA03,04,English Language Arts/Literacy,2,3,5
04,,Y,2014-2015,2015-04-01,RI,R0002,East Greenwich,RE001,East Greenwich High School,rMB447lffsMQCZOQPIUTPusiGmZolvpxn7jMAsiT,w3eZOegFEIUSKulQeCRbbgDbj9WbHE1cOvn69gPO,5vlNJePaDUMPzuw3C6SIV6wXpD0TXMjGrn1rIkME,Debby,Orval,Benevides,F,37135,,03,N,N,N,N,N,Y,,,01,Y,Y,R0002,Y,N,N,SLD,343fe3a084b2422796dbd7533a68de13c3cf37dc,N,N,N,,,,,,,,,,,,Y,,,,,,,,,,,,,Y,Y,,,,,Y,,,Spanish,,,Y,vEcx9C9wPnkP8BRD,vEcx9C9wPnkP8BRD,vEcx9C9wPnkP8BRD,vEcx9C9wPnkP8BRD,vEcx9C9wPnkP8BRD,vEcx9C9wPnkP8BRD,vEcx9C9wPnkP8BRD,Spring,ELA03,05,English Language Arts/Literacy,3,2,2
04,,Y,2014-2015,2014-11-18,RI,R0002,East Greenwich,RE001,East Greenwich High School,3i8VkcJCs5QffVgj2QOmZr3MLv40I0KJc5k5DcWe,sPKVH1LPyxMta9HHY4pOUwYc2hgvAQXRb4Nn3vVH,uYMntLy65YFYZooxdD3tmjcfOzdAfnbOURxtw5uL,Keshia,Arnette,Mantle,F,37135,,03,Y,N,N,N,N,N,,,01,Y,Y,R0002,N,Y,N,SLD,dcdaa08b9b9046beb3e77419481c860bc6598e1f,N,Y,N,,,,,,,,,,HumanSigner,,,,,,,,,,,,,,,,,,,,,,,,Spanish,,,,bEcar4ZudgE7,bEcar4ZudgE7,bEcar4ZudgE7,bEcar4ZudgE7,bEcar4ZudgE7,bEcar4ZudgE7,bEcar4ZudgE7,Spring,ELA03,06,English Language Arts/Literacy,1,5,4
04,,Y,2014-2015,2015-06-15,RI,R0002,East Greenwich,RE001,East Greenwich High School,WAhvqzYnESXaMgGYTK04IH1RPLeTatzuOubPg8U7,eCPPkTke1VjCEQGR7fv75sCaUOpKB6Ux4uubwxmp,0JvlHOeCIPlXfvoQBcaq88zuhe4VC3CMqSMIewNf,Arnette,Roman,Heckman,M,37135,,03,N,N,N,Y,N,N,,,02,N,N,R0002,N,N,Y,TBI,0a4061fcdd3f4e6ea8db682199fee2757e82755d,N,Y,N,,,,,,,,,,,Y,,,,,,,,,Y,,,,,,,,,,,,,,,,,,MxOvcIRQv,MxOvcIRQv,MxOvcIRQv,MxOvcIRQv,MxOvcIRQv,MxOvcIRQv,MxOvcIRQv,Spring,ELA03,04,English Language Arts/Literacy,4,3,3
04,,Y,2014-2015,2014-11-18,RI,R0002,East Greenwich,RE001,East Greenwich High School,N1eKk2eGo15Htuapk7zDnIIftLz18aVE1PMPSktf,1MuydaJPqVwL73BlUbInGkDx4AOijXeulKfdfP6v,zkx46I7G2Nd1CipPzPAOYgC92lGvNZYvOHU0wbW2,Barbar,Erasmo,Pedone,M,37135,,03,N,N,N,N,N,Y,,,03,N,N,R0002,N,Y,Y,DB,343fe3a084b2422796dbd7533a68de13c3cf37dc,N,Y,Y,,,,,,,,,,,Y,Y,Y,,,,,Y,BrailleWriter,Y,,,,,,,,,Spanish,,,,,Spanish,,,,LNjtpdOtesj1c4amNTk,LNjtpdOtesj1c4amNTk,LNjtpdOtesj1c4amNTk,LNjtpdOtesj1c4amNTk,LNjtpdOtesj1c4amNTk,LNjtpdOtesj1c4amNTk,LNjtpdOtesj1c4amNTk,Spring,ELA03,06,English Language Arts/Literacy,3,1,1
04,Y,Y,2014-2015,2015-03-08,RI,R0002,East Greenwich,RE001,East Greenwich High School,pB7SBPI9whDTX6jqMTvlCa5POI7wiii3ik8YSqUN,71L3VffWOE0M4VWkRnc68I3jHb2fq71R9guPY9JJ,sfC58DkrG3bkJ2rcGRb8SGgBjmvLuVlT0KGZ0jLL,Jacquline,Kimberely,Neveu,M,37135,,03,N,N,Y,N,N,N,,,04,N,N,R0002,N,N,N,DD,cbae066d8cec4492bcbb66c5dccd0965689b3bfa,N,Y,N,Y,,Y,Y,,,,,,,,Y,,,,,,,,Y,,,,Y,,,,,,,,Y,,Spanish,,,,9opCz4520wIrA5pt,9opCz4520wIrA5pt,9opCz4520wIrA5pt,9opCz4520wIrA5pt,9opCz4520wIrA5pt,9opCz4520wIrA5pt,9opCz4520wIrA5pt,Spring,ELA03,08,English Language Arts/Literacy,1,4,1
04,Y,Y,2014-2015,2015-02-02,RI,R0002,East Greenwich,RE001,East Greenwich High School,pB7SBPI9whDTX6jqMTvlCa5POI7wiii3ik8YSqUN,71L3VffWOE0M4VWkRnc68I3jHb2fq71R9guPY9JJ,sfC58DkrG3bkJ2rcGRb8SGgBjmvLuVlT0KGZ0jLL,Jacquline,Kimberely,Neveu,M,37135,,03,N,N,Y,N,N,N,,,04,N,N,R0002,N,N,N,DD,5f3bcce2cac34dd38578b9d423801dc3b5caf66b,N,Y,N,Y,,Y,Y,,,,,,,,Y,,,,,,,,Y,,,,Y,,,,,,,,Y,,Spanish,,,,9opCz4520wIrA5pt,9opCz4520wIrA5pt,9opCz4520wIrA5pt,9opCz4520wIrA5pt,9opCz4520wIrA5pt,9opCz4520wIrA5pt,9opCz4520wIrA5pt,Spring,ELA03,08,English Language Arts/Literacy,3,4,2
04,,Y,2014-2015,2015-03-08,RI,R0003,Providence,RP001,Alvarez High School,hg02kpP44BJM9WGFlA0mRLg0cjzMSdEZR6vPrOdQ,Tvw1NS4wwtZ4tkwb0iVisHEi7Ry715pRRjGtbL1r,mvxrV6SfCFq11d05bN01KupSnan42G0QEJyFwwO5,Jacquline,Zofia,Forst,F,37135,,03,N,N,N,N,N,Y,,,03,Y,N,R0003,N,Y,N,DB,3c6b9327b0484f5f84741b204a6c9f02208bc112,Y,Y,Y,,,,,,,,,,,,,,,,,Y,,,,,,,,,,,,,Spanish,,,,Spanish,,,,5VeHNBZEifdweJB,5VeHNBZEifdweJB,5VeHNBZEifdweJB,5VeHNBZEifdweJB,5VeHNBZEifdweJB,5VeHNBZEifdweJB,5VeHNBZEifdweJB,Spring,ELA03,04,English Language Arts/Literacy,2,3,2
04,,Y,2014-2015,2015-04-01,RI,R0003,Providence,RP001,Alvarez High School,zxITiM66QUVOcTyhRaooB0UIOWemGFP8eQE7xPSx,6oZAVILFTfpG9poJ4qFAJOvw0XYa9suCqZPc2Jkf,UZJGBAKBhDPPLpfVCc225qzGY4J1Ei8vjBnnFwh6,Zofia,Keshia,Mccreery,F,37135,,03,N,N,N,N,N,N,,,04,Y,N,R0003,N,N,Y,SLI,5f3bcce2cac34dd38578b9d423801dc3b5caf66b,Y,Y,N,,,Y,,,,,,,,,,,,,,,,,,,,,,,,,SpeechToText,Spanish,,,,,,,,,ZUbaT2XarRNdc71,ZUbaT2XarRNdc71,ZUbaT2XarRNdc71,ZUbaT2XarRNdc71,ZUbaT2XarRNdc71,ZUbaT2XarRNdc71,ZUbaT2XarRNdc71,Spring,ELA03,03,English Language Arts/Literacy,3,3,1
04,,Y,2014-2015,2014-11-18,RI,R0003,Providence,RP001,Alvarez High School,6xduCZW2oSUGSLzpiFpJQQK8YSAzmBrMjAh4WEkn,K0e1FlOXuZVSpMaTr2EUHQLrGDQSoSmZWfuY1MED,nb43B38TZ8h5SZPLTc6GMdXWSZxi8O6xGOUaLZvS,Shane,Kimberely,Gatti,M,37135,,03,Y,N,N,N,N,N,,,05,N,N,R0003,N,N,N,HI,3c6b9327b0484f5f84741b204a6c9f02208bc112,N,N,Y,,,,Y,,,,,,,,,,,,,,,,Y,,,,,,,,,,,,Y,,Spanish,,,,jg,jg,jg,jg,jg,jg,jg,Spring,ELA03,06,English Language Arts/Literacy,4,4,5
04,,Y,2014-2015,2014-11-18,RI,R0003,Providence,RP001,Alvarez High School,wUfuK1C1vpevOq8cV6oqQxNNwJV1TbzeraL8fC4v,SYKyRcyh4S0npwfeCEDSXEcNeevVBGyI1cUZ7JBa,QA9WHJjldT89J8LHuhwDFqG4aVG9MKz4pBxkHNKQ,Sandy,Devon,Mccreery,M,37135,,03,N,N,N,N,Y,N,,,05,N,Y,R0003,Y,Y,N,SLD,3c6b9327b0484f5f84741b204a6c9f02208bc112,Y,N,Y,,,,,,,,,,,,,,,,,,,,Y,,,,,,,,,,,,Y,,,,,,f8xX7D9KWP6ArNd8,f8xX7D9KWP6ArNd8,f8xX7D9KWP6ArNd8,f8xX7D9KWP6ArNd8,f8xX7D9KWP6ArNd8,f8xX7D9KWP6ArNd8,f8xX7D9KWP6ArNd8,Spring,ELA03,06,English Language Arts/Literacy,1,1,3
04,,Y,2014-2015,2015-05-05,RI,R0003,Providence,RP002,Mount Pleasant High School,SY0CEikzlomxMRW6NsjHhNuLpK17yruc5pjGavX8,XFnox5kaJRbysJtAmQHxOLaKWJvPvzQgkz3pv0KK,CaYqEwjoL1rAeX2BVmrVwhjXiORRRnxWWYbgKINv,Joella,Vincent,Pando,M,37135,,03,N,N,N,N,N,Y,,,02,N,Y,R0003,N,N,N,AUT,0a4061fcdd3f4e6ea8db682199fee2757e82755d,N,N,Y,,,,,,,,,,,,,,,,,,,,,,,,,,Y,,SpeechToText,,,,Y,,,,,,J6XVOOZ7YZCeO,J6XVOOZ7YZCeO,J6XVOOZ7YZCeO,J6XVOOZ7YZCeO,J6XVOOZ7YZCeO,J6XVOOZ7YZCeO,J6XVOOZ7YZCeO,Spring,ELA03,04,English Language Arts/Literacy,5,1,2
04,,Y,2014-2015,2015-03-08,RI,R0003,Providence,RP002,Mount Pleasant High School,QitKZjIhO0SovQYzrO9PfV1o1b0P0xRtKwJwFRqc,CZIdF9IWXP4VxKMRmyhuMH3RrbLuzlUQHcNpeiui,RAwF4ar58LF7U1lAoUhrunhyGSrKowNmH5IHEaVX,Winona,Darci,Pedone,F,37135,,03,Y,N,N,N,N,N,,,03,N,Y,R0003,N,Y,N,SLI,343fe3a084b2422796dbd7533a68de13c3cf37dc,N,N,Y,,,Y,,,,,,,,,Y,,,,,,,,,,,,,,Y,,,,,,,,,,,,idlDCzYl45cO7,idlDCzYl45cO7,idlDCzYl45cO7,idlDCzYl45cO7,idlDCzYl45cO7,idlDCzYl45cO7,idlDCzYl45cO7,Spring,ELA03,04,English Language Arts/Literacy,1,2,4
04,,Y,2014-2015,2015-06-15,RI,R0003,Providence,RP002,Mount Pleasant High School,c0pT5dPt1QuTicyE2IWo13jRf8kh2ep7ZI8flg9g,UeDU72FXhOsN87hmLVrvg2axM0ew777BXwUfOMQi,3ZnniDJxEkJJud7n9G1N5inYdTaqvPSqp60jxBHx,Betty,Senaida,Augustus,F,37135,,03,N,N,N,Y,N,N,,,02,Y,Y,R0003,N,Y,Y,EMN,5f3bcce2cac34dd38578b9d423801dc3b5caf66b,Y,Y,N,,,,,,,,,,,,,,,,,,,,,,,,,,Y,,,,,,,,,,,,wHtmUDzScbdN7QHw,wHtmUDzScbdN7QHw,wHtmUDzScbdN7QHw,wHtmUDzScbdN7QHw,wHtmUDzScbdN7QHw,wHtmUDzScbdN7QHw,wHtmUDzScbdN7QHw,Spring,ELA03,06,English Language Arts/Literacy,3,5,1
04,,Y,2014-2015,2015-03-08,RI,R0003,Providence,RP003,Hope High School,w7TmiOs6CWJsXS2l1crivMsf42ZlQ5WAr6Xri2rd,D1AXqIoaXx8AQTaQoumsfu5xeX4aGzCRrecFKecG,JaT2z61Ejzjz9rFhwN0ePthYx9cLsIJJPGYoHeLY,Becki,Lois,Cabello,M,37135,,03,N,N,N,N,N,Y,,,03,N,Y,R0003,Y,Y,N,VI,0a4d255f40644147aaffbcb10fef0d908e8bd970,Y,N,Y,,,,,Y,Y,,,,,,Y,,,,,,,,,,,,,,Y,,,,,,,,,,,,5dj9tnUtD0BaIWR,5dj9tnUtD0BaIWR,5dj9tnUtD0BaIWR,5dj9tnUtD0BaIWR,5dj9tnUtD0BaIWR,5dj9tnUtD0BaIWR,5dj9tnUtD0BaIWR,Spring,ELA03,08,English Language Arts/Literacy,1,5,2
04,,Y,2014-2015,2015-04-01,RI,R0003,Providence,RP003,Hope High School,e3OGNkIbM4h2skSI4nPuESDwrF1EMmjIfrprGMHz,TKmqHN7XOP5W3NPKNiDZZEdusLdlWLO8Ggpiwvh7,KQp8atYRrBdUzeyGT0DbWG8VMX9vwOZh357WUTZV,Verena,Sandy,Pedone,M,37135,,03,N,Y,N,N,N,N,,,02,Y,Y,R0003,N,Y,Y,AUT,ded3479fc4504921ac1cf878b8c5d015efffc1c0,Y,N,N,,,,,Y,,,,,,,,,,,,,,,,,,,,,Y,,,,,,,,,,,,PBX1kyfKLuDPY9,PBX1kyfKLuDPY9,PBX1kyfKLuDPY9,PBX1kyfKLuDPY9,PBX1kyfKLuDPY9,PBX1kyfKLuDPY9,PBX1kyfKLuDPY9,Spring,ELA03,04,English Language Arts/Literacy,3,3,1
04,,Y,2014-2015,2015-05-05,RI,R0003,Providence,RP003,Hope High School,oBPTLwB89Yetjpa88VqxOvlIENOqe4XKGKnOrJfM,yLxhxvhJpqKtF1L4Ofz0cSs4BPJh4abTqcZbQyqd,RQOAUp2l6bdfAKIPIfnyW5DxXbFJxeLqRDTCHepM,Orval,Barbar,Matsuura,F,37135,,03,N,N,N,Y,N,N,,,05,N,Y,R0003,N,N,N,SLD,0a4061fcdd3f4e6ea8db682199fee2757e82755d,Y,N,Y,,,,,,Y,,,,,,,,,,,,,,,,,,,,Y,,,,,,,,,,,,zzCOsCpPTKTDl6b,zzCOsCpPTKTDl6b,zzCOsCpPTKTDl6b,zzCOsCpPTKTDl6b,zzCOsCpPTKTDl6b,zzCOsCpPTKTDl6b,zzCOsCpPTKTDl6b,Spring,ELA03,03,English Language Arts/Literacy,3,5,2
04,,Y,2014-2015,2014-11-18,RI,R0003,Providence,RP003,Hope High School,6boPVVoO1Vuyg8VJ5AqV0Zha4rVGrZt3uPrM7xgw,qZL2LXxVKg8Sz8vOKANWLueLW3V5giAyz2jpg4D0,L5wQxkNvAhoDiwvT3jKyOEYyA25RaEL0WVIPOH0Y,Betty,Erasmo,Parr,F,37135,,03,N,N,N,Y,N,N,,,06,Y,N,R0003,Y,N,N,EMN,43e0d272a0c245bfb568ee9e944a12c9436f17ab,Y,Y,Y,,,,,,,,,,,,,,,,,,,,,,,,,,Y,,,,,,,,,,,,9mGeugc3KNKzBWDQoe,9mGeugc3KNKzBWDQoe,9mGeugc3KNKzBWDQoe,9mGeugc3KNKzBWDQoe,9mGeugc3KNKzBWDQoe,9mGeugc3KNKzBWDQoe,9mGeugc3KNKzBWDQoe,Spring,ELA03,06,English Language Arts/Literacy,5,1,2
04,,Y,2014-2015,2015-06-15,RI,R0003,Providence,RP003,Hope High School,KL3R8L1EaO8MgymDcMI59fe7DnjLk0ZuDZiwO2J2,YF1IdV4ztKcjrlJlJkwf1fqIg8yuj2xn9ESdUdsV,WX95D3DMB8lxa2WOd0oFWiUvcMsat1t5gLC8yJTU,Sandy,Verena,Gatti,F,37135,,03,N,N,Y,N,N,N,,,07,Y,N,R0003,Y,Y,Y,AUT,43e0d272a0c245bfb568ee9e944a12c9436f17ab,N,Y,Y,,,,,,,,,,,,,,,,,,,,,,,,,,Y,,,,,,,,,,,,YKNI8ZHfGL,YKNI8ZHfGL,YKNI8ZHfGL,YKNI8ZHfGL,YKNI8ZHfGL,YKNI8ZHfGL,YKNI8ZHfGL,Spring,ELA03,04,English Language Arts/Literacy,5,2,1
04,,Y,2014-2015,2015-04-01,RI,R0001,Newport,RN001,Rogers High School,5336b7258eb545b3ae7178aeb0cfd72428a36fdb,a64dac1816204195a4759761cf1b2715eaa26359,a91eb32222844401a74296ae3b692b71b536d8f8,Steve,Jan,Brule,M,36899,,03,Y,N,N,N,N,N,,,01,Y,Y,R0001,N,Y,N,OI,5f3bcce2cac34dd38578b9d423801dc3b5caf66b,Y,N,N,,Y,,,Y,,,,,HumanReadAloud,Y,Y,Y,,,,,,,Y,oralresponse,SelectedResponse1,,,,,,,,Spanish,,,,Spanish,,,Y,WdC3qlWLnLqd3,WdC3qlWLnLqd3,WdC3qlWLnLqd3,WdC3qlWLnLqd3,WdC3qlWLnLqd3,WdC3qlWLnLqd3,WdC3qlWLnLqd3,Spring,ELA03,05,English Language Arts/Literacy,4,2,2
