RecordType,MultipleRecordFlag,ReportedSummativeScoreFlag,ReportedRosterFlag,ReportSuppressionCode,ReportSuppressionAction,AssessmentYear,PBA03category,EOY03category,StateAbbreviation,ResponsibleDistrictCode,ResponsibleDistrictName,ResponsibleSchoolCode,ResponsibleSchoolInstitutionName,PBATestingDistrictCode,PBATestingDistrictName,PBATestingSchoolInstitutionCode,PBATestingSchoolInstitutionName,EOYTestingDistrictCode,EOYTestingDistrictName,EOYTestingSchoolInstitutionCode,EOYTestingSchoolInstitutionName,PARCCStudentIdentifier,StateStudentIdentifier,LocalStudentIdentifier,FirstName,MiddleName,LastName,Sex,Birthdate,StateField1,GradeLevelWhenAssessed,HispanicorLatinoEthnicity,AmericanIndianorAlaskaNative,Asian,BlackorAfricanAmerican,NativeHawaiianorOtherPacificIslander,White,TwoorMoreRaces,FillerRaceField,FederalRaceEthnicity,EnglishLearner,TitleIIILimitedEnglishProficientParticipationStatus,GiftedandTalented,MigrantStatus,EconomicDisadvantageStatus,StudentWithDisabilities,PrimaryDisabilityType,StaffMemberIdentifier,ELAccommodation,FrequentBreaks,SeparateAlternateLocation,SmallTestingGroup,SpecializedEquipmentorFurniture,SpecifiedAreaorSetting,TimeOfDay,AnswerMasking,GeneralMasking,ColorContrast,ASLVideo,AssistiveTechnologyScreenReader,AssistiveTechnologyNonScreenReader,ClosedCaptioningforELAL,RefreshableBrailleDisplayforELAL,AnswersRecordedinTestBook,BrailleResponse,CalculationDeviceandMathematicsTools,ELALConstructedResponse,ELALSelectedResponseorTechnologyEnhancedItems,MathematicsResponse,MonitorTestResponse,WordPrediction,AdministrationDirectionsClarifiedinStudentsNativeLanguage,AdministrationDirectionsReadAloudinStudentsNativeLanguage,MathematicsResponseEL,TranslationoftheMathematicsAssessment,WordtoWordDictionaryEnglishNativeLanguage,ExtendedTime,AlternateRepresentationPaperTest,TranslationoftheMathematicsAssessmentinPaper,LargePrint,BraillewithTactileGraphics,TextToSpeech,HumanReaderorHumanSigner,UniqueAccommodation,EmergencyAccommodation,StudentReadsAssessmentAloudToThemselves,HumanSignerForTestDirections,StateField2,StateField3,StateField4,StateField5,StateField6,StateField7,StateField8,StateField9,StateField10,StateField11,StateField12,Period,TestCode,AssessmentGrade,Subject,PBAFormID,EOYFormID,PBAStudentTestUUID,EOYStudentTestUUID,SummativeScoreRecordUUID,PBATotalTestItems,PBATestAttemptednessFlag,EOYTotalTestItems,EOYTestAttemptednessFlag,PBATotalTestItemsAttempted,PBAUnit1TotalNumberofItems,PBAUnit1NumberofAttemptedItems,PBAUnit2TotalNumberofItems,PBAUnit2NumberofAttemptedItems,PBAUnit3TotalNumberofItems,PBAUnit3NumberofAttemptedItems,PBAUnit4TotalNumberofItems,PBAUnit4NumberofAttemptedItems,PBAUnit5TotalNumberofItems,PBAUnit5NumberofAttemptedItems,EOYTotalTestItemsAttempted,EOYUnit1TotalNumberofItems,EOYUnit1NumberofAttemptedItems,EOYUnit2TotalNumberofItems,EOYUnit2NumberofAttemptedItems,EOYUnit3TotalNumberofItems,EOYUnit3NumberofAttemptedItems,EOYUnit4TotalNumberofItems,EOYUnit4NumberofAttemptedItems,EOYUnit5TotalNumberofItems,EOYUnit5NumberofAttemptedItems,PBANotTestedReason,EOYNotTestedReason,PBAVoidPBAEOYScoreReason,EOYVoidPBAEOYScoreReason,PBARawScore,EOYRawScore,SummativeScaleScore,SummativeCSEM,SummativePerformanceLevel,SummativeReadingScaleScore,SummativeReadingCSEM,SummativeWritingScaleScore,SummativeWritingCSEM,Subclaim1Category,Subclaim2Category,Subclaim3Category,Subclaim4Category,Subclaim5Category,Subclaim6Category,StudentGrowthPercentileComparedtoState,StudentGrowthPercentileComparedtoDistrict,StudentGrowthPercentileComparedtoPARCC
01,,Y,,01,01,2014-2015,,E,RI,R0001,Newport,RN001,Rogers High School,,,,,,,,,Xwk5McYQSIRVCwDpzpWzMfHYetWqy5BUNy6Z2ogV,MlmSUBgk2Y,xCgjFCvTnUHSEh54cJnkjTZVMEtIczPiAxvh5CrU,Chase,Chase,Lawlor,F,9999-01-01,,03,N,Y,N,N,N,N,,,0 ,N,Y,Y,N,N,N  ,DD,5f3bcce2cac34dd38578b9d423801dc3b5caf6,N,,,,,,,,,,Y,Y,,,,,,,,,,,,Y,,,,,,,,,,,,,,,,3jjXcxXj9,3jjXcxXj9,3jjXcxXj9,3jjXcxXj9,3jjXcxXj9,3jjXcxXj9,3jjXcxXj9,,,,,Spring,ELA03,Grade 3,English Language Arts/Literacy,,bmzzDt44Kjctdj,,96cf2a1e-6a7b-4d81-bf20-3600c0e59e58,a44997e3-53f6-4848-815b-7257163ff542,22,,,,83,88,15,65,93,6,49,11,1,34,81,,88,15,65,93,6,49,11,1,34,81,2 ,2 ,60,60,61,,297,4.00,3,26,4.00,25,1.00,1,1,1,2,1,,56.00,70.00,13.00
03,,,Y,,,2014-2015,,F,RI,R0001,Newport,RN001,Rogers High School,,,,,,,,,UMaYGd8hto4TYc7EiWKtivzti8YAWg5xozomFI8q,GZHpQpxaea,DGsfQaDDfXEMog1xErfGsJeWSIn7QDNTYHwbxcx1,Lois,Vincent,Jewell,F,9999-01-01,,03,N,N,N,N,N,Y,,,0 ,N,N,N,Y,N,N  ,DD,dcdaa08b9b9046beb3e77419481c860bc6598e,N,,,,,,,,,,Y,,,,,,,,,,,,,Y,,,,,,,,,,,,,,,,GL7fec1XzKzib,GL7fec1XzKzib,GL7fec1XzKzib,GL7fec1XzKzib,GL7fec1XzKzib,GL7fec1XzKzib,GL7fec1XzKzib,,,,,Spring,ELA03,Grade 3,English Language Arts/Literacy,,OfvRXhwXjea3ML,,771d6032-621f-47b3-8113-2aeffcb7bffa,f6eaeed1-e2d1-4b2d-8c64-ffe01a832b07,53,,,,4,70,86,84,50,37,69,66,65,28,18,,70,86,84,50,37,69,66,65,28,18,5 ,5 ,87,87,65,,227,2.00,3,27,1.00,26,1.00,2,2,2,3,2,,39.00,16.00,86.00
02,,,Y,,,2014-2015,,,RI,R0001,Newport,RN001,Rogers High School,,,,,,,,,qEy737ea1Emx97d0RTxk7QpDWecnUu2eEBWvQXkK,PHSqW51HGo,YFTPFKP33wUilNIhHyFcJLPpbnx8U0xSrtxBffCq,Roman,Devon,Neveu,M,9999-01-01,,03,N,N,N,Y,N,N,,,0 ,N,N,N,Y,Y,N  ,OI,0a4061fcdd3f4e6ea8db682199fee2757e8275,Y,,,,,,,,,,Y,,,,,,,Y,,,,,,Y,,,,,,,,,,,,,,,,AofVP2mMC41Yt1,AofVP2mMC41Yt1,AofVP2mMC41Yt1,AofVP2mMC41Yt1,AofVP2mMC41Yt1,AofVP2mMC41Yt1,AofVP2mMC41Yt1,,,,,Spring,ELA03,Grade 3,English Language Arts/Literacy,,rMPpBMUSE9aC8p,,bb63c6c4-07db-4b0a-974f-59fcaf94c189,1d14762b-ae4b-4332-8045-6b9c51dd7880,3,,,,31,71,92,96,34,11,64,72,45,21,81,,71,92,96,34,11,64,72,45,21,81,3 ,3 ,25,25,79,,355,2.00,4,42,2.00,41,1.00,3,3,1,1,2,,63.00,59.00,46.00
01,,,,,,2014-2015,,G,RI,R0001,Newport,RN001,Rogers High School,,,,,,,,,MXGplB4M232z2j4FNTStjIAKRER2ujJ8Z2OlV7Yn,xK2Faci3f8,rBQcB1GLoy5fdMUfjBX7cmKz3xKluOBGdsJL5DDn,Joella,Betty,Parr,F,9999-01-01,,03,N,N,N,N,N,Y,,,0 ,Y,Y,N,Y,N,Y  ,OI,5f3bcce2cac34dd38578b9d423801dc3b5caf6,N,,,,,,,,,,Y,,,,Y,,,,,,,,,Y,,,,,,,,,,,,,,,,KM08fO,KM08fO,KM08fO,KM08fO,KM08fO,KM08fO,KM08fO,,,,,Spring,ELA03,Grade 3,English Language Arts/Literacy,,fYO3TpPiFUUiTO,,92349e8e-73bc-46cf-9ed2-5025cb2c4857,50c6dc1b-634f-4561-9271-7122ddf9390c,52,,,,64,56,95,44,70,67,85,24,10,93,34,,56,95,44,70,67,85,24,10,93,34,7 ,7 ,91,91,67,,360,8.00,4,43,3.00,42,2.00,3,2,2,2,2,,88.00,69.00,87.00
01,,Y,,01,06,2014-2015,,,RI,R0001,Newport,RN001,Rogers High School,,,,,,,,,vwkr0R9sEgA872YY02LOWZFwoTLq0ATfnEvZ0i17,wErx2MhJgn,D73On2W5jdPNO4dLrU1dMpZPxnVxtwcfGzdHgy8S,Shane,Becki,Cartlidge,F,9999-01-01,,03,N,N,N,N,N,Y,,,0 ,Y,N,N,Y,Y,Y  ,DB,dcdaa08b9b9046beb3e77419481c860bc6598e,N,,,,,,,,,,,,,Y,,,,,,,,Y,,,,,,,,,Spa,,,,,,,,,zfCkJ5pIBilv,zfCkJ5pIBilv,zfCkJ5pIBilv,zfCkJ5pIBilv,zfCkJ5pIBilv,zfCkJ5pIBilv,zfCkJ5pIBilv,,,,,Spring,ELA03,Grade 3,English Language Arts/Literacy,,6DmamWynStLmln,,447eef05-927f-4a94-baaa-593c538366d0,deaf9408-c943-46bd-bbe0-1a79df79f227,17,,,,41,30,41,16,78,57,8,98,3,15,10,,30,41,16,78,57,8,98,3,15,10,20,20,98,98,98,,448,8.00,5,47,7.00,50,5.00,2,1,2,3,1,,10.00,43.00,36.00
01,,,,01,01,2014-2015,,,RI,R0002,East Greenwich,RE001,East Greenwich High School,,,,,,,,,rMB447lffsMQCZOQPIUTPusiGmZolvpxn7jMAsiT,w3eZOegFEI,5vlNJePaDUMPzuw3C6SIV6wXpD0TXMjGrn1rIkME,Debby,Orval,Benevides,F,9999-01-01,,03,N,N,N,N,N,Y,,,0 ,Y,Y,Y,Y,N,N  ,SLD,343fe3a084b2422796dbd7533a68de13c3cf37,N,,,,,,,,,,,Y,,,,,,,,,,,Y,Y,,,,Y,,,Spa,,Y ,,,,,,,vEcx9C9wPnkP8BRD,vEcx9C9wPnkP8BRD,vEcx9C9wPnkP8BRD,vEcx9C9wPnkP8BRD,vEcx9C9wPnkP8BRD,vEcx9C9wPnkP8BRD,vEcx9C9wPnkP8BRD,,,,,Spring,ELA03,Grade 3,English Language Arts/Literacy,,NjHIDXqnbah9ve,,48544429-c044-413a-8d7e-cbf933e6128e,dadb7cf2-ac24-4e07-96ad-9599c55d5a89,92,,,,88,86,52,35,75,98,44,89,20,3,34,,86,52,35,75,98,44,89,20,3,34,3 ,3 ,75,75,33,,128,3.00,2,15,3.00,16,3.00,1,3,3,3,2,,25.00,23.00,18.00
01,,Y,,01,02,2014-2015,,,RI,R0002,East Greenwich,RE001,East Greenwich High School,,,,,,,,,3i8VkcJCs5QffVgj2QOmZr3MLv40I0KJc5k5DcWe,sPKVH1LPyx,uYMntLy65YFYZooxdD3tmjcfOzdAfnbOURxtw5uL,Keshia,Arnette,Mantle,F,9999-01-01,,03,Y,N,N,N,N,N,,,0 ,Y,Y,Y,N,Y,N  ,SLD,dcdaa08b9b9046beb3e77419481c860bc6598e,N,,,,,,,,,,,,,,,,,,,,,,,,,,,,,,Spa,,,,,,,,,bEcar4ZudgE7,bEcar4ZudgE7,bEcar4ZudgE7,bEcar4ZudgE7,bEcar4ZudgE7,bEcar4ZudgE7,bEcar4ZudgE7,,,,,Spring,ELA03,Grade 3,English Language Arts/Literacy,,QDW5k4mAqA7jVn,,54488102-dc6f-45fb-8941-14b9dc51c977,1d3c68bb-dbc5-40f3-be4f-086a1b239f52,18,,,,53,63,63,23,4,96,39,26,14,5,22,,63,63,23,4,96,39,26,14,5,22,4 ,4 ,20,20,51,,246,3.00,3,32,3.00,31,1.00,3,3,3,3,3,,53.00,28.00,27.00
01,,,,,,2014-2015,,,RI,R0002,East Greenwich,RE001,East Greenwich High School,,,,,,,,,WAhvqzYnESXaMgGYTK04IH1RPLeTatzuOubPg8U7,eCPPkTke1V,0JvlHOeCIPlXfvoQBcaq88zuhe4VC3CMqSMIewNf,Arnette,Roman,Heckman,M,9999-01-01,,03,N,N,N,Y,N,N,,,0 ,N,N,Y,N,N,Y  ,TBI,0a4061fcdd3f4e6ea8db682199fee2757e8275,N,,,,,,,,,,Y,,,,,,,Y,,,,,,,,,,,,,,,,,,,,,,MxOvcIRQv,MxOvcIRQv,MxOvcIRQv,MxOvcIRQv,MxOvcIRQv,MxOvcIRQv,MxOvcIRQv,,,,,Spring,ELA03,Grade 3,English Language Arts/Literacy,,fGegQ2t8WJsYaa,,75c44166-926f-4c5b-a208-42231bf5cd01,eff2bc68-deaa-453c-9d95-3be42a202dd9,89,,,,44,16,62,37,7,3,72,10,60,53,93,,16,62,37,7,3,72,10,60,53,93,6 ,6 ,58,58,69,,385,9.00,4,42,8.00,45,5.00,3,2,1,3,3,,61.00,38.00,12.00
01,,Y,,,,2014-2015,B,,RI,R0002,East Greenwich,RE001,East Greenwich High School,,,,,,,,,N1eKk2eGo15Htuapk7zDnIIftLz18aVE1PMPSktf,1MuydaJPqV,zkx46I7G2Nd1CipPzPAOYgC92lGvNZYvOHU0wbW2,Barbar,Erasmo,Pedone,M,9999-01-01,,03,N,N,N,N,N,Y,,,0 ,N,N,Y,N,Y,Y  ,DB,343fe3a084b2422796dbd7533a68de13c3cf37,N,,,,,,,,,,Y,Y,,Y,,Y,,Y,,,,,,,,,,,,,Spa,,,,,,,,,LNjtpdOtesj1c4amNTk,LNjtpdOtesj1c4amNTk,LNjtpdOtesj1c4amNTk,LNjtpdOtesj1c4amNTk,LNjtpdOtesj1c4amNTk,LNjtpdOtesj1c4amNTk,LNjtpdOtesj1c4amNTk,,,,,Spring,ELA03,Grade 3,English Language Arts/Literacy,,XTnbnfj14uiA7W,,93e5e92a-27bb-4683-b84f-6f661c9e47a2,5a5c3cb1-4038-4519-b1a4-a2808840afc1,50,,,,63,23,62,72,1,44,95,80,41,98,1,,23,62,72,1,44,95,80,41,98,1,40,40,88,88,55,,285,3.00,3,33,2.00,29,1.00,3,2,1,3,2,,26.00,58.00,16.00
01,,,,01,03,2014-2015,,,RI,R0002,East Greenwich,RE001,East Greenwich High School,,,,,,,,,pB7SBPI9whDTX6jqMTvlCa5POI7wiii3ik8YSqUN,71L3VffWOE,sfC58DkrG3bkJ2rcGRb8SGgBjmvLuVlT0KGZ0jLL,Jacquline,Kimberely,Neveu,M,9999-01-01,,03,N,N,Y,N,N,N,,,0 ,N,N,N,N,N,N  ,DD,cbae066d8cec4492bcbb66c5dccd0965689b3b,N,Y,,Y,Y,,,,,,,Y,,,,,,Y,,,,Y,,,,,,,Y,,Spa,,,,,,,,,9opCz4520wIrA5pt,9opCz4520wIrA5pt,9opCz4520wIrA5pt,9opCz4520wIrA5pt,9opCz4520wIrA5pt,9opCz4520wIrA5pt,9opCz4520wIrA5pt,,,,,Spring,ELA03,Grade 3,English Language Arts/Literacy,,SSwvnInaL4W5Zl,,debff429-22ea-48a9-b5f0-feeddefc2e38,1bdd6b6e-9b36-47b0-8502-ac842e86dc80,27,,,,44,89,56,29,20,92,53,43,97,27,18,,89,56,29,20,92,53,43,97,27,18,3 ,3 ,36,36,45,,132,10.00,2,16,2.00,15,1.00,1,1,1,1,3,,46.00,60.00,13.00
02,,,Y,,,2014-2015,,,RI,R0003,Providence,RP001,Alvarez High School,,,,,,,,,hg02kpP44BJM9WGFlA0mRLg0cjzMSdEZR6vPrOdQ,Tvw1NS4wwt,mvxrV6SfCFq11d05bN01KupSnan42G0QEJyFwwO5,Jacquline,Zofia,Forst,F,9999-01-01,,03,N,N,N,N,N,Y,,,0 ,Y,N,N,N,Y,N  ,DB,3c6b9327b0484f5f84741b204a6c9f02208bc1,Y,,,,,,,,,,,,,,,,,,,,,,,,,,Spa,,,,Spa,,,,,,,,,5VeHNBZEifdweJB,5VeHNBZEifdweJB,5VeHNBZEifdweJB,5VeHNBZEifdweJB,5VeHNBZEifdweJB,5VeHNBZEifdweJB,5VeHNBZEifdweJB,,,,,Spring,ELA03,Grade 3,English Language Arts/Literacy,,hA8JYMjU1tJjtu,,7b12d2d9-0b6d-4f75-9d8c-398f80f58062,e3c74b24-345f-4177-907c-191804fab597,86,,,,53,67,44,35,44,89,51,56,37,56,83,,67,44,35,44,89,51,56,37,56,83,3 ,3 ,68,68,64,,248,2.00,3,37,1.00,35,1.00,1,1,1,1,1,,14.00,36.00,25.00
01,,Y,,01,05,2014-2015,,,RI,R0003,Providence,RP001,Alvarez High School,,,,,,,,,zxITiM66QUVOcTyhRaooB0UIOWemGFP8eQE7xPSx,6oZAVILFTf,UZJGBAKBhDPPLpfVCc225qzGY4J1Ei8vjBnnFwh6,Zofia,Keshia,Mccreery,F,9999-01-01,,03,N,N,N,N,N,N,,,0 ,Y,N,Y,N,N,Y  ,SLI,5f3bcce2cac34dd38578b9d423801dc3b5caf6,Y,,,Y,,,,,,,,,,,,,,,,,,,,,,Sp,,,,,,,,,,,,,,ZUbaT2XarRNdc71,ZUbaT2XarRNdc71,ZUbaT2XarRNdc71,ZUbaT2XarRNdc71,ZUbaT2XarRNdc71,ZUbaT2XarRNdc71,ZUbaT2XarRNdc71,,,,,Spring,ELA03,Grade 3,English Language Arts/Literacy,,7wfBudLKnThOjR,,614e4fd1-5442-402f-82c8-3d2ea5f50e7b,4dd864b9-d6d4-4778-832c-2c005e31ba4a,87,,,,7,32,43,52,49,97,38,49,33,26,67,,32,43,52,49,97,38,49,33,26,67,44,44,57,57,65,,254,5.00,3,38,4.00,36,2.00,2,2,2,2,2,,91.00,74.00,51.00
01,,Y,,,,2014-2015,,,RI,R0003,Providence,RP001,Alvarez High School,,,,,,,,,6xduCZW2oSUGSLzpiFpJQQK8YSAzmBrMjAh4WEkn,K0e1FlOXuZ,nb43B38TZ8h5SZPLTc6GMdXWSZxi8O6xGOUaLZvS,Shane,Kimberely,Gatti,M,9999-01-01,,03,Y,N,N,N,N,N,,,0 ,N,N,Y,N,N,N  ,HI,3c6b9327b0484f5f84741b204a6c9f02208bc1,N,,,,Y,,,,,,,,,,,,,Y,,,,,,,,,,,Y,,Spa,,,,,,,,,jg,jg,jg,jg,jg,jg,jg,,,,,Spring,ELA03,Grade 3,English Language Arts/Literacy,,K9JzaGPABAyBIX,,96ba894d-7749-48f9-9ef5-3019f562f963,c1cb032a-7b58-499a-9999-3d273c9dcccd,71,,,,73,27,3,2,97,83,20,46,29,22,57,,27,3,2,97,83,20,46,29,22,57,4 ,4 ,98,98,80,,319,10.00,4,44,3.00,41,2.00,2,2,2,2,2,,16.00,67.00,78.00
02,,,,,,2014-2015,,,RI,R0003,Providence,RP001,Alvarez High School,,,,,,,,,wUfuK1C1vpevOq8cV6oqQxNNwJV1TbzeraL8fC4v,SYKyRcyh4S,QA9WHJjldT89J8LHuhwDFqG4aVG9MKz4pBxkHNKQ,Sandy,Devon,Mccreery,M,9999-01-01,,03,N,N,N,N,Y,N,,,0 ,N,Y,N,Y,Y,N  ,SLD,3c6b9327b0484f5f84741b204a6c9f02208bc1,Y,,,,,,,,,,,,,,,,,Y,,,,,,,,,,,Y,,,,,,,,,,,f8xX7D9KWP6ArNd8,f8xX7D9KWP6ArNd8,f8xX7D9KWP6ArNd8,f8xX7D9KWP6ArNd8,f8xX7D9KWP6ArNd8,f8xX7D9KWP6ArNd8,f8xX7D9KWP6ArNd8,,,,,Spring,ELA03,Grade 3,English Language Arts/Literacy,,ho4E8YYU72zMsS,,8d54686a-ff28-415a-8ee5-95cb999600f0,b30bcb85-5e27-4268-bccc-914312dc90c3,98,,,,67,35,69,89,40,27,57,73,89,10,86,,35,69,89,40,27,57,73,89,10,86,4 ,4 ,68,68,95,,466,3.00,5,47,2.00,48,2.00,1,3,1,1,1,,64.00,17.00,62.00
01,,Y,,01,04,2014-2015,A,,RI,R0003,Providence,RP002,Mount Pleasant High School,,,,,,,,,SY0CEikzlomxMRW6NsjHhNuLpK17yruc5pjGavX8,XFnox5kaJR,CaYqEwjoL1rAeX2BVmrVwhjXiORRRnxWWYbgKINv,Joella,Vincent,Pando,M,9999-01-01,,03,N,N,N,N,N,Y,,,0 ,N,Y,N,N,N,N  ,AUT,0a4061fcdd3f4e6ea8db682199fee2757e8275,N,,,,,,,,,,,,,,,,,,,,,,,Y,,Sp,,,Y,,,,,,,,,,,J6XVOOZ7YZCeO,J6XVOOZ7YZCeO,J6XVOOZ7YZCeO,J6XVOOZ7YZCeO,J6XVOOZ7YZCeO,J6XVOOZ7YZCeO,J6XVOOZ7YZCeO,,,,,Spring,ELA03,Grade 3,English Language Arts/Literacy,,YH4dwgUYBUswsT,,ca37a6b7-71ae-43c1-8840-489b6badbfb5,dfb576c1-6916-41e2-a728-9320d200980c,41,,,,41,46,0,7,22,23,98,62,88,15,6,,46,0,7,22,23,98,62,88,15,6,6 ,6 ,64,64,17,,38,10.00,1,3,2.00,5,2.00,2,3,2,2,2,,67.00,22.00,10.00
01,,Y,,,,2014-2015,A,,RI,R0003,Providence,RP002,Mount Pleasant High School,,,,,,,,,QitKZjIhO0SovQYzrO9PfV1o1b0P0xRtKwJwFRqc,CZIdF9IWXP,RAwF4ar58LF7U1lAoUhrunhyGSrKowNmH5IHEaVX,Winona,Darci,Pedone,F,9999-01-01,,03,Y,N,N,N,N,N,,,0 ,N,Y,N,N,Y,N  ,SLI,343fe3a084b2422796dbd7533a68de13c3cf37,N,,,Y,,,,,,,,Y,,,,,,,,,,,,Y,,,,,,,,,,,,,,,,idlDCzYl45cO7,idlDCzYl45cO7,idlDCzYl45cO7,idlDCzYl45cO7,idlDCzYl45cO7,idlDCzYl45cO7,idlDCzYl45cO7,,,,,Spring,ELA03,Grade 3,English Language Arts/Literacy,,uEYgB8WD2tFK1d,,57c8411c-3380-418e-b4b6-9da2dbccb6fb,dccdc883-cf47-49a4-9d74-0d0526e9be5d,22,,,,78,70,34,36,46,45,32,30,92,20,68,,70,34,36,46,45,32,30,92,20,68,5 ,5 ,24,24,18,,53,5.00,1,2,2.00,2,2.00,2,3,2,2,2,,22.00,90.00,25.00
01,,Y,,,,2014-2015,,,RI,R0003,Providence,RP002,Mount Pleasant High School,,,,,,,,,c0pT5dPt1QuTicyE2IWo13jRf8kh2ep7ZI8flg9g,UeDU72FXhO,3ZnniDJxEkJJud7n9G1N5inYdTaqvPSqp60jxBHx,Betty,Senaida,Augustus,F,9999-01-01,,03,N,N,N,Y,N,N,,,0 ,Y,Y,Y,N,Y,Y  ,EMN,5f3bcce2cac34dd38578b9d423801dc3b5caf6,Y,,,,,,,,,,,,,,,,,,,,,,,Y,,,,,,,,,,,,,,,,wHtmUDzScbdN7QHw,wHtmUDzScbdN7QHw,wHtmUDzScbdN7QHw,wHtmUDzScbdN7QHw,wHtmUDzScbdN7QHw,wHtmUDzScbdN7QHw,wHtmUDzScbdN7QHw,,,,,Spring,ELA03,Grade 3,English Language Arts/Literacy,,4OHlYZTfZeefES,,af618355-c475-4f32-a6da-ca83fc385dab,70883c09-7020-4d4c-81f8-bfb99f363517,25,,,,15,47,91,61,93,6,42,73,29,85,69,,47,91,61,93,6,42,73,29,85,69,22,22,58,58,4,,222,2.00,3,37,2.00,33,2.00,1,3,1,1,1,,25.00,74.00,43.00
01,,Y,,,,2014-2015,,,RI,R0003,Providence,RP003,Hope High School,,,,,,,,,w7TmiOs6CWJsXS2l1crivMsf42ZlQ5WAr6Xri2rd,D1AXqIoaXx,JaT2z61Ejzjz9rFhwN0ePthYx9cLsIJJPGYoHeLY,Becki,Lois,Cabello,M,9999-01-01,,03,N,N,N,N,N,Y,,,0 ,N,Y,N,Y,Y,N  ,VI,0a4d255f40644147aaffbcb10fef0d908e8bd9,Y,,,,,Y,Y,,,,,Y,,,,,,,,,,,,Y,,,,,,,,,,,,,,,,5dj9tnUtD0BaIWR,5dj9tnUtD0BaIWR,5dj9tnUtD0BaIWR,5dj9tnUtD0BaIWR,5dj9tnUtD0BaIWR,5dj9tnUtD0BaIWR,5dj9tnUtD0BaIWR,,,,,Spring,ELA03,Grade 3,English Language Arts/Literacy,,QO80Y8Jm4LKCWZ,,e13c29ed-0577-46bd-b6c0-86092c68a12b,7357ff31-682b-4136-ae3d-0ee55ac492b6,22,,,,5,82,34,97,92,74,36,6,38,66,30,,82,34,97,92,74,36,6,38,66,30,5 ,5 ,24,24,42,,124,4.00,2,14,1.00,11,1.00,3,1,3,3,3,,18.00,23.00,35.00
01,,Y,,,,2014-2015,A,,RI,R0003,Providence,RP003,Hope High School,,,,,,,,,e3OGNkIbM4h2skSI4nPuESDwrF1EMmjIfrprGMHz,TKmqHN7XOP,KQp8atYRrBdUzeyGT0DbWG8VMX9vwOZh357WUTZV,Verena,Sandy,Pedone,M,9999-01-01,,03,N,Y,N,N,N,N,,,0 ,Y,Y,Y,N,Y,Y  ,AUT,ded3479fc4504921ac1cf878b8c5d015efffc1,Y,,,,,Y,,,,,,,,,,,,,,,,,,Y,,,,,,,,,,,,,,,,PBX1kyfKLuDPY9,PBX1kyfKLuDPY9,PBX1kyfKLuDPY9,PBX1kyfKLuDPY9,PBX1kyfKLuDPY9,PBX1kyfKLuDPY9,PBX1kyfKLuDPY9,,,,,Spring,ELA03,Grade 3,English Language Arts/Literacy,,y00dd73aY0qhrW,,eed942f3-d554-40f2-b547-446a9e1165bf,db651bc6-76a5-4ef2-992d-be10881592cc,1,,,,3,30,2,78,63,28,39,16,72,61,58,,30,2,78,63,28,39,16,72,61,58,5 ,5 ,59,59,39,,191,9.00,2,15,6.00,12,4.00,3,2,3,3,3,,57.00,90.00,65.00
01,,Y,,,,2014-2015,,,RI,R0003,Providence,RP003,Hope High School,,,,,,,,,oBPTLwB89Yetjpa88VqxOvlIENOqe4XKGKnOrJfM,yLxhxvhJpq,RQOAUp2l6bdfAKIPIfnyW5DxXbFJxeLqRDTCHepM,Orval,Barbar,Matsuura,F,9999-01-01,,03,N,N,N,Y,N,N,,,0 ,N,Y,N,N,N,N  ,SLD,0a4061fcdd3f4e6ea8db682199fee2757e8275,Y,,,,,,Y,,,,,,,,,,,,,,,,,Y,,,,,,,,,,,,,,,,zzCOsCpPTKTDl6b,zzCOsCpPTKTDl6b,zzCOsCpPTKTDl6b,zzCOsCpPTKTDl6b,zzCOsCpPTKTDl6b,zzCOsCpPTKTDl6b,zzCOsCpPTKTDl6b,,,,,Spring,ELA03,Grade 3,English Language Arts/Literacy,,78ZCEiQxcZC9bS,,a16f02a7-151a-4b29-8203-8568a8746591,ed5311ed-17fb-4b5c-bfda-c006a01e9cff,56,,,,100,88,64,21,36,91,50,51,67,58,84,,88,64,21,36,91,50,51,67,58,84,8 ,8 ,86,86,61,,294,10.00,3,40,6.00,37,6.00,2,3,2,2,2,,56.00,49.00,99.00
01,,Y,,,,2014-2015,,,RI,R0003,Providence,RP003,Hope High School,,,,,,,,,6boPVVoO1Vuyg8VJ5AqV0Zha4rVGrZt3uPrM7xgw,qZL2LXxVKg,L5wQxkNvAhoDiwvT3jKyOEYyA25RaEL0WVIPOH0Y,Betty,Erasmo,Parr,F,9999-01-01,,03,N,N,N,Y,N,N,,,0 ,Y,N,Y,Y,N,N  ,EMN,43e0d272a0c245bfb568ee9e944a12c9436f17,Y,,,,,,,,,,,,,,,,,,,,,,,Y,,,,,,,,,,,,,,,,9mGeugc3KNKzBWDQoe,9mGeugc3KNKzBWDQoe,9mGeugc3KNKzBWDQoe,9mGeugc3KNKzBWDQoe,9mGeugc3KNKzBWDQoe,9mGeugc3KNKzBWDQoe,9mGeugc3KNKzBWDQoe,,,,,Spring,ELA03,Grade 3,English Language Arts/Literacy,,wMf8DWYieBflI6,,22b58ccc-2418-4508-bc73-12b3ff68dac3,d6bea7d9-d90d-4f99-ab64-080e3c5ee53a,96,,,,68,63,11,82,46,63,39,80,80,46,43,,63,11,82,46,63,39,80,80,46,43,8 ,8 ,3 ,3 ,79,,305,1.00,4,44,1.00,42,1.00,3,2,3,3,3,,57.00,41.00,87.00
01,,Y,,,,2014-2015,,,RI,R0003,Providence,RP003,Hope High School,,,,,,,,,KL3R8L1EaO8MgymDcMI59fe7DnjLk0ZuDZiwO2J2,YF1IdV4ztK,WX95D3DMB8lxa2WOd0oFWiUvcMsat1t5gLC8yJTU,Sandy,Verena,Gatti,F,9999-01-01,,03,N,N,Y,N,N,N,,,0 ,Y,N,Y,Y,Y,Y  ,AUT,43e0d272a0c245bfb568ee9e944a12c9436f17,N,,,,,,,,,,,,,,,,,,,,,,,Y,,,,,,,,,,,,,,,,YKNI8ZHfGL,YKNI8ZHfGL,YKNI8ZHfGL,YKNI8ZHfGL,YKNI8ZHfGL,YKNI8ZHfGL,YKNI8ZHfGL,,,,,Spring,ELA03,Grade 3,English Language Arts/Literacy,,dfLGkXcrVdl1M0,,0b674c27-ad68-4597-91bc-01fe8e4d57d2,08dde853-be20-4883-b263-ab8ed18cc3ec,71,,,,72,72,49,71,99,28,65,31,11,40,2,,72,49,71,99,28,65,31,11,40,2,8 ,8 ,94,94,80,,365,10.00,4,45,3.00,44,1.00,3,3,3,3,3,,68.00,41.00,54.00
01,Y,Y,,01,01,2014-2015,,,RI,R0001,Newport,RN001,Rogers High School,,,,,,,,,5336b7258eb545b3ae7178aeb0cfd72428a36fdb,a64dac1816,a91eb32222844401a74296ae3b692b71b536d8f8,Steve,Jan,Brule,M,9999-01-01,,03,Y,N,N,N,N,N,,,0 ,Y,Y,Y,N,Y,N  ,OI,5f3bcce2cac34dd38578b9d423801dc3b5caf6,Y,,Y,,,Y,,,,,Y,Y,,Y,,,,Y,,,,,,,,,Spa,,,,Spa,,Y ,,,,,,,WdC3qlWLnLqd3,WdC3qlWLnLqd3,WdC3qlWLnLqd3,WdC3qlWLnLqd3,WdC3qlWLnLqd3,WdC3qlWLnLqd3,WdC3qlWLnLqd3,,,,,Spring,ELA03,Grade 3,English Language Arts/Literacy,,1yum7wlYtgEza0,,13162932-2ee6-4d59-b595-fb23ff0b8efd,94c13427-7897-4e76-8fa7-26cdf3ee6e5b,46,,,,94,38,4,92,62,12,46,59,56,55,75,,38,4,92,62,12,46,59,56,55,75,0 ,0 ,39,39,46,,335,6.00,4,43,1.00,44,1.00,2,2,3,1,3,,86.00,93.00,77.00
