{
  "breadcrumb": {
    "items": [
      {
        "type": "home",
        "link": "/assets/html/comparingPopulationsReport.html"
      },
      {
        "type": "state",
        "queryParam": "stateCode",
        "link": "/assets/html/comparingPopulationsReport.html",
        "ignoreParams": [
          "asmtType"
        ]
      },
      {
        "type": "district",
        "queryParam": "districtGuid",
        "link": "/assets/html/comparingPopulationsReport.html",
        "ignoreParams": [
          "asmtType"
        ]
      },
      {
        "type": "school",
        "queryParam": "schoolGuid",
        "link": "/assets/html/schoolReport.html",
        "ignoreParams": [
          "gradeCourse",
          "view",
          "asmtType"
        ]
      },
      {
        "type": "grade",
        "queryParam": "gradeCourse",
        "link": "/assets/html/studentRosterReport.html"
      },
      {
        "type": "student",
        "queryParam": "student"
      }
    ]
  },
  "subjectsList": [
    {
      "label": "ELA/L",
      "value": "subject2"
    },
    {
      "label": "Mathematics",
      "value": "subject1"
    }
  ],
  "exportTypesList": [
    {
      "label": "Summative Assessment Results",
      "value": "summ_asmt_result",
      "permission": "sf_extract"
    },
    {
      "label": "Summative Released Item File",
      "value": "item_student_score",
      "permission": "rf_extract"
    },
    {
      "label": "Summative Psychometric Item File",
      "value": "p_data",
      "permission": "pf_extract"
    },
    {
      "label": "State Data for PARCC-level Results",
      "value": "cds_data",
      "permission": "cds_extract"
    }
  ],
  "resultsLists": [
    {
      "states": {"asmtType": "SUMMATIVE"},
      "group": "Summative",
      "header": true,
      "label": "Summative",
      "showLabel": true,
      "options": [
        {
          "label": "Overall Performance",
          "states": {"result":"overall"}
        },
        {
          "for": {"report": ["CONSORTIUM", "STATE", "DISTRICT", "SCHOOL"]},
          "options": [
            {
              "for": {"!view": ["growth"]},
              "options": [
                {
                  "for": {"subject": ["subject1"]},
                  "options": [
                    {
                      "group": "Subscores",
                      "label": "Sub-Scores",
                      "subheader": true,
                      "options": [
                        {
                          "classes":"sub",
                          "label": "Major Content",
                          "states": {"result": "majorcontent"}
                        },
                        {
                          "classes":"sub",
                          "label": "Additional & Supporting Content",
                          "states": {"result": "addcontent"}
                        },
                        {
                          "classes":"sub",
                          "states": {"result": "modelapp"},
                          "label": "Modeling and Application"
                        },
                        {
                          "classes":"sub",
                          "states": {"result": "mathreason"},
                          "label": "Expressing Mathematical Reasoning"
                        }
                      ]
                    }
                  ]
                },
                {
                  "for": {"subject": ["subject2"]},
                  "options": [
                    {
                      "group": "reading",
                      "label": "Reading",
                      "subheader": true,
                      "options": [
                        {
                          "classes":"sub",
                          "states": {"result": "literarytext"},
                          "label": "Literary Text"
                        },
                        {
                          "classes":"sub",
                          "states": {"result": "infotext"},
                          "label": "Informational Text"
                        },
                        {
                          "classes":"sub",
                          "states": {"result": "vocab"},
                          "label": "Vocabulary"
                        }
                      ]
                    },
                    {
                      "group": "writing",
                      "label": "Writing",
                      "subheader": true,
                      "options": [
                        {
                          "classes":"sub",
                          "label": "Writing Expression",
                          "states": {"result": "writingexp"}
                        },
                        {
                          "classes":"sub",
                          "label": "Knowledge & Use of Language Conventions",
                          "states": {"result": "knwldconv"}
                        }
                      ]
                    }
                  ]
                }
              ]
            }
          ]
        }
      ]
    },
    {
      "states": {"asmtType": "DIAGNOSTIC"},
      "group": "Diagnostics",
      "header": true,
      "label": "Non-Summative",
      "showLabel": false,
      "options": [
        {
          "for": {
            "report": ["SCHOOL"],
            "piiAll": [true]
          },
          "label": "Diagnostic Assessments",
          "states": {"result": "overall"}
        },
        {
          "for": {
            "report": ["SCHOOL"],
            "piiAll": [false]
          },
          "disabled": true,
          "label": "Diagnostic Assessments",
          "states": {"result": "overall"},
          "tooltipText": "Available at school level",
          "options": [
            {
              "disabled": true,
              "subheader": true,
              "classes":"diagnostic-result-info",
              "label": "- Available at school level"
            }
          ]
        },
        {
          "for": {
            "report": ["STUDENT"]
          },
          "label": "Diagnostic Assessments",
          "states": {"result": "overall"}
        },
        {
          "for": {"report": ["CONSORTIUM", "STATE", "DISTRICT", "GRADE"]},
          "disabled": true,
          "label": "Diagnostic Assessments",
          "states": {"result": "overall"},
          "tooltipText": "Available at school level",
          "options": [
            {
              "disabled": true,
              "subheader": true,
              "classes":"diagnostic-result-info",
              "label": "- Available at school level"
            }
          ]
        }
      ]
    }
  ],


  "gradesCoursesList": {
    "subject1": {
      "group1": [
        {
          "label": "3rd Grade",
          "value": "Grade 3"
        },
        {
          "label": "4th Grade",
          "value": "Grade 4"
        },
        {
          "label": "5th Grade",
          "value": "Grade 5"
        },
        {
          "label": "6th Grade",
          "value": "Grade 6"
        },
        {
          "label": "7th Grade",
          "value": "Grade 7"
        },
        {
          "label": "8th Grade",
          "value": "Grade 8"
        }
      ],
      "group2": [
        {
          "label": "Algebra I",
          "value": "Algebra I"
        },
        {
          "label": "Algebra II",
          "value": "Algebra II"
        },
        {
          "label": "Geometry",
          "value": "Geometry"
        }
      ],
      "group3": [
        {
          "label": "Int. Math I",
          "value": "Integrated Mathematics I"
        },
        {
          "label": "Int. Math II",
          "value": "Integrated Mathematics II"
        },
        {
          "label": "Int. Math III",
          "value": "Integrated Mathematics III"
        }
      ]
    },
    "subject2": [
      {
        "label": "3rd Grade",
        "value": "Grade 3"
      },
      {
        "label": "4th Grade",
        "value": "Grade 4"
      },
      {
        "label": "5th Grade",
        "value": "Grade 5"
      },
      {
        "label": "6th Grade",
        "value": "Grade 6"
      },
      {
        "label": "7th Grade",
        "value": "Grade 7"
      },
      {
        "label": "8th Grade",
        "value": "Grade 8"
      },
      {
        "label": "9th Grade",
        "value": "Grade 9"
      },
      {
        "label": "10th Grade",
        "value": "Grade 10"
      },
      {
        "label": "11th Grade",
        "value": "Grade 11"
      }
    ]
  }
}
