{
  "cutpoints": [
    {
      "for": {"subject": ["subject1"]},
      "options": [
        {"type": "x", "start": 0, "end": 0.4, "label": "PROBABLY NOT MASTERED"},
        {"type": "o", "start": 0.4, "end": 0.6, "label": "POSSIBLY MASTERED"},
        {"type": "check", "start": 0.7, "end": 1, "label": "PROBABLY MASTERED"}
      ]
    },
    {
      "for": {"subject": ["subject2"]},
      "options": [
        {"type": "x", "start": 0, "end": 0.4, "label": "PROBABLY NOT MASTERED"},
        {"type": "o", "start": 0.4, "end": 0.6, "label": "POSSIBLY MASTERED" },
        {"type": "check", "start": 0.7, "end": 1, "label": "PROBABLY MASTERED"}
      ]
    }
  ],
  "diagnosticLegend": [
    {
      "for": {"asmtType": ["DIAGNOSTIC"]},
      "type": "masteryLevels",
      "content": "Lorim Ipsum",
      "levels": [
        {
                    "level": "x",
                    "title1":"PROBABLY NOT",
                    "title2": "MASTERED (0 - 0.39)"
                },
                {
                    "level": "o",
                    "title1":"POSSIBLY",
                    "title2": "MASTERED (0.4 - 0.59)"
                },
                {
                    "level": "o",
                    "title1":"PROBABLY",
                    "title2": "MASTERED (0.6 - 1)"
                }
      ]
    }
  ],
  "expressivenessLegend": [
    {
      "for": {"asmtType": ["DIAGNOSTIC"]},
      "type": "expressivenessLevels",
      "content": "Lorim Ipsum",
      "legendLabel": "Expressiveness",

      "levels": [
        {
          "level": "0",
          "title1": "Silence or irrelevant"
        },
        {
          "level": "1",
          "title1": "Word-by-word"
        },
        {
          "level": "2",
          "title1": "Two-word phrases"
        },
        {
          "level": "3",
          "title1": "Three- or four-word phrases"
        },
        {
          "level": "4",
          "title1": "Larger, meaningful phrases"
        }
      ],

      "details": {
        "type": "expressivenessLevels",
        "content": "Lurim Ipsum",
        "levels": [
          {
            "level": "0",
            "title1": "Silence or irrelevant or completely unintelligible material."
          },
          {
            "level": "1",
            "title1": "Reads primarily word-by-word. Occasional two-word or three-word phrases may occur - but these are infrequent and/or they do not preserve meaningful syntax."
          },
          {
            "level": "2",
            "title1": "Reads primarily in two-word phrases with some three-or-four-word groupings. Some word-by-word reading may be present. Word groupings may seem awkward and unrelated to larger context of sentence of passage."
          },
          {
            "level": "3",
            "title1": "Reads primarily in three- or four-word phrase groups. Some smaller groupings may be present. However, the majority of phrasing seems appropriate and preserves the syntax of the author. Little or no expressive interpretation is present."
          },
          {
            "level": "4",
            "title1": "Reads primarily in larger, meaningful phrase groups. Although some regressions, repetitions, and deviations from text may be present, these do not appear to detract from the overall structure of the story. Preservation of the author's syntax is consistent. Some or most of the story is read with expressive interpretation."
          }
        ]
      }
    }
  ],
  "diagnosticBaseColumns": [
    {
      "for": {
                "asmtType": ["DIAGNOSTIC"],
                "subject": ["subject2"]
            },
      "options": [
                {
                    "id": "score",
                    "name": "SCORE",
                    "field": "score",
                    "width": 100
                },
                {
                    "id": "irl",
                    "name": "IRL",
                    "field": "irl",
                    "width": 100
                },
                {
                    "id": "passages_rmm",
                    "name": "<div class='passages-header-cell'>PASSAGES <span>TYPE (RMM)</span></div>",
                    "textName": "PASSAGES TYPE (RMM)",
                    "field": "passage_info",
                    "width": 230,
                    "formatter": "showPassages",
                    "sortable": false
                },
                {
                    "id": "wpm",
                    "name": "WPM",
                    "textName": "Words per minute",
                    "field": "wpm",
                    "width": 65
                },
                {
                    "id": "wcpm",
                    "name": "WCPM",
                    "textName": "Words correct per minute",
                    "field": "wcpm",
                    "width": 65
                },
                {
                    "id": "accuracy",
                    "name": "ACCURACY",
                    "field": "accuracy",
                    "width": 80,
                    "formatter": "showPercentage"
                },
                {
                    "id": "expressiveness",
                    "name": "EXPRESSIVENESS",
                    "field": "express",
                    "level_field": "express",
                    "width": 115,
                    "formatter": "showLevelColoredValue",
                    "cssClass": "expressiveness"
                },
                {
                    "id": "passages",
                    "name": "PASSAGE(S)",
                    "field": "passage_info",
                    "width": 105,
                    "formatter": "showPassages",
                    "textName": "Passages",
                    "sortable": false
                },
                {
                    "id": "research",
                    "name": "RESEARCH",
                    "field": "score_res",
                    "width": 100
                },
                {
                    "id": "literary_analysis",
                    "name": "LITERARY ANALYSIS",
                    "field": "score_lit",
                    "width": 100
                },
                {
                    "id": "narrative_writing",
                    "name": "NARRATIVE WRITING",
                    "field": "score_nar",
                    "width": 100
                },
                 {
                    "id": "cvc",
                    "name": "CVC",
                    "field": "p1_cvc",
                    "width": 65,
                    "group": "PROBABILITY OF MASTERY",
                    "textName": "CVC",
                    "formatter": "checksAndX"
                },
                {
                    "id": "blends_diagraphs",
                    "name": "BLENDS & DIAGRAPHS",
                    "field": "p2_blend",
                    "width": 72,
                    "group": "PROBABILITY OF MASTERY",
                    "textName": "Blends & Diagraphs",
                    "formatter": "checksAndX"
                },
                {
                    "id": "complex_vowels",
                    "name": "COMPLEX VOWELS",
                    "field": "p3_cvow",
                    "width": 68,
                    "group": "PROBABILITY OF MASTERY",
                    "textName": "Complex Vowels",
                    "formatter": "checksAndX"
                },
                {
                    "id": "complex_consonants",
                    "name": "COMPLEX CONSONANTS",
                    "field": "p4_ccons",
                    "width": 84,
                    "group": "PROBABILITY OF MASTERY",
                    "textName": "Complex Consonants",
                    "formatter": "checksAndX"
                },
                {
                    "id": "multi_syllabic1",
                    "name": "MULTI-SYLLABIC 1",
                    "field": "p5_msyl1",
                    "width": 70,
                    "group": "PROBABILITY OF MASTERY",
                    "textName": "Multi-Syllabic 1",
                    "formatter": "checksAndX"
                },
                {
                    "id": "multi_syllabic2",
                    "name": "MULTI-SYLLABIC 2",
                    "field": "p6_msyl2",
                    "width": 70,
                    "group": "PROBABILITY OF MASTERY",
                    "textName": "Multi-Syllabic 2",
                    "formatter": "checksAndX"
                },
                {
                    "id": "assessment",
                    "name": "ASSESSMENT",
                    "field": "view",
                    "width": 430,
                    "headerCssClass": "text-left",
                    "cssClass": "text-left",
                    "overflowToolTip": true
                },
                {
                    "id": "surveyItem",
                    "field": "responses",
                    "formatter": "showSurveyResponses",
                    "sortable": false,
                    "overflowToolTip": true
                }
      ]
    },
        {
            "for": {
                "asmtType": ["DIAGNOSTIC"],
                "subject": ["subject1"]
            },
            "options": [
                {
                    "id": "score",
                    "name": "SCORE",
                    "field": "score",
                    "overflowToolTip": true,
                    "width": 100
                },
                {
                    "id": "suggested_grade_level",
                    "name": "SUGGESTED GRADE LEVEL SUBTEST",
                    "field": "suggested_grade_level",
                    "overflowToolTip": true,
                    "width": 125
                },
                {
                    "id": "cluster_grade_level",
                    "name": "GRADE LEVEL",
                    "field": "cluster_grade_level",
                    "overflowToolTip": true,
                    "width": 50
                },
                {
                    "id": "progression",
                    "name": "PROG",
                    "textName": "Progression",
                    "field": "progression",
                    "overflowToolTip": true,
                    "width": 50
                },
                {
                    "id": "clusters",
                    "name": "CLUSTERS",
                    "field": "clusters",
                    "formatter": "showClusters",
                    "headerCssClass": "text-left",
                    "cssClass": "text-left",
                    "width": 456,
                    "sortable": false
                },
                {
                    "id": "cluster",
                    "name": "CLUSTER",
                    "field": "clusters",
                    "formatter": "showClusters",
                    "headerCssClass": "text-left",
                    "cssClass": "text-left",
                    "width": 456,
                    "sortable": false
                },
                {
                    "id": "skill",
                    "name": "SKILL",
                    "field": "skill",
                    "headerCssClass": "text-left",
                    "cssClass": "text-left",
                    "overflowToolTip": true,
                    "width": 280,
                    "formatter": "showSkill"
                },
                {
                    "id": "items_correct",
                    "name": "ITEMS CORRECT",
                    "field": "items_correct",
                    "formatter": "showItemsCorrect",
                    "sortValue": "percent_correct",
                    "cssClass": "text-left",
                    "overflowToolTip": true,
                    "width": 100
                },
                {
                    "id": "total_time_per_skill",
                    "name": "TOTAL TIME PER SKILL",
                    "field": "total_time_per_skill",
                    "formatter": "showTotalTimePerSkill",
                    "cssClass": "text-left",
                    "overflowToolTip": true,
                    "width": 75
                }
            ]
        }
  ]
}
