batch_guid,record_num,record_type,is_multi_rec,is_reported_diagnostic,year,asmt_date,state_code,resp_dist_id,resp_dist_name,resp_school_id,resp_school_name,student_parcc_id,student_state_id,student_local_id,student_first_name,student_middle_name,student_last_name,student_sex,student_dob,opt_state_data1,student_grade,ethn_hisp_latino,ethn_indian_alaska,ethn_asian,ethn_black,ethn_hawai,ethn_white,ethn_two_or_more_races,ethn_filler,ethnicity,ell,lep_status,gift_talent,migrant_status,econo_disadvantage,disabil_student,primary_disabil_type,staff_id,accomod_ell,accomod_504,accomod_ind_ed,accomod_freq_breaks,accomod_alt_location,accomod_small_group,accomod_special_equip,accomod_spec_area,accomod_time_day,accomod_answer_mask,accomod_color_contrast,accomod_text_2_speech_math,accomod_read_math,accomod_asl_video,accomod_screen_reader,accomod_close_capt_ela,accomod_read_ela,accomod_braille_ela,accomod_tactile_graph,accomod_text_2_speech_ela,accomod_answer_rec,accomod_braille_resp,accomod_calculator,accomod_construct_resp_ela,accomod_select_resp_ela,accomod_math_resp,accomod_monitor_test_resp,accomod_word_predict,accomod_native_lang,accomod_loud_native_lang,accomod_math_rsp,accomod_math_text_2_speech,accomod_math_trans_online,accomod_w_2_w_dict,accomod_extend_time,accomod_alt_paper_test,accomod_paper_trans_math,accomod_human_read_sign,accomod_large_print,accomod_braille_tactile,opt_state_data2,opt_state_data3,opt_state_data4,opt_state_data5,opt_state_data6,opt_state_data7,opt_state_data8,poy,test_code,asmt_grade,asmt_subject,skill1_name,skill1_total_items,skill1_time,skill1_correct_time,skill1_number_correct,skill1_number_incorrect,skill2_name,skill2_total_items,skill2_time,skill2_correct_time,skill2_number_correct,skill2_number_incorrect,skill3_name,skill3_total_items,skill3_time,skill3_correct_time,skill3_number_correct,skill3_number_incorrect,skill4_name,skill4_total_items,skill4_time,skill4_correct_time,skill4_number_correct,skill4_number_incorrect,skill5_name,skill5_total_items,skill5_time,skill5_correct_time,skill5_number_correct,skill5_number_incorrect,skill6_name,skill6_total_items,skill6_time,skill6_correct_time,skill6_number_correct,skill6_number_incorrect,skill_name,skills_total_items,skills_total_time,skills_total_correct_time,skills_total_number_correct,skills_total_number_incorrect,create_date,rec_status
d5822bf4-8b56-4bdc-af2e-6f362d9f85c8,12,04,,,2014-2015,0008-11-04,RI,R0001,Newport,RN001,Rogers High School,UMaYGd8hto4TYc7EiWKtivzti8YAWg5xozomFI8q,GZHpQpxaeap0uLPtsMSNT525rjOaTQiKeyj3YBnK,DGsfQaDDfXEMog1xErfGsJeWSIn7QDNTYHwbxcx1,Lois,Vincent,Jewell,F,0008-11-04,,03,N,N,N,N,N,Y,Y,,04,N,N,N,Y,N,N,DD,a0b1c2d3e4f5g6h7i8j9k0l1m2n3opqrstuvwx,N,Y,Y,,,,,,,,,,,Y,,,,,,,,,,,,,,,Y,,,,,,,,,,,,GL7fec1XzKzib,GL7fec1XzKzib,GL7fec1XzKzib,GL7fec1XzKzib,GL7fec1XzKzib,GL7fec1XzKzib,GL7fec1XzKzib,Spring,ELA03,03,Mathematics,Skill 1,4,00:02:31,00:02:31,4,0,Skill 2,4,00:02:31,00:02:31,4,0,Skill 3,4,00:02:31,00:02:31,4,0,Skill 4,4,00:02:31,00:02:31,4,0,Skill 5,4,00:02:31,00:02:31,4,0,Skill 6,4,00:02:31,00:02:31,4,0,Master Skill,24,00:15:06,00:15:06,24,0,2015-05-26 13:29:10.378783-04,C
d5822bf4-8b56-4bdc-af2e-6f362d9f85c8,13,04,,,2014-2015,0008-11-04,RI,R0001,Newport,RN001,Rogers High School,qEy737ea1Emx97d0RTxk7QpDWecnUu2eEBWvQXkK,PHSqW51HGoDx5DDlrf1AZ8MQhRTnYqmp5hasPeAL,YFTPFKP33wUilNIhHyFcJLPpbnx8U0xSrtxBffCq,Roman,Devon,Neveu,M,0008-11-04,,03,N,N,N,Y,N,N,Y,,04,N,N,N,Y,Y,N,OI,a0b1c2d3e4f5g6h7i8j9k0l1m2n3opqrstuvwx,Y,Y,Y,,,,,,,,,,,Y,,,,,,,,,Y,,SelectedResponse1,MathResponse,,,Y,,,,,,,,,,,,AofVP2mMC41Yt1,AofVP2mMC41Yt1,AofVP2mMC41Yt1,AofVP2mMC41Yt1,AofVP2mMC41Yt1,AofVP2mMC41Yt1,AofVP2mMC41Yt1,Spring,ELA03,03,Mathematics,Skill 1,4,00:02:31,00:02:31,4,0,Skill 2,4,00:02:31,00:02:31,4,0,Skill 3,4,00:02:31,00:02:31,4,0,Skill 4,4,00:02:31,00:02:31,4,0,Skill 5,4,00:02:31,00:02:31,4,0,,,,,,,Master Skill,20,00:12:36,00:15:06,20,0,2015-05-26 13:29:10.37875-04,C
d5822bf4-8b56-4bdc-af2e-6f362d9f85c8,14,04,,,2014-2015,0008-11-04,RI,R0001,Newport,RN001,Rogers High School,MXGplB4M232z2j4FNTStjIAKRER2ujJ8Z2OlV7Yn,xK2Faci3f8jeHK0T5ctKCG9m8qtFs0CUS92459TJ,rBQcB1GLoy5fdMUfjBX7cmKz3xKluOBGdsJL5DDn,Joella,Betty,Parr,F,0008-11-04,,03,N,N,N,N,N,Y,Y,,02,Y,Y,N,Y,N,Y,OI,a0b1c2d3e4f5g6h7i8j9k0l1m2n3opqrstuvwx,N,Y,Y,,,,,,,,,,,Y,,,,Y,,,,,,,,,,,Y,,,,,,,,,,,,KM08fO,KM08fO,KM08fO,KM08fO,KM08fO,KM08fO,KM08fO,Spring,ELA03,03,Mathematics,Skill 1,4,00:02:31,00:02:31,4,0,Skill 2,4,00:02:31,00:02:31,4,0,Skill 3,4,00:02:31,00:02:31,4,0,Skill 4,4,00:02:31,00:02:31,4,0,Skill 5,4,00:02:31,00:02:31,4,0,Skill 6,4,00:02:31,00:01:31,3,1,Master Skill,24,00:15:06,00:14:06,23,1,2015-05-26 13:29:10.378869-04,C
d5822bf4-8b56-4bdc-af2e-6f362d9f85c8,15,04,,,2014-2015,0008-11-04,RI,R0001,Newport,RN001,Rogers High School,Xwk5McYQSIRVCwDpzpWzMfHYetWqy5BUNy6Z2ogV,MlmSUBgk2YxCyyfo6OptZmHBC02LlOScVKkBPyQO,xCgjFCvTnUHSEh54cJnkjTZVMEtIczPiAxvh5CrU,Chase,Chase,Lawlor,F,0008-11-04,,03,N,Y,N,N,N,N,Y,,04,N,Y,Y,N,N,N,DD,a0b1c2d3e4f5g6h7i8j9k0l1m2n3opqrstuvwx,N,N,N,,,,,,,,,,,Y,Y,,,,,,,,,,,,,,Y,,,,,,,,,,,,3jjXcxXj9,3jjXcxXj9,3jjXcxXj9,3jjXcxXj9,3jjXcxXj9,3jjXcxXj9,3jjXcxXj9,Spring,ELA03,03,Mathematics,Skill 1,4,00:02:31,00:02:31,4,0,Skill 2,4,00:02:31,00:02:31,4,0,Skill 3,4,00:02:31,00:02:31,4,0,Skill 4,4,00:02:31,00:02:31,4,0,Skill 5,4,00:02:31,00:02:31,4,0,Skill 6,4,00:02:31,00:02:31,4,0,Master Skill,24,00:15:06,00:15:06,24,0,2015-05-26 13:29:10.378743-04,C
