batch_guid,record_num,asmt_attempt_guid,item_guid,student_parcc_id,rsp_entered,student_item_score,item_seq,item_time,rec_status,create_date
5ee0667e-0808-4506-ac5d-d40f9ae1d30a,12,bd444a6e-fa11-4ada-a57d-2981825b8a94,5b5e368b-d369-4f11-96c6-7e1910b1b680,d49df7e8-2d49-4d24-ba99-b8a71329a88d,6,1,1,3,C,2015-01-20 10:47:47.77834
5ee0667e-0808-4506-ac5d-d40f9ae1d30a,13,5ead7d72-43c0-4f2c-82d9-be34dc7101bf,5b5e368b-d369-4f11-96c6-7e1910b1b680,74a02f90-4c0c-40ac-b71a-cba73b4d0f6d,5,1,1,7,C,2015-01-20 10:47:47.778414
5ee0667e-0808-4506-ac5d-d40f9ae1d30a,14,bd444a6e-fa11-4ada-a57d-2981825b8a94,b61987c5-5abe-40f2-bfa4-ed11e84b5634,d49df7e8-2d49-4d24-ba99-b8a71329a88d,2,1,1,6,C,2015-01-20 10:47:47.77834
5ee0667e-0808-4506-ac5d-d40f9ae1d30a,15,bd444a6e-fa11-4ada-a57d-2981825b8a94,51ef431b-3323-4f8f-96da-c7ade6612f33,d49df7e8-2d49-4d24-ba99-b8a71329a88d,1,2,2,2,C,2015-01-20 10:47:47.779481
5ee0667e-0808-4506-ac5d-d40f9ae1d30a,16,5ead7d72-43c0-4f2c-82d9-be34dc7101bf,b61987c5-5abe-40f2-bfa4-ed11e84b5634,74a02f90-4c0c-40ac-b71a-cba73b4d0f6d,3,2,3,9,C,2015-01-20 10:47:47.778414
