AssessmentAttemptGuid,StudentGuid,ItemGuid,ResponseEntered,ScorePoints,ItemSequence,ItemTime
5ead7d72-43c0-4f2c-82d9-be34dc7101bf,74a02f90-4c0c-40ac-b71a-cba73b4d0f6d,5b5e368b-d369-4f11-96c6-7e1910b1b680,5,1,1,7
5ead7d72-43c0-4f2c-82d9-be34dc7101bf,74a02f90-4c0c-40ac-b71a-cba73b4d0f6d,b61987c5-5abe-40f2-bfa4-ed11e84b5634,3,2,3,9
bd444a6e-fa11-4ada-a57d-2981825b8a94,d49df7e8-2d49-4d24-ba99-b8a71329a88d,5b5e368b-d369-4f11-96c6-7e1910b1b680,6,1,1,3
bd444a6e-fa11-4ada-a57d-2981825b8a94,d49df7e8-2d49-4d24-ba99-b8a71329a88d,b61987c5-5abe-40f2-bfa4-ed11e84b5634,2,1,1,6
bd444a6e-fa11-4ada-a57d-2981825b8a94,d49df7e8-2d49-4d24-ba99-b8a71329a88d,51ef431b-3323-4f8f-96da-c7ade6612f33,1,2,2,2
