RecordType,MultipleRecordFlag,ReportedDiagnosticScoreFlag,Year,AssessmentDate,StateAbbreviation,ResponsibleDistrictIdentifier,ResponsibleDistrictName,ResponsibleSchoolInstitutionIdentifier,ResponsibleSchoolInstitutionName,PARCCStudentIdentifier,StateStudentIdentifier,LocalStudentIdentifier,FirstName,MiddleName,LastName,Sex,Birthdate,OptionalStateData1,GradeLevelWhenAssessed,HispanicLatinoEthnicity,AmericanIndianAlaskaNative,Asian,BlackorAfricanAmerican,NativeHawaiianorOtherPacificIslander,White,FillerRaceField,FederalRace,EnglishLearner,TitleIIILimitedEnglishProficientParticipationStatus,GiftedandTalented,MigrantStatus,EconomicDisadvantageStatus,StudentWithDisability,PrimaryDisabilityType,StaffMemberIdentifier,AssessmentAccommodationEnglishlearner,AssessmentAccommodation504,AssessmentAccommodationIndividualizedEducationalPlan,FrequentBreaks,SeparateAlternateLocation,SmallTestingGroup,SpecializedEquipmentorFurniture,SpecifiedAreaorSetting,TimeOfDay,AnswerMasking,ColorContrast,TexttoSpeechforMathematics,HumanReaderorHumanSignerforMathematics,ASLVideo,ScreenReaderORotherAssistiveTechnologyAT,ClosedCaptioningforELAL,HumanReaderorHumanSignerforELAL,RefreshableBrailleDisplayforELAL,TactileGraphics,TexttoSpeechforELAL,AnswersRecordedInTestBook,BrailleResponse,CalculationDeviceandMathematicsTools,ELALConstructedResponse,ELALSelectedResponseorTechnologyEnhancedItems,MathematicsResponse,MonitorTestResponse,WordPrediction,AdministrationDirectionsClarifiedinStudentsNativeLanguage,AdministrationDirectionsReadAloudinStudentsNativeLanguage,MathematicsResponseEL,TranslationoftheMathematicsAssessmentinTexttoSpeech,TranslationoftheMathematicsAssessmentOnline,WordtoWordDictionaryEnglishNativeLanguage,ExtendedTime,AlternateRepresentationPaperTest,TranslationoftheMathematicsAssessmentinPaper,HumanReaderorHumanSigner,LargePrint,BraillewithTactileGraphics,OptionalStateData2,OptionalStateData3,OptionalStateData4,OptionalStateData5,OptionalStateData6,OptionalStateData7,OptionalStateData8,Period,TestCode,AssessmentGrade,Subject,ScaleScore,IRL,Passage1Type,Passage1RMM,Passage2Type,Passage2RMM,Passage3Type,Passage3RMM
04,,Y,2014-2015,05-03-2015,RI,R0001,Newport,RN001,Rogers High School,Xwk5McYQSIRVCwDpzpWzMfHYetWqy5BUNy6Z2ogV,MlmSUBgk2YxCyyfo6OptZmHBC02LlOScVKkBPyQO,xCgjFCvTnUHSEh54cJnkjTZVMEtIczPiAxvh5CrU,Chase,Chase,Lawlor,F,9/2/05,,03,N,Y,N,N,N,N,,04,N,Y,Y,N,N,N,DD,a0b1c2d3e4f5g6h7i8j9k0l1m2n3opqrstuvwxyz,N,N,N,,,,,,,,,,,Y,Y,,,,,,,,,,,,,,Y,,,,,,,,,,,,3jjXcxXj9,3jjXcxXj9,3jjXcxXj9,3jjXcxXj9,3jjXcxXj9,3jjXcxXj9,3jjXcxXj9,Spring,ELA03,03,English Language Arts/Literacy,422,1.3,Literary,3.1,Literary,2.6,Literary,3.9
04,,,2014-2015,05-03-2015,RI,R0001,Newport,RN001,Rogers High School,UMaYGd8hto4TYc7EiWKtivzti8YAWg5xozomFI8q,GZHpQpxaeap0uLPtsMSNT525rjOaTQiKeyj3YBnK,DGsfQaDDfXEMog1xErfGsJeWSIn7QDNTYHwbxcx1,Lois,Vincent,Jewell,F,9/2/05,,03,N,N,N,N,N,Y,,04,N,N,N,Y,N,N,DD,a0b1c2d3e4f5g6h7i8j9k0l1m2n3opqrstuvwxyz,N,Y,Y,,,,,,,,,,,Y,,,,,,,,,,,,,,,Y,,,,,,,,,,,,GL7fec1XzKzib,GL7fec1XzKzib,GL7fec1XzKzib,GL7fec1XzKzib,GL7fec1XzKzib,GL7fec1XzKzib,GL7fec1XzKzib,Spring,ELA03,03,English Language Arts/Literacy,496,7.5,Informational,2.1,Literary,5.8,Informational,8.6
04,,Y,2014-2015,05-03-2015,RI,R0001,Newport,RN001,Rogers High School,qEy737ea1Emx97d0RTxk7QpDWecnUu2eEBWvQXkK,PHSqW51HGoDx5DDlrf1AZ8MQhRTnYqmp5hasPeAL,YFTPFKP33wUilNIhHyFcJLPpbnx8U0xSrtxBffCq,Roman,Devon,Neveu,M,9/2/05,,03,N,N,N,Y,N,N,,04,N,N,N,Y,Y,N,OI,a0b1c2d3e4f5g6h7i8j9k0l1m2n3opqrstuvwxyz,Y,Y,Y,,,,,,,,,,,Y,,,,,,,,,Y,,SelectedResponse1,MathResponse,,,Y,,,,,,,,,,,,AofVP2mMC41Yt1,AofVP2mMC41Yt1,AofVP2mMC41Yt1,AofVP2mMC41Yt1,AofVP2mMC41Yt1,AofVP2mMC41Yt1,AofVP2mMC41Yt1,Spring,ELA03,03,English Language Arts/Literacy,434,1.4,Literary,4.5,Informational,4.2,Literary,4.6
04,Y,Y,2014-2015,05-03-2015,RI,R0001,Newport,RN001,Rogers High School,MXGplB4M232z2j4FNTStjIAKRER2ujJ8Z2OlV7Yn,xK2Faci3f8jeHK0T5ctKCG9m8qtFs0CUS92459TJ,rBQcB1GLoy5fdMUfjBX7cmKz3xKluOBGdsJL5DDn,Joella,Betty,Parr,F,9/2/05,,03,N,N,N,N,N,Y,,02,Y,Y,N,Y,N,Y,OI,a0b1c2d3e4f5g6h7i8j9k0l1m2n3opqrstuvwxyz,N,Y,Y,,,,,,,,,,,Y,,,,Y,,,,,,,,,,,Y,,,,,,,,,,,,KM08fO,KM08fO,KM08fO,KM08fO,KM08fO,KM08fO,KM08fO,Spring,ELA03,03,English Language Arts/Literacy,586,2.8,Literary,6.2,Literary,8.1,Informational,9.7
04,Y,,2014-2015,02-02-2015,RI,R0001,Newport,RN001,Rogers High School,MXGplB4M232z2j4FNTStjIAKRER2ujJ8Z2OlV7Yn,xK2Faci3f8jeHK0T5ctKCG9m8qtFs0CUS92459TJ,rBQcB1GLoy5fdMUfjBX7cmKz3xKluOBGdsJL5DDn,Joella,Betty,Parr,F,9/2/05,,03,N,N,N,N,N,Y,,02,Y,Y,N,Y,N,Y,OI,a0b1c2d3e4f5g6h7i8j9k0l1m2n3opqrstuvwxyz,N,Y,Y,,,,,,,,,,,Y,,,,Y,,,,,,,,,,,Y,,,,,,,,,,,,KM08fO,KM08fO,KM08fO,KM08fO,KM08fO,KM08fO,KM08fO,Spring,ELA03,03,English Language Arts/Literacy,527,6.4,Literary,9.3,Literary,4.8,Literary,2.2
04,,Y,2014-2015,05-03-2015,RI,R0001,Newport,RN001,Rogers High School,vwkr0R9sEgA872YY02LOWZFwoTLq0ATfnEvZ0i17,wErx2MhJgnsv4KQMeSoJh2dVSn198lOyLnxjtomP,D73On2W5jdPNO4dLrU1dMpZPxnVxtwcfGzdHgy8S,Shane,Becki,Cartlidge,F,9/2/05,,03,N,N,N,N,N,Y,,01,Y,N,N,Y,Y,Y,DB,a0b1c2d3e4f5g6h7i8j9k0l1m2n3opqrstuvwxyz,N,N,N,,,,,,,,,,,,,Y,HumanSigner,,,,,,,,SelectedResponse1,,Y,,,,,,,,,,Spanish,,,,zfCkJ5pIBilv,zfCkJ5pIBilv,zfCkJ5pIBilv,zfCkJ5pIBilv,zfCkJ5pIBilv,zfCkJ5pIBilv,zfCkJ5pIBilv,Spring,ELA03,03,English Language Arts/Literacy,497,3.4,Literary,3.3,Informational,9.6,Literary,6.0
04,,,2014-2015,05-03-2015,RI,R0002,East Greenwich,RE001,East Greenwich High School,rMB447lffsMQCZOQPIUTPusiGmZolvpxn7jMAsiT,w3eZOegFEIUSKulQeCRbbgDbj9WbHE1cOvn69gPO,5vlNJePaDUMPzuw3C6SIV6wXpD0TXMjGrn1rIkME,Debby,Orval,Benevides,F,9/2/05,,03,N,N,N,N,N,Y,,01,Y,Y,Y,Y,N,N,SLD,a0b1c2d3e4f5g6h7i8j9k0l1m2n3opqrstuvwxyz,N,N,N,,,,,,,,,,,,Y,,,,,,,,,,,,,Y,Y,,,,,Y,,,Spanish,,,Y,vEcx9C9wPnkP8BRD,vEcx9C9wPnkP8BRD,vEcx9C9wPnkP8BRD,vEcx9C9wPnkP8BRD,vEcx9C9wPnkP8BRD,vEcx9C9wPnkP8BRD,vEcx9C9wPnkP8BRD,Spring,ELA03,03,English Language Arts/Literacy,571,8.7,Literary,7.7,Informational,9.7,Informational,5.4
04,,,2014-2015,05-03-2015,RI,R0002,East Greenwich,RE001,East Greenwich High School,3i8VkcJCs5QffVgj2QOmZr3MLv40I0KJc5k5DcWe,sPKVH1LPyxMta9HHY4pOUwYc2hgvAQXRb4Nn3vVH,uYMntLy65YFYZooxdD3tmjcfOzdAfnbOURxtw5uL,Keshia,Arnette,Mantle,F,9/2/05,,03,Y,N,N,N,N,N,,01,Y,Y,Y,N,Y,N,SLD,a0b1c2d3e4f5g6h7i8j9k0l1m2n3opqrstuvwxyz,N,Y,N,,,,,,,,,,HumanSigner,,,,,,,,,,,,,,,,,,,,,,,,Spanish,,,,bEcar4ZudgE7,bEcar4ZudgE7,bEcar4ZudgE7,bEcar4ZudgE7,bEcar4ZudgE7,bEcar4ZudgE7,bEcar4ZudgE7,Spring,ELA03,03,English Language Arts/Literacy,531,7.4,Informational,9.0,Informational,6.6,Literary,5.3
04,,,2014-2015,05-03-2015,RI,R0002,East Greenwich,RE001,East Greenwich High School,WAhvqzYnESXaMgGYTK04IH1RPLeTatzuOubPg8U7,eCPPkTke1VjCEQGR7fv75sCaUOpKB6Ux4uubwxmp,0JvlHOeCIPlXfvoQBcaq88zuhe4VC3CMqSMIewNf,Arnette,Roman,Heckman,M,9/2/05,,03,N,N,N,Y,N,N,,02,N,N,Y,N,N,Y,TBI,a0b1c2d3e4f5g6h7i8j9k0l1m2n3opqrstuvwxyz,N,Y,N,,,,,,,,,,,Y,,,,,,,,,Y,,,,,,,,,,,,,,,,,,MxOvcIRQv,MxOvcIRQv,MxOvcIRQv,MxOvcIRQv,MxOvcIRQv,MxOvcIRQv,MxOvcIRQv,Spring,ELA03,03,English Language Arts/Literacy,451,6.1,Literary,4.7,Informational,6.4,Informational,6.5
04,,,2014-2015,05-03-2015,RI,R0002,East Greenwich,RE001,East Greenwich High School,N1eKk2eGo15Htuapk7zDnIIftLz18aVE1PMPSktf,1MuydaJPqVwL73BlUbInGkDx4AOijXeulKfdfP6v,zkx46I7G2Nd1CipPzPAOYgC92lGvNZYvOHU0wbW2,Barbar,Erasmo,Pedone,M,9/2/05,,03,N,N,N,N,N,Y,,03,N,N,Y,N,Y,Y,DB,a0b1c2d3e4f5g6h7i8j9k0l1m2n3opqrstuvwxyz,N,Y,Y,,,,,,,,,,,Y,Y,Y,,,,,Y,BrailleWriter,Y,,,,,,,,,Spanish,,,,,Spanish,,,,LNjtpdOtesj1c4amNTk,LNjtpdOtesj1c4amNTk,LNjtpdOtesj1c4amNTk,LNjtpdOtesj1c4amNTk,LNjtpdOtesj1c4amNTk,LNjtpdOtesj1c4amNTk,LNjtpdOtesj1c4amNTk,Spring,ELA03,03,English Language Arts/Literacy,575,3.0,Informational,6.2,Informational,5.7,Informational,6.9
04,,,2014-2015,05-03-2015,RI,R0002,East Greenwich,RE001,East Greenwich High School,pB7SBPI9whDTX6jqMTvlCa5POI7wiii3ik8YSqUN,71L3VffWOE0M4VWkRnc68I3jHb2fq71R9guPY9JJ,sfC58DkrG3bkJ2rcGRb8SGgBjmvLuVlT0KGZ0jLL,Jacquline,Kimberely,Neveu,M,9/2/05,,03,N,N,Y,N,N,N,,04,N,N,N,N,N,N,DD,a0b1c2d3e4f5g6h7i8j9k0l1m2n3opqrstuvwxyz,N,Y,N,Y,,Y,Y,,,,,,,,Y,,,,,,,,Y,,,,Y,,,,,,,,Y,,Spanish,,,,9opCz4520wIrA5pt,9opCz4520wIrA5pt,9opCz4520wIrA5pt,9opCz4520wIrA5pt,9opCz4520wIrA5pt,9opCz4520wIrA5pt,9opCz4520wIrA5pt,Spring,ELA03,03,English Language Arts/Literacy,432,7.7,Informational,4.9,Literary,6.1,Informational,6.6
04,,,2014-2015,05-03-2015,RI,R0003,Providence,RP001,Alvarez High School,hg02kpP44BJM9WGFlA0mRLg0cjzMSdEZR6vPrOdQ,Tvw1NS4wwtZ4tkwb0iVisHEi7Ry715pRRjGtbL1r,mvxrV6SfCFq11d05bN01KupSnan42G0QEJyFwwO5,Jacquline,Zofia,Forst,F,9/2/05,,03,N,N,N,N,N,Y,,03,Y,N,N,N,Y,N,DB,a0b1c2d3e4f5g6h7i8j9k0l1m2n3opqrstuvwxyz,Y,Y,Y,,,,,,,,,,,,,,,,,Y,,,,,,,,,,,,,Spanish,,,,Spanish,,,,5VeHNBZEifdweJB,5VeHNBZEifdweJB,5VeHNBZEifdweJB,5VeHNBZEifdweJB,5VeHNBZEifdweJB,5VeHNBZEifdweJB,5VeHNBZEifdweJB,Spring,ELA03,03,English Language Arts/Literacy,524,2.1,Informational,8.9,Literary,3.9,Literary,4.0
04,,Y,2014-2015,05-03-2015,RI,R0003,Providence,RP001,Alvarez High School,zxITiM66QUVOcTyhRaooB0UIOWemGFP8eQE7xPSx,6oZAVILFTfpG9poJ4qFAJOvw0XYa9suCqZPc2Jkf,UZJGBAKBhDPPLpfVCc225qzGY4J1Ei8vjBnnFwh6,Zofia,Keshia,Mccreery,F,9/2/05,,03,N,N,N,N,N,N,,04,Y,N,Y,N,N,Y,SLI,a0b1c2d3e4f5g6h7i8j9k0l1m2n3opqrstuvwxyz,Y,Y,N,,,Y,,,,,,,,,,,,,,,,,,,,,,,,,SpeechToText,Spanish,,,,,,,,,ZUbaT2XarRNdc71,ZUbaT2XarRNdc71,ZUbaT2XarRNdc71,ZUbaT2XarRNdc71,ZUbaT2XarRNdc71,ZUbaT2XarRNdc71,ZUbaT2XarRNdc71,Spring,ELA03,03,English Language Arts/Literacy,583,4.4,Literary,6.4,Informational,4.8,Literary,1.1
04,,Y,2014-2015,05-03-2015,RI,R0003,Providence,RP001,Alvarez High School,6xduCZW2oSUGSLzpiFpJQQK8YSAzmBrMjAh4WEkn,K0e1FlOXuZVSpMaTr2EUHQLrGDQSoSmZWfuY1MED,nb43B38TZ8h5SZPLTc6GMdXWSZxi8O6xGOUaLZvS,Shane,Kimberely,Gatti,M,9/2/05,,03,Y,N,N,N,N,N,,05,N,N,Y,N,N,N,HI,a0b1c2d3e4f5g6h7i8j9k0l1m2n3opqrstuvwxyz,N,N,Y,,,,Y,,,,,,,,,,,,,,,,Y,,,,,,,,,,,,Y,,Spanish,,,,jg,jg,jg,jg,jg,jg,jg,Spring,ELA03,03,English Language Arts/Literacy,545,1.8,Informational,6.7,Informational,7.0,Informational,1.9
04,,,2014-2015,05-03-2015,RI,R0003,Providence,RP001,Alvarez High School,wUfuK1C1vpevOq8cV6oqQxNNwJV1TbzeraL8fC4v,SYKyRcyh4S0npwfeCEDSXEcNeevVBGyI1cUZ7JBa,QA9WHJjldT89J8LHuhwDFqG4aVG9MKz4pBxkHNKQ,Sandy,Devon,Mccreery,M,9/2/05,,03,N,N,N,N,Y,N,,05,N,Y,N,Y,Y,N,SLD,a0b1c2d3e4f5g6h7i8j9k0l1m2n3opqrstuvwxyz,Y,N,Y,,,,,,,,,,,,,,,,,,,,Y,,,,,,,,,,,,Y,,,,,,f8xX7D9KWP6ArNd8,f8xX7D9KWP6ArNd8,f8xX7D9KWP6ArNd8,f8xX7D9KWP6ArNd8,f8xX7D9KWP6ArNd8,f8xX7D9KWP6ArNd8,f8xX7D9KWP6ArNd8,Spring,ELA03,03,English Language Arts/Literacy,406,3.6,Literary,1.5,Informational,9.9,Literary,3.3
04,,,2014-2015,05-03-2015,RI,R0003,Providence,RP002,Mount Pleasant High School,SY0CEikzlomxMRW6NsjHhNuLpK17yruc5pjGavX8,XFnox5kaJRbysJtAmQHxOLaKWJvPvzQgkz3pv0KK,CaYqEwjoL1rAeX2BVmrVwhjXiORRRnxWWYbgKINv,Joella,Vincent,Pando,M,9/2/05,,03,N,N,N,N,N,Y,,02,N,Y,N,N,N,N,AUT,a0b1c2d3e4f5g6h7i8j9k0l1m2n3opqrstuvwxyz,N,N,Y,,,,,,,,,,,,,,,,,,,,,,,,,,Y,,SpeechToText,,,,Y,,,,,,J6XVOOZ7YZCeO,J6XVOOZ7YZCeO,J6XVOOZ7YZCeO,J6XVOOZ7YZCeO,J6XVOOZ7YZCeO,J6XVOOZ7YZCeO,J6XVOOZ7YZCeO,Spring,ELA03,03,English Language Arts/Literacy,580,2.7,Informational,8.2,Literary,5.5,Literary,2.2
04,,,2014-2015,05-03-2015,RI,R0003,Providence,RP002,Mount Pleasant High School,QitKZjIhO0SovQYzrO9PfV1o1b0P0xRtKwJwFRqc,CZIdF9IWXP4VxKMRmyhuMH3RrbLuzlUQHcNpeiui,RAwF4ar58LF7U1lAoUhrunhyGSrKowNmH5IHEaVX,Winona,Darci,Pedone,F,9/2/05,,03,Y,N,N,N,N,N,,03,N,Y,N,N,Y,N,SLI,a0b1c2d3e4f5g6h7i8j9k0l1m2n3opqrstuvwxyz,N,N,Y,,,Y,,,,,,,,,Y,,,,,,,,,,,,,,Y,,,,,,,,,,,,idlDCzYl45cO7,idlDCzYl45cO7,idlDCzYl45cO7,idlDCzYl45cO7,idlDCzYl45cO7,idlDCzYl45cO7,idlDCzYl45cO7,Spring,ELA03,03,English Language Arts/Literacy,410,7.6,Literary,6.9,Literary,1.5,Informational,7.5
04,,Y,2014-2015,05-03-2015,RI,R0003,Providence,RP002,Mount Pleasant High School,c0pT5dPt1QuTicyE2IWo13jRf8kh2ep7ZI8flg9g,UeDU72FXhOsN87hmLVrvg2axM0ew777BXwUfOMQi,3ZnniDJxEkJJud7n9G1N5inYdTaqvPSqp60jxBHx,Betty,Senaida,Augustus,F,9/2/05,,03,N,N,N,Y,N,N,,02,Y,Y,Y,N,Y,Y,EMN,a0b1c2d3e4f5g6h7i8j9k0l1m2n3opqrstuvwxyz,Y,Y,N,,,,,,,,,,,,,,,,,,,,,,,,,,Y,,,,,,,,,,,,wHtmUDzScbdN7QHw,wHtmUDzScbdN7QHw,wHtmUDzScbdN7QHw,wHtmUDzScbdN7QHw,wHtmUDzScbdN7QHw,wHtmUDzScbdN7QHw,wHtmUDzScbdN7QHw,Spring,ELA03,03,English Language Arts/Literacy,530,8.4,Literary,1.6,Literary,7.0,Literary,6.5
04,,,2014-2015,05-03-2015,RI,R0003,Providence,RP003,Hope High School,w7TmiOs6CWJsXS2l1crivMsf42ZlQ5WAr6Xri2rd,D1AXqIoaXx8AQTaQoumsfu5xeX4aGzCRrecFKecG,JaT2z61Ejzjz9rFhwN0ePthYx9cLsIJJPGYoHeLY,Becki,Lois,Cabello,M,9/2/05,,03,N,N,N,N,N,Y,,03,N,Y,N,Y,Y,N,VI,a0b1c2d3e4f5g6h7i8j9k0l1m2n3opqrstuvwxyz,Y,N,Y,,,,,Y,Y,,,,,,Y,,,,,,,,,,,,,,Y,,,,,,,,,,,,5dj9tnUtD0BaIWR,5dj9tnUtD0BaIWR,5dj9tnUtD0BaIWR,5dj9tnUtD0BaIWR,5dj9tnUtD0BaIWR,5dj9tnUtD0BaIWR,5dj9tnUtD0BaIWR,Spring,ELA03,03,English Language Arts/Literacy,512,4.2,Informational,8.8,Informational,9.2,Informational,3.0
04,,,2014-2015,05-03-2015,RI,R0003,Providence,RP003,Hope High School,e3OGNkIbM4h2skSI4nPuESDwrF1EMmjIfrprGMHz,TKmqHN7XOP5W3NPKNiDZZEdusLdlWLO8Ggpiwvh7,KQp8atYRrBdUzeyGT0DbWG8VMX9vwOZh357WUTZV,Verena,Sandy,Pedone,M,9/2/05,,03,N,Y,N,N,N,N,,02,Y,Y,Y,N,Y,Y,AUT,a0b1c2d3e4f5g6h7i8j9k0l1m2n3opqrstuvwxyz,Y,N,N,,,,,Y,,,,,,,,,,,,,,,,,,,,,Y,,,,,,,,,,,,PBX1kyfKLuDPY9,PBX1kyfKLuDPY9,PBX1kyfKLuDPY9,PBX1kyfKLuDPY9,PBX1kyfKLuDPY9,PBX1kyfKLuDPY9,PBX1kyfKLuDPY9,Spring,ELA03,03,English Language Arts/Literacy,473,9.3,Informational,3.1,Informational,3.4,Informational,4.6
04,,,2014-2015,05-03-2015,RI,R0003,Providence,RP003,Hope High School,oBPTLwB89Yetjpa88VqxOvlIENOqe4XKGKnOrJfM,yLxhxvhJpqKtF1L4Ofz0cSs4BPJh4abTqcZbQyqd,RQOAUp2l6bdfAKIPIfnyW5DxXbFJxeLqRDTCHepM,Orval,Barbar,Matsuura,F,9/2/05,,03,N,N,N,Y,N,N,,05,N,Y,N,N,N,N,SLD,a0b1c2d3e4f5g6h7i8j9k0l1m2n3opqrstuvwxyz,Y,N,Y,,,,,,Y,,,,,,,,,,,,,,,,,,,,Y,,,,,,,,,,,,zzCOsCpPTKTDl6b,zzCOsCpPTKTDl6b,zzCOsCpPTKTDl6b,zzCOsCpPTKTDl6b,zzCOsCpPTKTDl6b,zzCOsCpPTKTDl6b,zzCOsCpPTKTDl6b,Spring,ELA03,03,English Language Arts/Literacy,576,3.6,Literary,8.0,Informational,1.6,Literary,1.7
04,,,2014-2015,05-03-2015,RI,R0003,Providence,RP003,Hope High School,6boPVVoO1Vuyg8VJ5AqV0Zha4rVGrZt3uPrM7xgw,qZL2LXxVKg8Sz8vOKANWLueLW3V5giAyz2jpg4D0,L5wQxkNvAhoDiwvT3jKyOEYyA25RaEL0WVIPOH0Y,Betty,Erasmo,Parr,F,9/2/05,,03,N,N,N,Y,N,N,,06,Y,N,Y,Y,N,N,EMN,a0b1c2d3e4f5g6h7i8j9k0l1m2n3opqrstuvwxyz,Y,Y,Y,,,,,,,,,,,,,,,,,,,,,,,,,,Y,,,,,,,,,,,,9mGeugc3KNKzBWDQoe,9mGeugc3KNKzBWDQoe,9mGeugc3KNKzBWDQoe,9mGeugc3KNKzBWDQoe,9mGeugc3KNKzBWDQoe,9mGeugc3KNKzBWDQoe,9mGeugc3KNKzBWDQoe,Spring,ELA03,03,English Language Arts/Literacy,453,7.0,Literary,8.3,Informational,4.1,Informational,2.4
04,Y,,2014-2015,05-03-2015,RI,R0003,Providence,RP003,Hope High School,KL3R8L1EaO8MgymDcMI59fe7DnjLk0ZuDZiwO2J2,YF1IdV4ztKcjrlJlJkwf1fqIg8yuj2xn9ESdUdsV,WX95D3DMB8lxa2WOd0oFWiUvcMsat1t5gLC8yJTU,Sandy,Verena,Gatti,F,9/2/05,,03,N,N,Y,N,N,N,,07,Y,N,Y,Y,Y,Y,AUT,a0b1c2d3e4f5g6h7i8j9k0l1m2n3opqrstuvwxyz,N,Y,Y,,,,,,,,,,,,,,,,,,,,,,,,,,Y,,,,,,,,,,,,YKNI8ZHfGL,YKNI8ZHfGL,YKNI8ZHfGL,YKNI8ZHfGL,YKNI8ZHfGL,YKNI8ZHfGL,YKNI8ZHfGL,Spring,ELA03,03,English Language Arts/Literacy,591,4.7,Informational,7.1,Literary,3.0,Literary,3.3
04,Y,,2014-2015,02-02-2015,RI,R0003,Providence,RP003,Hope High School,KL3R8L1EaO8MgymDcMI59fe7DnjLk0ZuDZiwO2J2,YF1IdV4ztKcjrlJlJkwf1fqIg8yuj2xn9ESdUdsV,WX95D3DMB8lxa2WOd0oFWiUvcMsat1t5gLC8yJTU,Sandy,Verena,Gatti,F,9/2/05,,03,N,N,Y,N,N,N,,07,Y,N,Y,Y,Y,Y,AUT,a0b1c2d3e4f5g6h7i8j9k0l1m2n3opqrstuvwxyz,N,Y,Y,,,,,,,,,,,,,,,,,,,,,,,,,,Y,,,,,,,,,,,,YKNI8ZHfGL,YKNI8ZHfGL,YKNI8ZHfGL,YKNI8ZHfGL,YKNI8ZHfGL,YKNI8ZHfGL,YKNI8ZHfGL,Spring,ELA03,03,English Language Arts/Literacy,413,5.8,Literary,5.2,Literary,8.9,Literary,1.4
04,,Y,2014-2015,05-03-2015,RI,R0001,Newport,RN001,Rogers High School,5336b7258eb545b3ae7178aeb0cfd72428a36fdb,a64dac1816204195a4759761cf1b2715eaa26359,a91eb32222844401a74296ae3b692b71b536d8f8,Steve,Jan,Brule,M,1/9/05,,03,Y,N,N,N,N,N,,01,Y,Y,Y,N,Y,N,OI,a0b1c2d3e4f5g6h7i8j9k0l1m2n3opqrstuvwxyz,Y,N,N,,Y,,,Y,,,,,HumanReadAloud,Y,Y,Y,,,,,,,Y,oralresponse,SelectedResponse1,,,,,,,,Spanish,,,,Spanish,,,Y,WdC3qlWLnLqd3,WdC3qlWLnLqd3,WdC3qlWLnLqd3,WdC3qlWLnLqd3,WdC3qlWLnLqd3,WdC3qlWLnLqd3,WdC3qlWLnLqd3,Spring,ELA03,03,English Language Arts/Literacy,404,2.9,Literary,5.3,Informational,6.8,Informational,1.8
