rec_id,batch_guid,record_type,is_multi_rec,is_reported_diagnostic,year,asmt_date,state_code,resp_dist_id,resp_dist_name,resp_school_id,resp_school_name,student_parcc_id,student_state_id,student_local_id,student_first_name,student_middle_name,student_last_name,student_sex,student_dob,opt_state_data1,student_grade,ethn_hisp_latino,ethn_indian_alaska,ethn_asian,ethn_black,ethn_hawai,ethn_white,ethn_two_or_more_races,ethn_filler,ethnicity,ell,lep_status,gift_talent,migrant_status,econo_disadvantage,disabil_student,primary_disabil_type,staff_id,accomod_ell,accomod_504,accomod_ind_ed,accomod_freq_breaks,accomod_alt_location,accomod_small_group,accomod_special_equip,accomod_spec_area,accomod_time_day,accomod_answer_mask,accomod_color_contrast,accomod_text_2_speech_math,accomod_read_math,accomod_asl_video,accomod_screen_reader,accomod_close_capt_ela,accomod_read_ela,accomod_braille_ela,accomod_tactile_graph,accomod_text_2_speech_ela,accomod_answer_rec,accomod_braille_resp,accomod_calculator,accomod_construct_resp_ela,accomod_select_resp_ela,accomod_math_resp,accomod_monitor_test_resp,accomod_word_predict,accomod_native_lang,accomod_loud_native_lang,accomod_math_rsp,accomod_math_text_2_speech,accomod_math_trans_online,accomod_w_2_w_dict,accomod_extend_time,accomod_alt_paper_test,accomod_paper_trans_math,accomod_human_read_sign,accomod_large_print,accomod_braille_tactile,opt_state_data2,opt_state_data3,opt_state_data4,opt_state_data5,opt_state_data6,opt_state_data7,opt_state_data8,poy,test_code,asmt_grade,asmt_subject,asmt_scale_score,rec_status,create_date,status_change_date
1,ee9df15f-6f7e-4be9-aa33-ee6badf2c107,04,,Y,2014-2015,2015-03-08,RI,R0001,Newport,RN001,Rogers High School,Xwk5McYQSIRVCwDpzpWzMfHYetWqy5BUNy6Z2ogV,MlmSUBgk2YxCyyfo6OptZmHBC02LlOScVKkBPyQO,xCgjFCvTnUHSEh54cJnkjTZVMEtIczPiAxvh5CrU,Chase,Chase,Lawlor,F,9999-01-01,,03,N,Y,N,N,N,N,,,04,N,Y,R,N,N,N,DD,5f3bcce2cac34dd38578b9d423801dc3b5caf6,N,N,N,,,,,,,,,,,Y,Y,,,,,,,,,,,,,,Y,,,,,,,,,,,,3jjXcxXj9,3jjXcxXj9,3jjXcxXj9,3jjXcxXj9,3jjXcxXj9,3jjXcxXj9,3jjXcxXj9,Spring,ELA03,08,English Language Arts/Literacy,442,C,2016-07-28 14:28:14.189102,2016-07-28 14:38:49.401845+03
2,ee9df15f-6f7e-4be9-aa33-ee6badf2c107,04,,Y,2014-2015,2015-04-01,RI,R0001,Newport,RN001,Rogers High School,UMaYGd8hto4TYc7EiWKtivzti8YAWg5xozomFI8q,GZHpQpxaeap0uLPtsMSNT525rjOaTQiKeyj3YBnK,DGsfQaDDfXEMog1xErfGsJeWSIn7QDNTYHwbxcx1,Lois,Vincent,Jewell,F,9999-01-01,,03,N,N,N,N,N,Y,,,04,N,N,R,Y,N,N,DD,dcdaa08b9b9046beb3e77419481c860bc6598e,N,Y,Y,,,,,,,,,,,Y,,,,,,,,,,,,,,,Y,,,,,,,,,,,,GL7fec1XzKzib,GL7fec1XzKzib,GL7fec1XzKzib,GL7fec1XzKzib,GL7fec1XzKzib,GL7fec1XzKzib,GL7fec1XzKzib,Spring,ELA03,05,English Language Arts/Literacy,461,C,2016-07-28 14:28:14.189102,2016-07-28 14:38:49.401845+03
3,ee9df15f-6f7e-4be9-aa33-ee6badf2c107,04,,Y,2014-2015,2014-11-18,RI,R0001,Newport,RN001,Rogers High School,qEy737ea1Emx97d0RTxk7QpDWecnUu2eEBWvQXkK,PHSqW51HGoDx5DDlrf1AZ8MQhRTnYqmp5hasPeAL,YFTPFKP33wUilNIhHyFcJLPpbnx8U0xSrtxBffCq,Roman,Devon,Neveu,M,9999-01-01,,03,N,N,N,Y,N,N,,,04,N,N,R,Y,Y,N,OI,0a4061fcdd3f4e6ea8db682199fee2757e8275,Y,Y,Y,,,,,,,,,,,Y,,,,,,,,,Y,,SelectedResponse1,MathResponse,,,Y,,,,,,,,,,,,AofVP2mMC41Yt1,AofVP2mMC41Yt1,AofVP2mMC41Yt1,AofVP2mMC41Yt1,AofVP2mMC41Yt1,AofVP2mMC41Yt1,AofVP2mMC41Yt1,Spring,ELA03,05,English Language Arts/Literacy,383,C,2016-07-28 14:28:14.189102,2016-07-28 14:38:49.401845+03
4,ee9df15f-6f7e-4be9-aa33-ee6badf2c107,04,Y,Y,2014-2015,2015-06-15,RI,R0001,Newport,RN001,Rogers High School,MXGplB4M232z2j4FNTStjIAKRER2ujJ8Z2OlV7Yn,xK2Faci3f8jeHK0T5ctKCG9m8qtFs0CUS92459TJ,rBQcB1GLoy5fdMUfjBX7cmKz3xKluOBGdsJL5DDn,Joella,Betty,Parr,F,9999-01-01,,03,N,N,N,N,N,Y,,,02,Y,Y,R,Y,N,Y,OI,0a4061fcdd3f4e6ea8db682199fee2757e8275,N,Y,Y,,,,,,,,,,,Y,,,,Y,,,,,,,,,,,Y,,,,,,,,,,,,KM08fO,KM08fO,KM08fO,KM08fO,KM08fO,KM08fO,KM08fO,Spring,ELA03,08,English Language Arts/Literacy,400,C,2016-07-28 14:28:14.189102,2016-07-28 14:38:49.401845+03
5,ee9df15f-6f7e-4be9-aa33-ee6badf2c107,04,Y,Y,2014-2015,2015-02-02,RI,R0001,Newport,RN001,Rogers High School,MXGplB4M232z2j4FNTStjIAKRER2ujJ8Z2OlV7Yn,xK2Faci3f8jeHK0T5ctKCG9m8qtFs0CUS92459TJ,rBQcB1GLoy5fdMUfjBX7cmKz3xKluOBGdsJL5DDn,Joella,Betty,Parr,F,9999-01-01,,03,N,N,N,N,N,Y,,,02,Y,Y,R,Y,N,Y,OI,5f3bcce2cac34dd38578b9d423801dc3b5caf6,N,Y,Y,,,,,,,,,,,Y,,,,Y,,,,,,,,,,,Y,,,,,,,,,,,,KM08fO,KM08fO,KM08fO,KM08fO,KM08fO,KM08fO,KM08fO,Spring,ELA03,08,English Language Arts/Literacy,569,C,2016-07-28 14:28:14.189102,2016-07-28 14:38:49.401845+03
6,ee9df15f-6f7e-4be9-aa33-ee6badf2c107,04,Y,Y,2014-2015,2015-06-15,RI,R0001,Newport,RN001,Rogers High School,vwkr0R9sEgA872YY02LOWZFwoTLq0ATfnEvZ0i17,wErx2MhJgnsv4KQMeSoJh2dVSn198lOyLnxjtomP,D73On2W5jdPNO4dLrU1dMpZPxnVxtwcfGzdHgy8S,Shane,Becki,Cartlidge,F,9999-01-01,,03,N,N,N,N,N,Y,,,01,Y,N,R,Y,Y,Y,DB,dcdaa08b9b9046beb3e77419481c860bc6598e,N,N,N,,,,,,,,,,,,,Y,HumanSigner,,,,,,,,SelectedResponse1,,Y,,,,,,,,,,Spa,,,,zfCkJ5pIBilv,zfCkJ5pIBilv,zfCkJ5pIBilv,zfCkJ5pIBilv,zfCkJ5pIBilv,zfCkJ5pIBilv,zfCkJ5pIBilv,Spring,ELA03,04,English Language Arts/Literacy,337,C,2016-07-28 14:28:14.189102,2016-07-28 14:38:49.401845+03
7,ee9df15f-6f7e-4be9-aa33-ee6badf2c107,04,Y,Y,2014-2015,2015-02-02,RI,R0001,Newport,RN001,Rogers High School,vwkr0R9sEgA872YY02LOWZFwoTLq0ATfnEvZ0i17,wErx2MhJgnsv4KQMeSoJh2dVSn198lOyLnxjtomP,D73On2W5jdPNO4dLrU1dMpZPxnVxtwcfGzdHgy8S,Shane,Becki,Cartlidge,F,9999-01-01,,03,N,N,N,N,N,Y,,,01,Y,N,R,Y,Y,Y,DB,0a4d255f40644147aaffbcb10fef0d908e8bd9,N,N,N,,,,,,,,,,,,,Y,HumanSigner,,,,,,,,SelectedResponse1,,Y,,,,,,,,,,Spa,,,,zfCkJ5pIBilv,zfCkJ5pIBilv,zfCkJ5pIBilv,zfCkJ5pIBilv,zfCkJ5pIBilv,zfCkJ5pIBilv,zfCkJ5pIBilv,Spring,ELA03,04,English Language Arts/Literacy,347,C,2016-07-28 14:28:14.189102,2016-07-28 14:38:49.401845+03
8,ee9df15f-6f7e-4be9-aa33-ee6badf2c107,04,,Y,2014-2015,2015-04-01,RI,R0002,East Greenwich,RE001,East Greenwich High School,rMB447lffsMQCZOQPIUTPusiGmZolvpxn7jMAsiT,w3eZOegFEIUSKulQeCRbbgDbj9WbHE1cOvn69gPO,5vlNJePaDUMPzuw3C6SIV6wXpD0TXMjGrn1rIkME,Debby,Orval,Benevides,F,9999-01-01,,03,N,N,N,N,N,Y,,,01,Y,Y,R,Y,N,N,SLD,343fe3a084b2422796dbd7533a68de13c3cf37,N,N,N,,,,,,,,,,,,Y,,,,,,,,,,,,,Y,Y,,,,,Y,,,Spa,,,Y,vEcx9C9wPnkP8BRD,vEcx9C9wPnkP8BRD,vEcx9C9wPnkP8BRD,vEcx9C9wPnkP8BRD,vEcx9C9wPnkP8BRD,vEcx9C9wPnkP8BRD,vEcx9C9wPnkP8BRD,Spring,ELA03,05,English Language Arts/Literacy,348,C,2016-07-28 14:28:14.265579,2016-07-28 14:38:49.401845+03
9,ee9df15f-6f7e-4be9-aa33-ee6badf2c107,04,,Y,2014-2015,2014-11-18,RI,R0002,East Greenwich,RE001,East Greenwich High School,3i8VkcJCs5QffVgj2QOmZr3MLv40I0KJc5k5DcWe,sPKVH1LPyxMta9HHY4pOUwYc2hgvAQXRb4Nn3vVH,uYMntLy65YFYZooxdD3tmjcfOzdAfnbOURxtw5uL,Keshia,Arnette,Mantle,F,9999-01-01,,03,Y,N,N,N,N,N,,,01,Y,Y,R,N,Y,N,SLD,dcdaa08b9b9046beb3e77419481c860bc6598e,N,Y,N,,,,,,,,,,HumanSigner,,,,,,,,,,,,,,,,,,,,,,,,Spa,,,,bEcar4ZudgE7,bEcar4ZudgE7,bEcar4ZudgE7,bEcar4ZudgE7,bEcar4ZudgE7,bEcar4ZudgE7,bEcar4ZudgE7,Spring,ELA03,06,English Language Arts/Literacy,538,C,2016-07-28 14:28:14.265579,2016-07-28 14:38:49.401845+03
10,ee9df15f-6f7e-4be9-aa33-ee6badf2c107,04,,Y,2014-2015,2015-06-15,RI,R0002,East Greenwich,RE001,East Greenwich High School,WAhvqzYnESXaMgGYTK04IH1RPLeTatzuOubPg8U7,eCPPkTke1VjCEQGR7fv75sCaUOpKB6Ux4uubwxmp,0JvlHOeCIPlXfvoQBcaq88zuhe4VC3CMqSMIewNf,Arnette,Roman,Heckman,M,9999-01-01,,03,N,N,N,Y,N,N,,,02,N,N,R,N,N,Y,TBI,0a4061fcdd3f4e6ea8db682199fee2757e8275,N,Y,N,,,,,,,,,,,Y,,,,,,,,,Y,,,,,,,,,,,,,,,,,,MxOvcIRQv,MxOvcIRQv,MxOvcIRQv,MxOvcIRQv,MxOvcIRQv,MxOvcIRQv,MxOvcIRQv,Spring,ELA03,04,English Language Arts/Literacy,560,C,2016-07-28 14:28:14.265579,2016-07-28 14:38:49.401845+03
11,ee9df15f-6f7e-4be9-aa33-ee6badf2c107,04,,Y,2014-2015,2014-11-18,RI,R0002,East Greenwich,RE001,East Greenwich High School,N1eKk2eGo15Htuapk7zDnIIftLz18aVE1PMPSktf,1MuydaJPqVwL73BlUbInGkDx4AOijXeulKfdfP6v,zkx46I7G2Nd1CipPzPAOYgC92lGvNZYvOHU0wbW2,Barbar,Erasmo,Pedone,M,9999-01-01,,03,N,N,N,N,N,Y,,,03,N,N,R,N,Y,Y,DB,343fe3a084b2422796dbd7533a68de13c3cf37,N,Y,Y,,,,,,,,,,,Y,Y,Y,,,,,Y,BrailleWriter,Y,,,,,,,,,Spa,,,,,Spa,,,,LNjtpdOtesj1c4amNTk,LNjtpdOtesj1c4amNTk,LNjtpdOtesj1c4amNTk,LNjtpdOtesj1c4amNTk,LNjtpdOtesj1c4amNTk,LNjtpdOtesj1c4amNTk,LNjtpdOtesj1c4amNTk,Spring,ELA03,06,English Language Arts/Literacy,492,C,2016-07-28 14:28:14.265579,2016-07-28 14:38:49.401845+03
12,ee9df15f-6f7e-4be9-aa33-ee6badf2c107,04,Y,Y,2014-2015,2015-03-08,RI,R0002,East Greenwich,RE001,East Greenwich High School,pB7SBPI9whDTX6jqMTvlCa5POI7wiii3ik8YSqUN,71L3VffWOE0M4VWkRnc68I3jHb2fq71R9guPY9JJ,sfC58DkrG3bkJ2rcGRb8SGgBjmvLuVlT0KGZ0jLL,Jacquline,Kimberely,Neveu,M,9999-01-01,,03,N,N,Y,N,N,N,,,04,N,N,R,N,N,N,DD,cbae066d8cec4492bcbb66c5dccd0965689b3b,N,Y,N,Y,,Y,Y,,,,,,,,Y,,,,,,,,Y,,,,Y,,,,,,,,Y,,Spa,,,,9opCz4520wIrA5pt,9opCz4520wIrA5pt,9opCz4520wIrA5pt,9opCz4520wIrA5pt,9opCz4520wIrA5pt,9opCz4520wIrA5pt,9opCz4520wIrA5pt,Spring,ELA03,08,English Language Arts/Literacy,558,C,2016-07-28 14:28:14.265579,2016-07-28 14:38:49.401845+03
13,ee9df15f-6f7e-4be9-aa33-ee6badf2c107,04,Y,Y,2014-2015,2015-02-02,RI,R0002,East Greenwich,RE001,East Greenwich High School,pB7SBPI9whDTX6jqMTvlCa5POI7wiii3ik8YSqUN,71L3VffWOE0M4VWkRnc68I3jHb2fq71R9guPY9JJ,sfC58DkrG3bkJ2rcGRb8SGgBjmvLuVlT0KGZ0jLL,Jacquline,Kimberely,Neveu,M,9999-01-01,,03,N,N,Y,N,N,N,,,04,N,N,R,N,N,N,DD,5f3bcce2cac34dd38578b9d423801dc3b5caf6,N,Y,N,Y,,Y,Y,,,,,,,,Y,,,,,,,,Y,,,,Y,,,,,,,,Y,,Spa,,,,9opCz4520wIrA5pt,9opCz4520wIrA5pt,9opCz4520wIrA5pt,9opCz4520wIrA5pt,9opCz4520wIrA5pt,9opCz4520wIrA5pt,9opCz4520wIrA5pt,Spring,ELA03,08,English Language Arts/Literacy,410,C,2016-07-28 14:28:14.265579,2016-07-28 14:38:49.401845+03
14,ee9df15f-6f7e-4be9-aa33-ee6badf2c107,04,,Y,2014-2015,2015-03-08,RI,R0003,Providence,RP001,Alvarez High School,hg02kpP44BJM9WGFlA0mRLg0cjzMSdEZR6vPrOdQ,Tvw1NS4wwtZ4tkwb0iVisHEi7Ry715pRRjGtbL1r,mvxrV6SfCFq11d05bN01KupSnan42G0QEJyFwwO5,Jacquline,Zofia,Forst,F,9999-01-01,,03,N,N,N,N,N,Y,,,03,Y,N,R,N,Y,N,DB,3c6b9327b0484f5f84741b204a6c9f02208bc1,Y,Y,Y,,,,,,,,,,,,,,,,,Y,,,,,,,,,,,,,Spa,,,,Spa,,,,5VeHNBZEifdweJB,5VeHNBZEifdweJB,5VeHNBZEifdweJB,5VeHNBZEifdweJB,5VeHNBZEifdweJB,5VeHNBZEifdweJB,5VeHNBZEifdweJB,Spring,ELA03,04,English Language Arts/Literacy,509,C,2016-07-28 14:28:14.265579,2016-07-28 14:38:49.401845+03
15,ee9df15f-6f7e-4be9-aa33-ee6badf2c107,04,,Y,2014-2015,2015-04-01,RI,R0003,Providence,RP001,Alvarez High School,zxITiM66QUVOcTyhRaooB0UIOWemGFP8eQE7xPSx,6oZAVILFTfpG9poJ4qFAJOvw0XYa9suCqZPc2Jkf,UZJGBAKBhDPPLpfVCc225qzGY4J1Ei8vjBnnFwh6,Zofia,Keshia,Mccreery,F,9999-01-01,,03,N,N,N,N,N,N,,,04,Y,N,R,N,N,Y,SLI,5f3bcce2cac34dd38578b9d423801dc3b5caf6,Y,Y,N,,,Y,,,,,,,,,,,,,,,,,,,,,,,,,SpeechToText,Spa,,,,,,,,,ZUbaT2XarRNdc71,ZUbaT2XarRNdc71,ZUbaT2XarRNdc71,ZUbaT2XarRNdc71,ZUbaT2XarRNdc71,ZUbaT2XarRNdc71,ZUbaT2XarRNdc71,Spring,ELA03,03,English Language Arts/Literacy,443,C,2016-07-28 14:28:14.457393,2016-07-28 14:38:49.401845+03
16,ee9df15f-6f7e-4be9-aa33-ee6badf2c107,04,,Y,2014-2015,2014-11-18,RI,R0003,Providence,RP001,Alvarez High School,6xduCZW2oSUGSLzpiFpJQQK8YSAzmBrMjAh4WEkn,K0e1FlOXuZVSpMaTr2EUHQLrGDQSoSmZWfuY1MED,nb43B38TZ8h5SZPLTc6GMdXWSZxi8O6xGOUaLZvS,Shane,Kimberely,Gatti,M,9999-01-01,,03,Y,N,N,N,N,N,,,05,N,N,R,N,N,N,HI,3c6b9327b0484f5f84741b204a6c9f02208bc1,N,N,Y,,,,Y,,,,,,,,,,,,,,,,Y,,,,,,,,,,,,Y,,Spa,,,,jg,jg,jg,jg,jg,jg,jg,Spring,ELA03,06,English Language Arts/Literacy,454,C,2016-07-28 14:28:14.457393,2016-07-28 14:38:49.401845+03
17,ee9df15f-6f7e-4be9-aa33-ee6badf2c107,04,,Y,2014-2015,2014-11-18,RI,R0003,Providence,RP001,Alvarez High School,wUfuK1C1vpevOq8cV6oqQxNNwJV1TbzeraL8fC4v,SYKyRcyh4S0npwfeCEDSXEcNeevVBGyI1cUZ7JBa,QA9WHJjldT89J8LHuhwDFqG4aVG9MKz4pBxkHNKQ,Sandy,Devon,Mccreery,M,9999-01-01,,03,N,N,N,N,Y,N,,,05,N,Y,R,Y,Y,N,SLD,3c6b9327b0484f5f84741b204a6c9f02208bc1,Y,N,Y,,,,,,,,,,,,,,,,,,,,Y,,,,,,,,,,,,Y,,,,,,f8xX7D9KWP6ArNd8,f8xX7D9KWP6ArNd8,f8xX7D9KWP6ArNd8,f8xX7D9KWP6ArNd8,f8xX7D9KWP6ArNd8,f8xX7D9KWP6ArNd8,f8xX7D9KWP6ArNd8,Spring,ELA03,06,English Language Arts/Literacy,319,C,2016-07-28 14:28:14.457393,2016-07-28 14:38:49.401845+03
18,ee9df15f-6f7e-4be9-aa33-ee6badf2c107,04,,Y,2014-2015,2015-05-05,RI,R0003,Providence,RP002,Mount Pleasant High School,SY0CEikzlomxMRW6NsjHhNuLpK17yruc5pjGavX8,XFnox5kaJRbysJtAmQHxOLaKWJvPvzQgkz3pv0KK,CaYqEwjoL1rAeX2BVmrVwhjXiORRRnxWWYbgKINv,Joella,Vincent,Pando,M,9999-01-01,,03,N,N,N,N,N,Y,,,02,N,Y,R,N,N,N,AUT,0a4061fcdd3f4e6ea8db682199fee2757e8275,N,N,Y,,,,,,,,,,,,,,,,,,,,,,,,,,Y,,SpeechToText,,,,Y,,,,,,J6XVOOZ7YZCeO,J6XVOOZ7YZCeO,J6XVOOZ7YZCeO,J6XVOOZ7YZCeO,J6XVOOZ7YZCeO,J6XVOOZ7YZCeO,J6XVOOZ7YZCeO,Spring,ELA03,04,English Language Arts/Literacy,354,C,2016-07-28 14:28:14.457393,2016-07-28 14:38:49.401845+03
19,ee9df15f-6f7e-4be9-aa33-ee6badf2c107,04,,Y,2014-2015,2015-03-08,RI,R0003,Providence,RP002,Mount Pleasant High School,QitKZjIhO0SovQYzrO9PfV1o1b0P0xRtKwJwFRqc,CZIdF9IWXP4VxKMRmyhuMH3RrbLuzlUQHcNpeiui,RAwF4ar58LF7U1lAoUhrunhyGSrKowNmH5IHEaVX,Winona,Darci,Pedone,F,9999-01-01,,03,Y,N,N,N,N,N,,,03,N,Y,R,N,Y,N,SLI,343fe3a084b2422796dbd7533a68de13c3cf37,N,N,Y,,,Y,,,,,,,,,Y,,,,,,,,,,,,,,Y,,,,,,,,,,,,idlDCzYl45cO7,idlDCzYl45cO7,idlDCzYl45cO7,idlDCzYl45cO7,idlDCzYl45cO7,idlDCzYl45cO7,idlDCzYl45cO7,Spring,ELA03,04,English Language Arts/Literacy,582,C,2016-07-28 14:28:14.457393,2016-07-28 14:38:49.401845+03
20,ee9df15f-6f7e-4be9-aa33-ee6badf2c107,04,,Y,2014-2015,2015-06-15,RI,R0003,Providence,RP002,Mount Pleasant High School,c0pT5dPt1QuTicyE2IWo13jRf8kh2ep7ZI8flg9g,UeDU72FXhOsN87hmLVrvg2axM0ew777BXwUfOMQi,3ZnniDJxEkJJud7n9G1N5inYdTaqvPSqp60jxBHx,Betty,Senaida,Augustus,F,9999-01-01,,03,N,N,N,Y,N,N,,,02,Y,Y,R,N,Y,Y,EMN,5f3bcce2cac34dd38578b9d423801dc3b5caf6,Y,Y,N,,,,,,,,,,,,,,,,,,,,,,,,,,Y,,,,,,,,,,,,wHtmUDzScbdN7QHw,wHtmUDzScbdN7QHw,wHtmUDzScbdN7QHw,wHtmUDzScbdN7QHw,wHtmUDzScbdN7QHw,wHtmUDzScbdN7QHw,wHtmUDzScbdN7QHw,Spring,ELA03,06,English Language Arts/Literacy,367,C,2016-07-28 14:28:14.457393,2016-07-28 14:38:49.401845+03
21,ee9df15f-6f7e-4be9-aa33-ee6badf2c107,04,,Y,2014-2015,2015-03-08,RI,R0003,Providence,RP003,Hope High School,w7TmiOs6CWJsXS2l1crivMsf42ZlQ5WAr6Xri2rd,D1AXqIoaXx8AQTaQoumsfu5xeX4aGzCRrecFKecG,JaT2z61Ejzjz9rFhwN0ePthYx9cLsIJJPGYoHeLY,Becki,Lois,Cabello,M,9999-01-01,,03,N,N,N,N,N,Y,,,03,N,Y,R,Y,Y,N,VI,0a4d255f40644147aaffbcb10fef0d908e8bd9,Y,N,Y,,,,,Y,Y,,,,,,Y,,,,,,,,,,,,,,Y,,,,,,,,,,,,5dj9tnUtD0BaIWR,5dj9tnUtD0BaIWR,5dj9tnUtD0BaIWR,5dj9tnUtD0BaIWR,5dj9tnUtD0BaIWR,5dj9tnUtD0BaIWR,5dj9tnUtD0BaIWR,Spring,ELA03,08,English Language Arts/Literacy,425,C,2016-07-28 14:28:14.457393,2016-07-28 14:38:49.401845+03
22,ee9df15f-6f7e-4be9-aa33-ee6badf2c107,04,,Y,2014-2015,2015-04-01,RI,R0003,Providence,RP003,Hope High School,e3OGNkIbM4h2skSI4nPuESDwrF1EMmjIfrprGMHz,TKmqHN7XOP5W3NPKNiDZZEdusLdlWLO8Ggpiwvh7,KQp8atYRrBdUzeyGT0DbWG8VMX9vwOZh357WUTZV,Verena,Sandy,Pedone,M,9999-01-01,,03,N,Y,N,N,N,N,,,02,Y,Y,R,N,Y,Y,AUT,ded3479fc4504921ac1cf878b8c5d015efffc1,Y,N,N,,,,,Y,,,,,,,,,,,,,,,,,,,,,Y,,,,,,,,,,,,PBX1kyfKLuDPY9,PBX1kyfKLuDPY9,PBX1kyfKLuDPY9,PBX1kyfKLuDPY9,PBX1kyfKLuDPY9,PBX1kyfKLuDPY9,PBX1kyfKLuDPY9,Spring,ELA03,04,English Language Arts/Literacy,424,C,2016-07-28 14:28:14.657548,2016-07-28 14:38:49.401845+03
23,ee9df15f-6f7e-4be9-aa33-ee6badf2c107,04,,Y,2014-2015,2015-05-05,RI,R0003,Providence,RP003,Hope High School,oBPTLwB89Yetjpa88VqxOvlIENOqe4XKGKnOrJfM,yLxhxvhJpqKtF1L4Ofz0cSs4BPJh4abTqcZbQyqd,RQOAUp2l6bdfAKIPIfnyW5DxXbFJxeLqRDTCHepM,Orval,Barbar,Matsuura,F,9999-01-01,,03,N,N,N,Y,N,N,,,05,N,Y,R,N,N,N,SLD,0a4061fcdd3f4e6ea8db682199fee2757e8275,Y,N,Y,,,,,,Y,,,,,,,,,,,,,,,,,,,,Y,,,,,,,,,,,,zzCOsCpPTKTDl6b,zzCOsCpPTKTDl6b,zzCOsCpPTKTDl6b,zzCOsCpPTKTDl6b,zzCOsCpPTKTDl6b,zzCOsCpPTKTDl6b,zzCOsCpPTKTDl6b,Spring,ELA03,03,English Language Arts/Literacy,374,C,2016-07-28 14:28:14.657548,2016-07-28 14:38:49.401845+03
24,ee9df15f-6f7e-4be9-aa33-ee6badf2c107,04,,Y,2014-2015,2014-11-18,RI,R0003,Providence,RP003,Hope High School,6boPVVoO1Vuyg8VJ5AqV0Zha4rVGrZt3uPrM7xgw,qZL2LXxVKg8Sz8vOKANWLueLW3V5giAyz2jpg4D0,L5wQxkNvAhoDiwvT3jKyOEYyA25RaEL0WVIPOH0Y,Betty,Erasmo,Parr,F,9999-01-01,,03,N,N,N,Y,N,N,,,06,Y,N,R,Y,N,N,EMN,43e0d272a0c245bfb568ee9e944a12c9436f17,Y,Y,Y,,,,,,,,,,,,,,,,,,,,,,,,,,Y,,,,,,,,,,,,9mGeugc3KNKzBWDQoe,9mGeugc3KNKzBWDQoe,9mGeugc3KNKzBWDQoe,9mGeugc3KNKzBWDQoe,9mGeugc3KNKzBWDQoe,9mGeugc3KNKzBWDQoe,9mGeugc3KNKzBWDQoe,Spring,ELA03,06,English Language Arts/Literacy,378,C,2016-07-28 14:28:14.657548,2016-07-28 14:38:49.401845+03
25,ee9df15f-6f7e-4be9-aa33-ee6badf2c107,04,,Y,2014-2015,2015-06-15,RI,R0003,Providence,RP003,Hope High School,KL3R8L1EaO8MgymDcMI59fe7DnjLk0ZuDZiwO2J2,YF1IdV4ztKcjrlJlJkwf1fqIg8yuj2xn9ESdUdsV,WX95D3DMB8lxa2WOd0oFWiUvcMsat1t5gLC8yJTU,Sandy,Verena,Gatti,F,9999-01-01,,03,N,N,Y,N,N,N,,,07,Y,N,R,Y,Y,Y,AUT,43e0d272a0c245bfb568ee9e944a12c9436f17,N,Y,Y,,,,,,,,,,,,,,,,,,,,,,,,,,Y,,,,,,,,,,,,YKNI8ZHfGL,YKNI8ZHfGL,YKNI8ZHfGL,YKNI8ZHfGL,YKNI8ZHfGL,YKNI8ZHfGL,YKNI8ZHfGL,Spring,ELA03,04,English Language Arts/Literacy,455,C,2016-07-28 14:28:14.657548,2016-07-28 14:38:49.401845+03
26,ee9df15f-6f7e-4be9-aa33-ee6badf2c107,04,,Y,2014-2015,2015-04-01,RI,R0001,Newport,RN001,Rogers High School,5336b7258eb545b3ae7178aeb0cfd72428a36fdb,a64dac1816204195a4759761cf1b2715eaa26359,a91eb32222844401a74296ae3b692b71b536d8f8,Steve,Jan,Brule,M,9999-01-01,,03,Y,N,N,N,N,N,,,01,Y,Y,R,N,Y,N,OI,5f3bcce2cac34dd38578b9d423801dc3b5caf6,Y,N,N,,Y,,,Y,,,,,HumanReadAloud,Y,Y,Y,,,,,,,Y,oralresponse,SelectedResponse1,,,,,,,,Spa,,,,Spa,,,Y,WdC3qlWLnLqd3,WdC3qlWLnLqd3,WdC3qlWLnLqd3,WdC3qlWLnLqd3,WdC3qlWLnLqd3,WdC3qlWLnLqd3,WdC3qlWLnLqd3,Spring,ELA03,05,English Language Arts/Literacy,533,C,2016-07-28 14:28:14.657548,2016-07-28 14:38:49.401845+03
