RecordType,MultipleRecordFlag,ReportedSummativeScoreFlag,ReportedRosterFlag,ReportSuppressionCode,ReportSuppressionAction,PBA03category,EOY03category,StateAbbreviation,ResponsibleDistrictCode,ResponsibleDistrictName,ResponsibleSchoolCode,ResponsibleSchoolInstitutionName,PBATestingDistrictCode,PBATestingDistrictName,PBATestingSchoolInstitutionCode,PBATestingSchoolInstitutionName,EOYTestingDistrictCode,EOYTestingDistrictName,EOYTestingSchoolInstitutionCode,EOYTestingSchoolInstitutionName,PARCCStudentIdentifier,StateStudentIdentifier,LocalStudentIdentifier,FirstName,MiddleName,LastName,Sex,Birthdate,StateField1,GradeLevelWhenAssessed,HispanicorLatinoEthnicity,AmericanIndianorAlaskaNative,Asian,BlackorAfricanAmerican,NativeHawaiianorOtherPacificIslander,White,TwoorMoreRaces,FillerRaceField,FederalRaceEthnicity,EnglishLearner,TitleIIILimitedEnglishProficientParticipationStatus,GiftedandTalented,MigrantStatus,EconomicDisadvantageStatus,StudentWithDisabilities,PrimaryDisabilityType,StaffMemberIdentifier,ELAccommodation,FrequentBreaks,SeparateAlternateLocation,SmallTestingGroup,SpecializedEquipmentorFurniture,SpecifiedAreaorSetting,TimeOfDay,AnswerMasking,GeneralMasking,ColorContrast,ASLVideo,AssistiveTechnologyScreenReader,AssistiveTechnologyNonScreenReader,ClosedCaptioningforELAL,RefreshableBrailleDisplayforELAL,AnswersRecordedinTestBook,BrailleResponse,CalculationDeviceandMathematicsTools,ELALConstructedResponse,ELALSelectedResponseorTechnologyEnhancedItems,MathematicsResponse,MonitorTestResponse,WordPrediction,AdministrationDirectionsClarifiedinStudentsNativeLanguage,AdministrationDirectionsReadAloudinStudentsNativeLanguage,MathematicsResponseEL,TranslationoftheMathematicsAssessment,WordtoWordDictionaryEnglishNativeLanguage,ExtendedTime,AlternateRepresentationPaperTest,TranslationoftheMathematicsAssessmentinPaper,LargePrint,BraillewithTactileGraphics,TextToSpeech,HumanReaderorHumanSigner,UniqueAccommodation,EmergencyAccommodation,StudentReadsAssessmentAloudToThemselves,HumanSignerForTestDirections,StateField2,StateField3,StateField4,StateField5,StateField6,StateField7,StateField8,StateField9,StateField10,StateField11,StateField12,Period,TestCode,Subject,PBAFormID,EOYFormID,PBAStudentTestUUID,EOYStudentTestUUID,SummativeScoreRecordUUID,PBATotalTestItems,PBATestAttemptednessFlag,EOYTotalTestItems,EOYTestAttemptednessFlag,PBATotalTestItemsAttempted,PBAUnit1TotalNumberofItems,PBAUnit1NumberofAttemptedItems,PBAUnit2TotalNumberofItems,PBAUnit2NumberofAttemptedItems,PBAUnit3TotalNumberofItems,PBAUnit3NumberofAttemptedItems,PBAUnit4TotalNumberofItems,PBAUnit4NumberofAttemptedItems,PBAUnit5TotalNumberofItems,PBAUnit5NumberofAttemptedItems,EOYTotalTestItemsAttempted,EOYUnit1TotalNumberofItems,EOYUnit1NumberofAttemptedItems,EOYUnit2TotalNumberofItems,EOYUnit2NumberofAttemptedItems,EOYUnit3TotalNumberofItems,EOYUnit3NumberofAttemptedItems,EOYUnit4TotalNumberofItems,EOYUnit4NumberofAttemptedItems,EOYUnit5TotalNumberofItems,EOYUnit5NumberofAttemptedItems,PBANotTestedReason,EOYNotTestedReason,PBAVoidPBAEOYScoreReason,EOYVoidPBAEOYScoreReason,PBARawScore,EOYRawScore,SummativeScaleScore,SummativeCSEM,SummativePerformanceLevel,SummativeReadingScaleScore,SummativeReadingCSEM,SummativeWritingScaleScore,SummativeWritingCSEM,Subclaim1Category,Subclaim2Category,Subclaim3Category,Subclaim4Category,Subclaim5Category,Subclaim6Category,StudentGrowthPercentileComparedtoState,StudentGrowthPercentileComparedtoDistrict,StudentGrowthPercentileComparedtoPARCC,AssessmentYear,AssessmentGrade
01,N,Y,,2,4,,,RI,R0003,Providence,RP003,Hope High School,,,,,,,,,DuncASxHMXlhtve8RRDsuUQ83LaR8gIZ7rFEP0zs,yLuqbEc8yr,obEJXPqoQ1I2Eo8TD3G1vEPa5JoHuUpua7gIzMe1,Joella,Marisela,Pando,F,2/9/05,,11,N,N,N,N,N,N,,,04,Y,N,N,N,Y,N,VI,5f3bcce2cac34dd38578b9d423801dc3b5caf6,N,,,,Y,,,,,,,,,,,,,Y,,,,,,,,,,,,,Spanish,,,,,,,,,hGaOD5arW64LWlk2,hGaOD5arW64LWlk2,hGaOD5arW64LWlk2,hGaOD5arW64LWlk2,hGaOD5arW64LWlk2,hGaOD5arW64LWlk2,hGaOD5arW64LWlk2,,,,,Spring,MAT05,Mathematics,,6ITIkaJdbq32oy,,088b45b9-5cdf-4b9c-b414-44b971a00dd3,11341062-4858-4bc4-a301-f94f95adeeae,54,,,,68,21,26,87,66,78,69,38,44,2,69,,21,26,87,66,78,69,38,44,2,69,9,9,51,51,98,,110,8,2,,6,,2,2,1,2,3,1,,74,92,5,2014-2015,Grade 5
01,Y,Y,,1,1,,,RI,R0001,Newport,RN001,Rogers High School,,,,,,,,,5336b7258eb545b3ae7178aeb0cfd72428a36fdb,a64dac1816,a91eb32222844401a74296ae3b692b71b536d8f8,Steve,Jan,Brule,M,1/9/05,,05,Y,N,N,N,N,N,,,01,Y,Y,Y,N,Y,N,OI,dcdaa08b9b9046beb3e77419481c860bc6598e,Y,,Y,,,Y,,,,,Y,Y,,Y,,,,Y,,,,,,,,,Spanish,,,,Spanish,,Y,,,,,,,WdC3qlWLnLqd3,WdC3qlWLnLqd3,WdC3qlWLnLqd3,WdC3qlWLnLqd3,WdC3qlWLnLqd3,WdC3qlWLnLqd3,WdC3qlWLnLqd3,,,,,Spring,MAT05,Mathematics,,1yum7wlYtgEza0,,13162932-2ee6-4d59-b595-fb23ff0b8efd,5d2f2e17-69d4-4f19-918e-5feeecdd18dc,46,,,,94,38,4,92,62,12,46,59,56,55,75,,38,4,92,62,12,46,59,56,55,75,0,0,39,39,46,,335,6,4,,1,,1,2,2,3,1,3,,86,93,77,2014-2015,Grade 5
